## Template for parameter description file for Iterated Race.
##
## The format is one parameter per line. Each line contains:
##
## 1: Name of the parameter. An unquoted alphanumeric string,
##    example: ants

## 2: Switch to pass the parameter. A quoted (possibly empty) string, 
##    if the value and the switch must be separated, add a space at
##    the end of the string. Example : "--version1 --ants "

## 3: Type. An unquoted single letter, among 
##     i: Integer, c: categorical, o: ordinal, r: real.

## 4: For c and o: All possible values, that is, a variable number of
##    quoted or unquoted strings separated by commas within
##    parenthesis. Empty strings and strings containing commas or
##    spaces must be quoted.
##    For i,r: a pair of unquoted numbers representing minimum and
##    maximum values. 

## 5: A conditional parameter can be defined according to the values of
##    one or several other parameters.  This is done by adding a
##    character '|' followed by an R expression involving the names of
##    other parameters. This expression must return TRUE if the 
##    condition is satisfied, FALSE otherwise.

# 1:               		2:                   3: 4:      	5:
# MAX_ITERACIJA      		"--maxiter "         	i 	(100, 5000)
VELICINA_POPULACIJE      	"--velPop "         	i 	(10, 150)
ELITA				"--brElita "         	i 	(10, 150)
VEROVATNOCA_MUTACIJE      	"--pMutacije "         	r 	(0, 1)
VELICINA_TURNIRA      		"--velTurnira "        	c 	(2, 3, 4, 5, 6, 7)
# VELICINA_TURNIRA      		"--velTurnita "        	i 	(0, 150)
TIP_UKRSTANJA			"--tipUkrstanja "     	c 	(1, 2, 3)
MAX_ITERACIJA_SA     		"--maxiterSA "         	i 	(0, 500)
tipZavese	   		"--tipZavese "	     	c	(1, 2, 3)
pocetnaTemperatura	   	"--temp "	     	r	(0, 50000)	| tipZavese == 3
parametarHladjenja		"--paramHladjenja " 	r	(0, 1)		| tipZavese == 3
