100
13881.000000 86955.000000
64238.000000 23418.000000
89796.000000 73026.000000
81424.000000 10815.000000
72653.000000 57724.000000
3988.000000 98145.000000
63449.000000 18250.000000
47784.000000 52132.000000
54273.000000 97090.000000
85851.000000 56722.000000
24558.000000 12590.000000
17342.000000 10370.000000
28360.000000 8018.000000
31769.000000 60684.000000
56023.000000 88213.000000
2673.000000 92925.000000
54784.000000 81572.000000
25468.000000 6445.000000
26237.000000 2490.000000
32951.000000 4622.000000
60253.000000 23846.000000
61706.000000 74060.000000
63056.000000 13396.000000
61088.000000 52416.000000
89687.000000 44686.000000
23583.000000 68514.000000
75749.000000 3100.000000
45731.000000 32320.000000
27340.000000 40162.000000
95559.000000 40735.000000
25507.000000 62693.000000
84762.000000 38901.000000
77378.000000 63197.000000
64613.000000 54602.000000
47659.000000 42181.000000
43604.000000 21398.000000
59276.000000 36008.000000
86123.000000 22112.000000
95267.000000 50386.000000
95365.000000 96533.000000
84422.000000 28764.000000
87958.000000 98464.000000
3061.000000 19809.000000
12560.000000 27055.000000
11270.000000 87849.000000
13910.000000 61485.000000
58405.000000 32560.000000
55839.000000 49283.000000
18040.000000 39474.000000
51037.000000 49539.000000
62789.000000 40726.000000
52037.000000 60998.000000
56724.000000 26425.000000
91906.000000 43058.000000
22768.000000 52323.000000
334.000000 36616.000000
17066.000000 47146.000000
94807.000000 20352.000000
89295.000000 83382.000000
92230.000000 3157.000000
63049.000000 79278.000000
57250.000000 80262.000000
80720.000000 23938.000000
23749.000000 87595.000000
26253.000000 36337.000000
64746.000000 86656.000000
46099.000000 86390.000000
34433.000000 30591.000000
26415.000000 29184.000000
83904.000000 52898.000000
95400.000000 70894.000000
54741.000000 13633.000000
9206.000000 30970.000000
24677.000000 39588.000000
90395.000000 92585.000000
12912.000000 87815.000000
10582.000000 94522.000000
11953.000000 44921.000000
83102.000000 89606.000000
15486.000000 78551.000000
46667.000000 26741.000000
39758.000000 40569.000000
62843.000000 99727.000000
9684.000000 91408.000000
18715.000000 30386.000000
88815.000000 61768.000000
52793.000000 84139.000000
38622.000000 30041.000000
79888.000000 51467.000000
86654.000000 50476.000000
45709.000000 69592.000000
91556.000000 64981.000000
93417.000000 28555.000000
12371.000000 17364.000000
2826.000000 30292.000000
54641.000000 20709.000000
10079.000000 55425.000000
33335.000000 91145.000000
98793.000000 99489.000000
37698.000000 86915.000000
0.001124 0.056795 0.020137 0.081065 0.058916 0.048507 0.035679 0.089700 0.082461 0.074914 0.018237 0.086035 0.071340 0.051840 0.031095 0.002483 0.010049 0.037081 0.015584 0.017424 0.098864 0.045124 0.012789 0.001462 0.001882 0.038410 0.053635 0.057547 0.060575 0.061109 0.017457 0.066641 0.045628 0.035860 0.006647 0.061161 0.078549 0.080458 0.052468 0.030893 0.087721 0.072941 0.095634 0.092646 0.054396 0.015091 0.046746 0.024297 0.086362 0.021751 0.078186 0.084522 0.099683 0.099970 0.061538 0.039851 0.027355 0.030431 0.084174 0.003351 0.038211 0.010170 0.068043 0.006565 0.001870 0.091960 0.028313 0.028017 0.059203 0.069427 0.083923 0.072923 0.049009 0.021331 0.074630 0.047377 0.046338 0.094966 0.074699 0.011720 0.060306 0.039138 0.073766 0.061288 0.057668 0.036773 0.016004 0.023285 0.043090 0.080485 0.052193 0.099009 0.075403 0.035211 0.017729 0.066073 0.049698 0.007290 0.070276 0.050976 
0.015602 0.095009 0.015016 0.090607 0.069596 0.031002 0.043229 0.007967 0.096695 0.068636 0.016170 0.087848 0.082346 0.058623 0.019944 0.018611 0.081902 0.048051 0.016400 0.050888 0.073470 0.041154 0.028678 0.057306 0.068542 0.075829 0.072470 0.048054 0.013179 0.037413 0.083633 0.004475 0.052184 0.066635 0.043196 0.011363 0.094985 0.092217 0.055405 0.035253 0.047701 0.038123 0.084851 0.032370 0.046154 0.027917 0.098314 0.030482 0.074180 0.057161 0.020403 0.076370 0.084105 0.040368 0.050589 0.089126 0.003719 0.099468 0.057686 0.006000 0.053601 0.020213 0.084461 0.063049 0.066104 0.020587 0.084374 0.013209 0.011883 0.074569 0.032093 0.094166 0.029322 0.034295 0.014886 0.073575 0.083627 0.071092 0.060424 0.074974 0.026020 0.015303 0.001160 0.007040 0.080818 0.085410 0.021847 0.012445 0.055768 0.002411 0.012264 0.045997 0.075470 0.068929 0.054801 0.008315 0.044235 0.020992 0.069926 0.029745 
0.044232 0.024010 0.058209 0.053725 0.063239 0.016859 0.050909 0.096341 0.069880 0.092555 0.019805 0.034259 0.018657 0.099523 0.046287 0.099804 0.010653 0.062892 0.010345 0.044335 0.093220 0.005795 0.089567 0.029712 0.023503 0.077138 0.041661 0.020995 0.063179 0.060810 0.045710 0.047169 0.060185 0.063838 0.085625 0.083050 0.062853 0.072370 0.057009 0.038138 0.019243 0.074053 0.055958 0.090604 0.025044 0.019705 0.060868 0.070152 0.058877 0.035779 0.049952 0.008958 0.074334 0.061593 0.062418 0.069421 0.080648 0.015762 0.058028 0.086906 0.091244 0.061856 0.073041 0.005278 0.067110 0.097677 0.032186 0.057351 0.031277 0.018219 0.011747 0.087035 0.085271 0.074687 0.016333 0.033365 0.008855 0.008584 0.064457 0.082180 0.054964 0.045377 0.041489 0.030576 0.047090 0.050619 0.016113 0.032981 0.074062 0.032074 0.082842 0.095948 0.087461 0.072778 0.030706 0.094456 0.013596 0.007508 0.078712 0.052934 
0.061354 0.095655 0.008155 0.087688 0.065732 0.032890 0.011375 0.051000 0.023482 0.029739 0.092078 0.055565 0.066617 0.012339 0.049761 0.038534 0.050184 0.079543 0.051417 0.038854 0.069128 0.053683 0.061022 0.040123 0.001583 0.071080 0.010961 0.062684 0.086461 0.049659 0.074986 0.050193 0.038631 0.078751 0.055728 0.036353 0.095616 0.063454 0.018481 0.038051 0.014031 0.074585 0.095220 0.061587 0.003755 0.033655 0.006535 0.064282 0.014031 0.084860 0.086567 0.060091 0.072442 0.085543 0.002453 0.013520 0.071083 0.062097 0.022539 0.007529 0.017723 0.062786 0.034757 0.032621 0.037389 0.066439 0.080437 0.080881 0.053127 0.061499 0.080020 0.090160 0.015336 0.063387 0.040839 0.026116 0.014517 0.085664 0.007550 0.043353 0.057762 0.030926 0.055257 0.023331 0.031824 0.011952 0.080996 0.014336 0.029141 0.079023 0.089628 0.079174 0.074636 0.061907 0.036751 0.085809 0.023621 0.086495 0.023714 0.025705 
0.054698 0.098498 0.006327 0.009061 0.052943 0.043253 0.010372 0.026621 0.089262 0.024044 0.015508 0.013384 0.093232 0.008931 0.005662 0.006813 0.034304 0.091555 0.040462 0.043846 0.094670 0.083881 0.053888 0.084368 0.069660 0.040371 0.026657 0.001429 0.053033 0.095525 0.040471 0.024869 0.058970 0.026258 0.068717 0.094583 0.044114 0.089132 0.001710 0.094157 0.060553 0.078830 0.058091 0.015101 0.023010 0.038918 0.001423 0.042374 0.009142 0.066333 0.085655 0.007420 0.081295 0.066545 0.069457 0.080467 0.053484 0.068877 0.015134 0.069261 0.073062 0.077996 0.004076 0.086999 0.064808 0.070950 0.009460 0.055647 0.094843 0.006819 0.028222 0.015372 0.098196 0.062378 0.029932 0.092326 0.037386 0.069759 0.022645 0.016436 0.024814 0.052622 0.090326 0.011535 0.090362 0.044731 0.008931 0.078428 0.018007 0.097465 0.077811 0.087168 0.021853 0.046205 0.001372 0.075313 0.012291 0.041066 0.031802 0.099269 
0.004819 0.025956 0.019738 0.025521 0.016197 0.062412 0.088652 0.093969 0.020370 0.078186 0.064910 0.066019 0.091005 0.046090 0.092208 0.066753 0.015925 0.063998 0.057384 0.042782 0.094359 0.054517 0.058278 0.054109 0.026273 0.040298 0.035676 0.004626 0.079730 0.020454 0.007958 0.039552 0.059484 0.008022 0.020569 0.016433 0.064789 0.045979 0.060825 0.070037 0.044688 0.068762 0.040256 0.083736 0.059629 0.020760 0.094997 0.087724 0.039779 0.098758 0.019346 0.089676 0.057871 0.044764 0.063107 0.071143 0.005913 0.029271 0.026760 0.041356 0.089637 0.071309 0.073116 0.089709 0.039963 0.040344 0.090483 0.031552 0.039422 0.057487 0.036002 0.073636 0.074790 0.073902 0.074204 0.014792 0.020817 0.027987 0.068364 0.091202 0.037416 0.052248 0.011828 0.090836 0.021104 0.052278 0.065829 0.044414 0.069077 0.009952 0.008877 0.008502 0.003752 0.036153 0.031416 0.070031 0.015125 0.040090 0.007716 0.067898 
0.072769 0.020672 0.069708 0.061955 0.065835 0.054855 0.010732 0.054991 0.005913 0.097483 0.046939 0.097027 0.073059 0.053565 0.068312 0.069587 0.037839 0.039474 0.005946 0.081168 0.017787 0.007022 0.031745 0.078663 0.022035 0.032869 0.048982 0.001906 0.044546 0.051278 0.060989 0.076095 0.040706 0.035631 0.084422 0.094290 0.062708 0.099731 0.006293 0.056722 0.086492 0.039289 0.031334 0.029138 0.003644 0.061644 0.039727 0.002843 0.004073 0.046115 0.085936 0.093740 0.040788 0.073001 0.061548 0.081029 0.087667 0.058677 0.059907 0.008822 0.079524 0.046758 0.059472 0.059354 0.057351 0.081790 0.067602 0.035014 0.002012 0.027464 0.034815 0.023977 0.077331 0.037803 0.087117 0.012569 0.072832 0.063264 0.089501 0.019119 0.054021 0.090299 0.078228 0.096556 0.020539 0.090253 0.079944 0.095386 0.085032 0.089144 0.063242 0.019361 0.062076 0.027234 0.025814 0.073488 0.079023 0.017922 0.071675 0.048613 
0.009067 0.080848 0.085679 0.013339 0.031440 0.057759 0.047825 0.076443 0.019995 0.073050 0.099508 0.002520 0.065116 0.069472 0.018240 0.008139 0.028222 0.067986 0.084053 0.056109 0.037751 0.078171 0.024020 0.064185 0.023935 0.021255 0.097133 0.028893 0.003266 0.077153 0.016031 0.005650 0.001915 0.035510 0.064744 0.034981 0.042042 0.042235 0.009976 0.054973 0.070228 0.034461 0.066095 0.087748 0.054012 0.057432 0.006345 0.047112 0.026739 0.043253 0.086470 0.049172 0.009656 0.057016 0.071231 0.078068 0.086558 0.085205 0.030008 0.086573 0.064847 0.074938 0.083035 0.076796 0.087319 0.090924 0.091341 0.052674 0.044577 0.011656 0.036047 0.082482 0.043344 0.017814 0.001085 0.066089 0.077582 0.007309 0.009892 0.039181 0.068705 0.080954 0.016255 0.015143 0.005798 0.035268 0.002837 0.097864 0.065116 0.006312 0.091501 0.064110 0.043740 0.003085 0.025017 0.039803 0.065747 0.078407 0.003260 0.082778 
0.014705 0.063792 0.055490 0.098365 0.046879 0.022264 0.030769 0.078434 0.034911 0.048580 0.061194 0.011149 0.098459 0.075826 0.015937 0.046184 0.071451 0.099876 0.077775 0.064524 0.062499 0.094664 0.069128 0.029691 0.057148 0.029748 0.055275 0.071524 0.025397 0.055121 0.049770 0.095253 0.067312 0.076751 0.062714 0.045130 0.080077 0.074808 0.098903 0.021258 0.063318 0.091072 0.059538 0.091921 0.051048 0.049450 0.045522 0.089045 0.094099 0.019110 0.025944 0.021098 0.073319 0.094172 0.062883 0.005094 0.064493 0.004417 0.056079 0.054904 0.045187 0.007076 0.099607 0.013647 0.060490 0.005985 0.018107 0.066364 0.033911 0.032280 0.065705 0.041643 0.043323 0.022941 0.068173 0.017478 0.050257 0.051257 0.080470 0.044072 0.001447 0.034609 0.038214 0.013729 0.082905 0.073597 0.089223 0.064690 0.065409 0.051934 0.073663 0.073980 0.095752 0.047118 0.036963 0.012106 0.090561 0.082301 0.046024 0.011759 
0.087075 0.076376 0.004873 0.042250 0.093676 0.007707 0.017321 0.021917 0.012575 0.059520 0.012717 0.062209 0.058429 0.069340 0.073424 0.091649 0.067303 0.030552 0.081077 0.038440 0.099752 0.077479 0.021237 0.017886 0.039437 0.018941 0.058517 0.020367 0.096054 0.019835 0.038791 0.031095 0.012961 0.020618 0.005577 0.077346 0.076343 0.088223 0.001175 0.045414 0.043211 0.080352 0.046673 0.049991 0.075189 0.024612 0.056381 0.010182 0.092280 0.089489 0.085845 0.006904 0.049598 0.063572 0.074974 0.075850 0.026319 0.091081 0.079407 0.020763 0.055731 0.006073 0.052695 0.079246 0.070711 0.003381 0.073442 0.055783 0.091507 0.087679 0.079896 0.031237 0.040099 0.048707 0.006206 0.065545 0.001085 0.077089 0.075863 0.022754 0.016321 0.006695 0.067391 0.004236 0.035241 0.070089 0.080017 0.044190 0.098190 0.063919 0.030234 0.048220 0.087561 0.008849 0.010998 0.015179 0.015158 0.091882 0.031564 0.038008 
0.081570 0.005617 0.081606 0.024760 0.089891 0.026394 0.027666 0.021593 0.023708 0.084769 0.087610 0.088881 0.084634 0.061318 0.005049 0.018179 0.019191 0.036235 0.045477 0.019321 0.089552 0.062681 0.055088 0.091256 0.052737 0.073334 0.099934 0.096964 0.086875 0.084180 0.015521 0.038066 0.029153 0.017926 0.097402 0.074440 0.071944 0.004058 0.064859 0.081458 0.073856 0.081999 0.013339 0.072171 0.038132 0.065333 0.091628 0.089078 0.004184 0.077576 0.045438 0.001749 0.023633 0.042429 0.016502 0.091984 0.050668 0.025044 0.075693 0.090746 0.022134 0.004178 0.077346 0.023597 0.056103 0.080833 0.085350 0.033830 0.054354 0.099187 0.087066 0.065040 0.023545 0.081467 0.037733 0.037322 0.004462 0.056568 0.040389 0.012859 0.033168 0.090002 0.020947 0.094078 0.013381 0.085084 0.089501 0.045111 0.022989 0.063841 0.056447 0.062780 0.042942 0.002632 0.086549 0.014823 0.027473 0.029905 0.068484 0.056583 
0.095924 0.061115 0.079035 0.042848 0.082020 0.074207 0.014442 0.052136 0.002988 0.001692 0.075083 0.034053 0.090311 0.046764 0.077023 0.006000 0.063466 0.003393 0.068560 0.096939 0.050544 0.070932 0.027328 0.082413 0.065016 0.060124 0.027098 0.084579 0.046547 0.075068 0.035809 0.002435 0.048178 0.063022 0.040984 0.038978 0.003734 0.029594 0.060088 0.088504 0.043785 0.093223 0.038915 0.053780 0.001997 0.097450 0.086655 0.044305 0.070264 0.033963 0.060632 0.050356 0.056402 0.004861 0.038443 0.024071 0.093797 0.086093 0.096447 0.061273 0.058813 0.008568 0.041296 0.031225 0.050360 0.008925 0.087603 0.031123 0.078370 0.093356 0.059254 0.022406 0.028651 0.056511 0.087567 0.025757 0.030839 0.072986 0.086794 0.023878 0.019880 0.045232 0.089144 0.057858 0.003849 0.099529 0.006864 0.062300 0.026437 0.017814 0.012496 0.023917 0.049994 0.096021 0.005879 0.008883 0.034428 0.028694 0.052039 0.049565 
0.041815 0.092546 0.060505 0.029923 0.048100 0.040764 0.095181 0.055287 0.083658 0.079648 0.080364 0.059692 0.087138 0.032488 0.093978 0.027524 0.094389 0.072158 0.013635 0.077715 0.047816 0.018415 0.003641 0.005121 0.046024 0.086368 0.014475 0.002432 0.022065 0.082035 0.079923 0.078186 0.066191 0.030576 0.078361 0.092229 0.084371 0.025020 0.050378 0.003278 0.008496 0.004058 0.036265 0.071817 0.041570 0.018862 0.030494 0.019028 0.074745 0.014339 0.006765 0.053036 0.036528 0.080866 0.016723 0.090087 0.014049 0.003894 0.018962 0.081990 0.025672 0.057499 0.035343 0.054453 0.066826 0.087205 0.093320 0.094583 0.011415 0.016170 0.056239 0.080225 0.089619 0.008179 0.087359 0.082419 0.039440 0.055330 0.067524 0.045643 0.028857 0.094997 0.098233 0.073077 0.059886 0.027965 0.014064 0.020596 0.060451 0.049248 0.036177 0.023763 0.048365 0.069488 0.094867 0.067442 0.098275 0.024515 0.051843 0.024346 
0.089906 0.048952 0.033319 0.054212 0.057508 0.034316 0.035467 0.017753 0.029727 0.022708 0.092359 0.074228 0.080893 0.065394 0.068983 0.027739 0.076920 0.007378 0.072455 0.086047 0.034815 0.005393 0.048946 0.003058 0.083981 0.062233 0.054517 0.060801 0.057300 0.077959 0.064363 0.069977 0.076234 0.086933 0.016641 0.042927 0.078860 0.003121 0.044398 0.005172 0.051124 0.027657 0.007759 0.025240 0.098223 0.051139 0.061937 0.008031 0.037383 0.095598 0.086147 0.034410 0.024947 0.029663 0.006046 0.099278 0.018074 0.007822 0.022793 0.030790 0.078899 0.065312 0.009284 0.027014 0.014511 0.022536 0.056695 0.018648 0.063596 0.011584 0.045918 0.076125 0.034047 0.006683 0.028968 0.069735 0.087452 0.057191 0.086981 0.009040 0.079745 0.099967 0.063865 0.062267 0.059883 0.059720 0.020231 0.097909 0.023920 0.005188 0.024666 0.026258 0.041274 0.079700 0.027974 0.090105 0.038564 0.073029 0.021442 0.006242 
0.060853 0.036044 0.036764 0.067143 0.097628 0.023140 0.089682 0.035350 0.095399 0.066847 0.020965 0.028953 0.036189 0.053668 0.029808 0.022778 0.010862 0.011566 0.071225 0.084537 0.067515 0.082096 0.001571 0.049643 0.060859 0.093598 0.029772 0.060976 0.074944 0.087510 0.091311 0.083180 0.060986 0.031183 0.078639 0.015862 0.054719 0.069216 0.040069 0.099326 0.011091 0.041749 0.003716 0.069056 0.026630 0.017732 0.023636 0.019711 0.086359 0.076567 0.005713 0.048840 0.006559 0.096163 0.009414 0.056982 0.096293 0.057816 0.087987 0.041462 0.040912 0.041936 0.066194 0.082513 0.094574 0.029029 0.001221 0.062010 0.005895 0.065950 0.042773 0.095495 0.060792 0.020886 0.042024 0.034715 0.062690 0.081032 0.001480 0.011421 0.040048 0.028410 0.032361 0.082600 0.085498 0.031842 0.020569 0.056904 0.047438 0.099517 0.043891 0.037480 0.042459 0.039102 0.058463 0.087897 0.034404 0.039945 0.095154 0.051405 
0.042441 0.061221 0.077899 0.009281 0.015968 0.021584 0.009647 0.032410 0.047710 0.063285 0.033945 0.008852 0.061838 0.015140 0.028790 0.082673 0.044468 0.099447 0.022874 0.011626 0.052381 0.027195 0.001728 0.058049 0.077286 0.011644 0.096951 0.037573 0.090495 0.052650 0.023044 0.030960 0.048368 0.031751 0.042027 0.076709 0.084319 0.039522 0.043320 0.072693 0.073757 0.010049 0.009091 0.075554 0.084851 0.064143 0.036603 0.048027 0.010345 0.042114 0.019648 0.034969 0.091425 0.023702 0.031721 0.016273 0.034812 0.019046 0.027956 0.021388 0.018074 0.034192 0.007478 0.050689 0.096405 0.081117 0.045199 0.091386 0.018747 0.048710 0.047737 0.070225 0.025612 0.093734 0.028467 0.030654 0.082422 0.082144 0.063360 0.079712 0.001713 0.026835 0.029663 0.095344 0.086087 0.052227 0.071044 0.026361 0.092184 0.049634 0.010260 0.082772 0.008593 0.028981 0.039002 0.064684 0.051994 0.043722 0.014931 0.097523 
0.008387 0.001514 0.091564 0.041755 0.075778 0.019578 0.011070 0.042891 0.068116 0.053215 0.082597 0.083881 0.027878 0.050450 0.087174 0.015750 0.097109 0.054299 0.022847 0.007608 0.021258 0.020575 0.020098 0.020753 0.095722 0.059756 0.074140 0.030144 0.068303 0.078827 0.092211 0.092915 0.084588 0.026639 0.011439 0.007127 0.090474 0.015684 0.089383 0.036582 0.095713 0.038776 0.033815 0.068772 0.088866 0.038631 0.043894 0.067790 0.027443 0.048801 0.053257 0.080404 0.079618 0.074887 0.049181 0.082951 0.056345 0.028600 0.035371 0.006360 0.091214 0.076527 0.037480 0.028956 0.021914 0.033132 0.005964 0.088280 0.025633 0.040978 0.015342 0.087652 0.061203 0.078582 0.020488 0.045719 0.076415 0.043900 0.064010 0.080651 0.018270 0.032945 0.096356 0.071231 0.020557 0.086425 0.005683 0.074579 0.004568 0.013952 0.009155 0.055716 0.057327 0.053768 0.022669 0.008641 0.031156 0.007381 0.041715 0.014236 
0.025917 0.082244 0.051369 0.027603 0.098807 0.091737 0.013052 0.029159 0.070989 0.047622 0.030180 0.035120 0.052985 0.081301 0.052206 0.007665 0.083093 0.055886 0.011260 0.051447 0.094722 0.072587 0.047918 0.045679 0.091969 0.055336 0.037162 0.088552 0.066312 0.013131 0.051233 0.012131 0.028700 0.055100 0.079337 0.037549 0.085954 0.074690 0.046921 0.036606 0.044767 0.059007 0.038525 0.063572 0.056203 0.048776 0.083830 0.019385 0.001961 0.011816 0.005021 0.022956 0.026340 0.041619 0.071053 0.044830 0.014173 0.054861 0.085821 0.080857 0.022609 0.092459 0.032023 0.015179 0.061079 0.002018 0.095601 0.054188 0.039301 0.002227 0.024470 0.088685 0.059653 0.016107 0.002638 0.053985 0.091755 0.065620 0.023222 0.041150 0.096616 0.010611 0.040558 0.051106 0.034195 0.033513 0.062916 0.025826 0.029706 0.053819 0.089969 0.048329 0.033488 0.067784 0.046574 0.058692 0.041864 0.092308 0.012977 0.066808 
0.015720 0.025491 0.012046 0.011100 0.069261 0.082818 0.049583 0.045921 0.065690 0.042432 0.064351 0.010822 0.083229 0.037495 0.087918 0.052484 0.096266 0.040075 0.072844 0.063430 0.038039 0.081528 0.085404 0.007330 0.074615 0.036875 0.024325 0.082077 0.078588 0.028119 0.056759 0.018297 0.013300 0.075953 0.041966 0.028663 0.017926 0.054876 0.024884 0.032543 0.023282 0.066146 0.070143 0.067355 0.064690 0.006547 0.033621 0.095272 0.032748 0.031455 0.017134 0.037486 0.028367 0.096151 0.024385 0.026820 0.062859 0.075847 0.058698 0.027829 0.071503 0.034452 0.071699 0.003136 0.070355 0.063439 0.013511 0.072267 0.038709 0.052870 0.086549 0.059602 0.050021 0.004049 0.067506 0.055795 0.035609 0.057686 0.076663 0.003242 0.001063 0.055148 0.075059 0.028941 0.079609 0.083688 0.072657 0.030349 0.054327 0.041154 0.011076 0.039549 0.010575 0.067152 0.017022 0.069403 0.067406 0.074113 0.088936 0.075902 
0.057381 0.027228 0.012034 0.027446 0.073612 0.097770 0.049302 0.022276 0.080319 0.061677 0.035504 0.048779 0.099852 0.037993 0.094852 0.022841 0.063397 0.057994 0.015409 0.093060 0.046335 0.064590 0.005816 0.065919 0.074497 0.010898 0.065424 0.020760 0.024201 0.073482 0.099459 0.075657 0.089437 0.055218 0.089286 0.087017 0.061980 0.072270 0.073376 0.016040 0.075866 0.016125 0.041069 0.061835 0.071962 0.083168 0.088718 0.007309 0.040081 0.060759 0.049320 0.045686 0.076419 0.058300 0.034238 0.058723 0.036673 0.075225 0.009064 0.010469 0.099710 0.005402 0.040271 0.011711 0.042081 0.043957 0.027703 0.045849 0.023273 0.026872 0.064533 0.089416 0.088017 0.045483 0.041758 0.023974 0.096477 0.074198 0.034830 0.072581 0.060735 0.062523 0.089528 0.068566 0.024328 0.011771 0.053635 0.071835 0.057227 0.002496 0.051580 0.046386 0.097115 0.089075 0.070536 0.025337 0.011251 0.027400 0.047163 0.061070 
0.005858 0.039232 0.012548 0.099819 0.074252 0.005043 0.001435 0.068346 0.095686 0.070956 0.075337 0.014968 0.068149 0.061662 0.066635 0.097625 0.008040 0.090833 0.086271 0.063221 0.089011 0.057940 0.016067 0.089963 0.057816 0.027032 0.018373 0.062904 0.083597 0.067358 0.086005 0.045405 0.098314 0.066351 0.071167 0.006765 0.081781 0.074944 0.097441 0.083700 0.032099 0.012647 0.021346 0.029887 0.094831 0.084407 0.025727 0.022376 0.086751 0.043658 0.021367 0.092945 0.075579 0.039610 0.038099 0.056239 0.063442 0.094166 0.073890 0.073868 0.039483 0.055469 0.098042 0.063170 0.033440 0.043574 0.063107 0.069871 0.049523 0.067170 0.027567 0.011369 0.007454 0.014838 0.045942 0.018847 0.065004 0.085821 0.027343 0.081941 0.062865 0.091764 0.011124 0.026165 0.050218 0.070412 0.070708 0.011850 0.037827 0.048698 0.096142 0.010786 0.045997 0.010224 0.052553 0.033271 0.079262 0.082591 0.074044 0.056831 
0.006121 0.019548 0.099097 0.043293 0.064699 0.072421 0.090175 0.084452 0.091619 0.048816 0.048501 0.073023 0.076014 0.039011 0.074717 0.028126 0.036927 0.004091 0.082404 0.076032 0.044033 0.023204 0.009164 0.027307 0.062943 0.076959 0.033289 0.026216 0.049012 0.075437 0.056632 0.035443 0.069935 0.096746 0.040767 0.027996 0.088999 0.059644 0.061055 0.035389 0.080340 0.083147 0.081685 0.042918 0.009046 0.063608 0.098272 0.069179 0.050429 0.019243 0.057161 0.024600 0.086338 0.029603 0.098967 0.082174 0.040848 0.032851 0.040468 0.066101 0.093157 0.090483 0.028491 0.076603 0.053045 0.095275 0.091785 0.064602 0.005743 0.027092 0.029576 0.079455 0.026548 0.029416 0.035839 0.091525 0.082029 0.025095 0.032893 0.023754 0.096157 0.025304 0.093426 0.081981 0.011236 0.058149 0.023509 0.038220 0.019950 0.078923 0.089776 0.031615 0.006363 0.075452 0.072210 0.056290 0.055245 0.037492 0.011831 0.007819 
0.077539 0.003698 0.032694 0.031525 0.015351 0.053067 0.033395 0.074331 0.060251 0.058375 0.092661 0.066385 0.071270 0.058547 0.008106 0.030180 0.002447 0.077446 0.099746 0.058375 0.031219 0.048036 0.014360 0.052045 0.019536 0.055408 0.038347 0.051583 0.068055 0.072603 0.071059 0.061964 0.013212 0.095740 0.073334 0.006580 0.023566 0.050384 0.014233 0.097420 0.046211 0.078678 0.061611 0.077697 0.061647 0.084099 0.029588 0.099807 0.085905 0.034443 0.016572 0.011662 0.096329 0.097906 0.058855 0.012270 0.007780 0.033763 0.040425 0.043655 0.073708 0.080651 0.060073 0.087933 0.056804 0.090827 0.021385 0.023693 0.018732 0.044501 0.032718 0.022461 0.083639 0.078585 0.085757 0.040407 0.044876 0.094927 0.005722 0.079053 0.030760 0.052429 0.022874 0.067200 0.029678 0.018074 0.087350 0.047761 0.084437 0.091265 0.058943 0.016771 0.045157 0.068521 0.081966 0.098223 0.096580 0.051931 0.009711 0.006021 
0.058109 0.086389 0.059674 0.060732 0.058472 0.029017 0.079074 0.039329 0.088280 0.012835 0.096828 0.006716 0.042386 0.035041 0.036498 0.001196 0.032389 0.021944 0.078404 0.049586 0.007052 0.089011 0.040362 0.057290 0.045078 0.070950 0.057287 0.058925 0.061016 0.020358 0.038147 0.077826 0.090676 0.056864 0.081398 0.080089 0.094876 0.077246 0.020515 0.063369 0.051879 0.084488 0.082688 0.073189 0.069373 0.062254 0.040256 0.087960 0.098296 0.053755 0.026047 0.060405 0.068397 0.064439 0.095118 0.056662 0.027860 0.051508 0.021062 0.087721 0.017817 0.015753 0.072488 0.069460 0.056124 0.062593 0.099650 0.099994 0.060221 0.051879 0.052994 0.005523 0.083431 0.089374 0.055559 0.026443 0.001529 0.093395 0.081932 0.010883 0.013952 0.085594 0.038779 0.076470 0.007460 0.033328 0.002601 0.008435 0.037613 0.001619 0.023781 0.057886 0.074899 0.036114 0.044501 0.012360 0.082872 0.040081 0.032667 0.093495 
0.060118 0.056874 0.087398 0.058892 0.024403 0.032839 0.024174 0.063052 0.065886 0.066125 0.076283 0.050462 0.051638 0.018379 0.042567 0.047628 0.098453 0.088815 0.003193 0.008254 0.010167 0.039549 0.032401 0.093296 0.083401 0.057777 0.049924 0.040075 0.092054 0.052674 0.012149 0.086235 0.042374 0.075530 0.099577 0.023654 0.003988 0.047069 0.012720 0.036189 0.034685 0.094453 0.003021 0.094284 0.078340 0.077890 0.077851 0.075322 0.061798 0.005360 0.006230 0.055849 0.070071 0.014397 0.029355 0.073412 0.033679 0.035422 0.051468 0.091235 0.094519 0.092571 0.086271 0.057451 0.094033 0.069485 0.031358 0.099100 0.043087 0.094090 0.060865 0.049613 0.017397 0.072735 0.005846 0.033023 0.050773 0.022738 0.002529 0.016584 0.054142 0.030784 0.085020 0.055049 0.035585 0.001121 0.012535 0.029292 0.055308 0.001079 0.076802 0.008562 0.091839 0.080799 0.021666 0.038978 0.045341 0.077727 0.087534 0.091598 
0.054330 0.064777 0.025736 0.061677 0.064705 0.071669 0.095417 0.057457 0.015366 0.035386 0.085984 0.078050 0.074349 0.094244 0.080836 0.011771 0.012699 0.003514 0.094314 0.044592 0.021080 0.064113 0.020572 0.033881 0.076307 0.065249 0.095447 0.016243 0.063777 0.018587 0.042861 0.008614 0.040057 0.075847 0.076938 0.083334 0.069509 0.041292 0.050350 0.064451 0.009269 0.029129 0.019049 0.023932 0.062502 0.004236 0.097924 0.034038 0.098121 0.053215 0.006514 0.057553 0.042009 0.015237 0.040389 0.016101 0.030926 0.022639 0.006188 0.027261 0.060034 0.085739 0.034072 0.058717 0.092338 0.073859 0.003535 0.079126 0.063931 0.008991 0.011254 0.052964 0.060354 0.044120 0.003039 0.067052 0.097900 0.042613 0.008493 0.034954 0.082265 0.011702 0.090456 0.059019 0.071328 0.019506 0.061832 0.005233 0.028428 0.056538 0.061937 0.063650 0.084020 0.055200 0.064865 0.057562 0.095948 0.033216 0.006067 0.066185 
0.021315 0.079497 0.084691 0.025053 0.088202 0.049347 0.056738 0.076820 0.003067 0.073560 0.046734 0.029724 0.043278 0.065306 0.009895 0.092422 0.003481 0.022325 0.075455 0.054381 0.033259 0.001360 0.091208 0.070615 0.027863 0.077331 0.005904 0.021893 0.025388 0.055169 0.003541 0.015246 0.054221 0.038875 0.046190 0.084869 0.003115 0.041643 0.016388 0.074240 0.036739 0.038610 0.016793 0.036646 0.050018 0.032192 0.038084 0.055786 0.070143 0.046435 0.037770 0.021732 0.099583 0.016360 0.036981 0.045951 0.021917 0.082833 0.089827 0.070563 0.043882 0.070808 0.029437 0.048631 0.018424 0.047550 0.033259 0.042646 0.003127 0.045686 0.030712 0.033905 0.002876 0.055641 0.084794 0.077107 0.063064 0.055378 0.067729 0.097737 0.048196 0.092921 0.069273 0.065584 0.074279 0.090640 0.055710 0.040057 0.038746 0.079760 0.020234 0.028500 0.008366 0.039069 0.033688 0.044259 0.007919 0.046272 0.050366 0.008723 
0.078975 0.014995 0.065892 0.082014 0.042655 0.022871 0.085821 0.076594 0.033712 0.008716 0.007006 0.023482 0.051752 0.042217 0.058411 0.050311 0.091954 0.043136 0.022319 0.056922 0.091135 0.054502 0.060705 0.020738 0.063499 0.045728 0.080718 0.031642 0.057928 0.053148 0.067956 0.096535 0.014122 0.029938 0.004586 0.001341 0.040468 0.014871 0.018929 0.062681 0.002982 0.090918 0.076570 0.086839 0.037132 0.050100 0.057614 0.041395 0.079929 0.017638 0.025192 0.054127 0.034087 0.070796 0.044776 0.076406 0.047652 0.006408 0.052402 0.092885 0.045882 0.064629 0.022430 0.026597 0.077748 0.099725 0.041918 0.023276 0.019932 0.084543 0.047151 0.066043 0.002607 0.033513 0.017524 0.099202 0.099885 0.052686 0.085271 0.008405 0.055242 0.086782 0.069191 0.041845 0.059831 0.071720 0.068962 0.029718 0.086927 0.062584 0.044090 0.065684 0.087431 0.055499 0.014173 0.017530 0.034751 0.063403 0.091480 0.035788 
0.044879 0.065140 0.002477 0.021442 0.055043 0.090903 0.081464 0.023569 0.078766 0.063439 0.026748 0.023004 0.025654 0.054033 0.075642 0.082851 0.004804 0.077700 0.096737 0.014986 0.001127 0.086555 0.067605 0.038332 0.041450 0.077899 0.010529 0.093048 0.036751 0.084872 0.082331 0.078440 0.021358 0.065255 0.078878 0.064744 0.074461 0.050308 0.040437 0.073533 0.050758 0.074165 0.030373 0.060949 0.088640 0.047719 0.080340 0.094501 0.042673 0.087501 0.057550 0.070621 0.095797 0.077482 0.051233 0.052716 0.005030 0.063300 0.043815 0.081948 0.028083 0.058871 0.058000 0.045392 0.093646 0.072832 0.040277 0.037897 0.064750 0.023814 0.077971 0.020273 0.034062 0.055012 0.012448 0.002091 0.035398 0.025992 0.035546 0.046755 0.090314 0.078234 0.044821 0.040114 0.073174 0.062357 0.037730 0.005321 0.016478 0.020530 0.013309 0.014131 0.042806 0.006985 0.077494 0.081401 0.050224 0.054148 0.012578 0.082948 
0.020521 0.052335 0.096054 0.083573 0.087102 0.053478 0.053242 0.026379 0.043839 0.073865 0.008000 0.061167 0.005819 0.005354 0.018935 0.067067 0.022234 0.096030 0.085322 0.043217 0.055327 0.035754 0.081274 0.021593 0.006689 0.077642 0.017270 0.086812 0.016802 0.052837 0.087655 0.048033 0.026107 0.006638 0.012140 0.040794 0.011505 0.095402 0.099991 0.019847 0.084603 0.007185 0.079902 0.014874 0.083516 0.099668 0.005245 0.001160 0.022666 0.063179 0.069705 0.069071 0.042317 0.074479 0.078920 0.041416 0.034229 0.051112 0.066273 0.014563 0.060312 0.090867 0.026343 0.081398 0.057553 0.082331 0.056167 0.018907 0.045139 0.085957 0.065895 0.069633 0.020034 0.065644 0.051919 0.035618 0.063934 0.075304 0.094075 0.091184 0.045879 0.074334 0.080038 0.038144 0.037419 0.080561 0.001441 0.013777 0.032636 0.032506 0.032902 0.068197 0.089891 0.069548 0.050447 0.037356 0.081624 0.007858 0.077527 0.098471 
0.070068 0.007671 0.028138 0.067959 0.099211 0.021781 0.037193 0.006731 0.024829 0.020753 0.044716 0.094006 0.053994 0.069871 0.022953 0.057296 0.041815 0.075195 0.008000 0.079960 0.097843 0.055792 0.038035 0.008834 0.054910 0.066542 0.050749 0.070343 0.055807 0.034519 0.040087 0.016632 0.008590 0.019421 0.029857 0.009142 0.066916 0.071977 0.065330 0.062143 0.084177 0.002852 0.077428 0.066593 0.098858 0.018004 0.018551 0.087972 0.096909 0.057922 0.025721 0.087316 0.019491 0.083763 0.020010 0.046205 0.043945 0.038848 0.081993 0.040863 0.027301 0.045453 0.022183 0.058142 0.021222 0.060411 0.080168 0.088604 0.054665 0.044450 0.082413 0.091365 0.004166 0.066768 0.081440 0.069013 0.025032 0.013795 0.004405 0.045211 0.086322 0.006626 0.046704 0.084319 0.072959 0.008070 0.031642 0.046622 0.086806 0.020814 0.065886 0.010529 0.034038 0.050640 0.018617 0.065339 0.011686 0.048202 0.055148 0.009843 
0.085685 0.092277 0.049979 0.036513 0.082213 0.038020 0.010949 0.065418 0.063798 0.081150 0.032552 0.094661 0.032890 0.075539 0.029008 0.023515 0.029325 0.045205 0.042211 0.027993 0.055505 0.025128 0.088117 0.044048 0.005650 0.087909 0.039661 0.032156 0.022941 0.076690 0.093849 0.073473 0.074914 0.099366 0.044048 0.090299 0.061940 0.017466 0.083126 0.023059 0.041163 0.073811 0.071494 0.058538 0.098683 0.001227 0.094673 0.058556 0.046399 0.043498 0.036464 0.060825 0.060288 0.042824 0.002332 0.011212 0.060505 0.024923 0.012055 0.005118 0.039153 0.020122 0.004287 0.088178 0.027023 0.076470 0.057103 0.003012 0.024201 0.084319 0.085105 0.011279 0.070838 0.071373 0.006206 0.009677 0.089972 0.092616 0.034697 0.049184 0.074705 0.077129 0.014620 0.070213 0.053604 0.043278 0.024159 0.081914 0.010674 0.054206 0.076014 0.083349 0.084706 0.028086 0.055453 0.063750 0.036395 0.062191 0.097093 0.072557 
0.090063 0.098121 0.066986 0.003517 0.059266 0.082274 0.034138 0.073494 0.051254 0.042951 0.002051 0.056233 0.055481 0.050115 0.091368 0.033848 0.028138 0.073213 0.038181 0.033132 0.054961 0.099106 0.090211 0.022563 0.026207 0.030512 0.086301 0.013070 0.089135 0.023971 0.088443 0.055417 0.024805 0.094764 0.044846 0.075304 0.002601 0.043785 0.071198 0.031993 0.067246 0.018844 0.016684 0.044637 0.019696 0.092326 0.099855 0.081017 0.016783 0.058686 0.092954 0.040954 0.085881 0.011822 0.027790 0.027065 0.067484 0.034676 0.099755 0.051121 0.063058 0.056100 0.070037 0.057677 0.029938 0.088486 0.099728 0.008260 0.085724 0.020034 0.048770 0.016786 0.064880 0.066246 0.064496 0.081413 0.088026 0.064466 0.086709 0.096598 0.092652 0.003109 0.005003 0.086543 0.085667 0.068412 0.075379 0.056765 0.056580 0.026195 0.064708 0.097967 0.024705 0.082706 0.096238 0.040008 0.050187 0.071865 0.080636 0.082114 
0.088226 0.003991 0.012702 0.014073 0.011312 0.011436 0.097368 0.038682 0.074872 0.053091 0.015022 0.018058 0.072077 0.086241 0.051831 0.055169 0.027270 0.077751 0.039051 0.025150 0.079757 0.068034 0.015019 0.076772 0.031337 0.055762 0.038869 0.015684 0.070491 0.015826 0.099559 0.084667 0.077419 0.016460 0.024316 0.062644 0.012913 0.055061 0.033144 0.088652 0.082349 0.073597 0.061360 0.033473 0.009611 0.070164 0.080896 0.033189 0.072373 0.074579 0.037365 0.096314 0.065493 0.003496 0.049526 0.012795 0.031932 0.054088 0.082232 0.050565 0.017010 0.067639 0.036434 0.004828 0.012333 0.007100 0.061399 0.055886 0.018273 0.079089 0.052644 0.010629 0.005293 0.070225 0.021747 0.086501 0.099024 0.091329 0.004629 0.011055 0.076358 0.022464 0.006342 0.090939 0.081491 0.050236 0.035026 0.033389 0.065185 0.085350 0.030080 0.065110 0.054127 0.055910 0.034186 0.032600 0.040728 0.052405 0.018206 0.038776 
0.016203 0.042848 0.005644 0.082014 0.026267 0.015052 0.004683 0.074388 0.079304 0.066512 0.097435 0.081319 0.083337 0.011834 0.095474 0.080304 0.037670 0.008242 0.002281 0.070998 0.061508 0.086044 0.097661 0.032367 0.089437 0.084597 0.003698 0.064076 0.004064 0.058720 0.002462 0.009892 0.035730 0.082005 0.004907 0.088292 0.021539 0.007012 0.035138 0.045988 0.026660 0.088842 0.005680 0.042616 0.029141 0.061949 0.073720 0.089277 0.082168 0.051858 0.047039 0.061158 0.041039 0.020527 0.020663 0.076983 0.070757 0.037996 0.019826 0.097441 0.031534 0.059224 0.038368 0.020400 0.047099 0.013560 0.030147 0.016052 0.056103 0.073881 0.054547 0.003737 0.057517 0.031784 0.034706 0.092682 0.038316 0.021917 0.022506 0.096323 0.007336 0.036760 0.032999 0.041504 0.014626 0.078990 0.045266 0.079192 0.085126 0.075757 0.024388 0.034975 0.045045 0.015953 0.066578 0.075065 0.060777 0.028878 0.027056 0.052979 
0.086673 0.073261 0.019814 0.002677 0.031522 0.044163 0.059819 0.036344 0.028129 0.065690 0.038733 0.033503 0.041758 0.093982 0.086836 0.052761 0.082845 0.083470 0.037105 0.070829 0.061795 0.038854 0.024180 0.079059 0.056221 0.017777 0.043226 0.033238 0.028449 0.099653 0.006290 0.092839 0.060674 0.088622 0.002314 0.051435 0.046538 0.055130 0.021291 0.077524 0.005565 0.098060 0.036767 0.083470 0.058221 0.035878 0.004191 0.039752 0.039981 0.081845 0.075289 0.037319 0.069240 0.043625 0.090966 0.039153 0.067406 0.082416 0.038915 0.004867 0.041018 0.076920 0.043486 0.032500 0.015258 0.033259 0.088894 0.013227 0.042649 0.071189 0.023376 0.027237 0.067330 0.051665 0.045441 0.085464 0.068741 0.049175 0.041682 0.049390 0.067046 0.050843 0.056396 0.016681 0.018152 0.085745 0.064463 0.024826 0.071663 0.057423 0.040709 0.053502 0.031606 0.087069 0.081231 0.068926 0.077298 0.046320 0.084854 0.001873 
0.099157 0.077183 0.037280 0.095598 0.003840 0.084990 0.010055 0.030328 0.026542 0.001918 0.025887 0.032679 0.038764 0.094033 0.090471 0.099532 0.057445 0.040226 0.047380 0.049731 0.052777 0.016206 0.051154 0.097272 0.072554 0.036824 0.028095 0.006166 0.067373 0.096800 0.008979 0.084788 0.038576 0.036301 0.099190 0.099801 0.091244 0.087359 0.089392 0.060496 0.024083 0.037519 0.046356 0.042725 0.018584 0.045821 0.006024 0.033071 0.079243 0.057429 0.009381 0.031618 0.084247 0.060016 0.088250 0.007907 0.078419 0.009260 0.055611 0.047374 0.093791 0.082528 0.093525 0.084969 0.020651 0.088081 0.013252 0.058142 0.002396 0.074941 0.061680 0.073995 0.095030 0.079715 0.059605 0.036718 0.060671 0.065466 0.043048 0.013103 0.015898 0.068065 0.084102 0.089332 0.032292 0.020938 0.086473 0.006734 0.003976 0.065799 0.004275 0.002789 0.057574 0.028180 0.091202 0.076014 0.047341 0.053396 0.044592 0.091021 
0.093882 0.091752 0.017635 0.021445 0.016267 0.030588 0.087123 0.073953 0.011904 0.043069 0.060986 0.090024 0.037978 0.080177 0.074143 0.047806 0.050849 0.055913 0.094770 0.070675 0.042232 0.048187 0.076573 0.081751 0.048471 0.085283 0.067194 0.085117 0.061819 0.028464 0.028295 0.024914 0.019992 0.011644 0.063439 0.005061 0.099906 0.067581 0.017364 0.018805 0.006889 0.094574 0.033763 0.069817 0.059266 0.080159 0.045081 0.032074 0.086579 0.052719 0.078552 0.031231 0.030395 0.073536 0.044933 0.001680 0.047939 0.037196 0.003163 0.093060 0.047480 0.087854 0.062418 0.085404 0.019744 0.033328 0.023729 0.080654 0.005263 0.049462 0.001755 0.035757 0.071950 0.066762 0.049767 0.009067 0.033766 0.032742 0.028458 0.071264 0.076857 0.025974 0.018696 0.069518 0.043900 0.039292 0.043767 0.077110 0.028162 0.091132 0.094232 0.034223 0.027941 0.086473 0.012986 0.006157 0.025878 0.086341 0.035631 0.059620 
0.025893 0.011351 0.058692 0.094377 0.026119 0.032271 0.014856 0.016950 0.054707 0.079017 0.021784 0.098592 0.048773 0.018149 0.010559 0.023228 0.099405 0.019243 0.074455 0.031648 0.051036 0.086141 0.055988 0.093583 0.067034 0.055568 0.008997 0.018944 0.060847 0.029068 0.053728 0.003958 0.099550 0.065714 0.073533 0.068327 0.075165 0.091570 0.048359 0.057236 0.057526 0.041398 0.087537 0.050366 0.020143 0.099559 0.065962 0.079657 0.055774 0.065530 0.005339 0.087014 0.070179 0.087120 0.015496 0.013696 0.070808 0.004740 0.046417 0.061623 0.038815 0.044752 0.048069 0.028261 0.006218 0.006351 0.095607 0.032367 0.019551 0.075977 0.087072 0.047284 0.017886 0.017657 0.056167 0.063998 0.098501 0.071346 0.014185 0.082691 0.010100 0.010620 0.066741 0.072004 0.029926 0.087812 0.016285 0.084733 0.084537 0.020926 0.087174 0.075147 0.062684 0.047459 0.004178 0.002707 0.061097 0.001417 0.041214 0.064348 
0.046486 0.042655 0.083253 0.056055 0.050668 0.083908 0.021086 0.081984 0.085096 0.059517 0.095994 0.027805 0.099701 0.061348 0.058937 0.016521 0.063339 0.010792 0.018358 0.055438 0.094707 0.070412 0.059167 0.003556 0.028059 0.078116 0.022047 0.048075 0.025606 0.098408 0.089628 0.047214 0.036881 0.076615 0.004641 0.007097 0.013965 0.096598 0.041682 0.049918 0.068892 0.019911 0.072606 0.062082 0.007091 0.006870 0.045184 0.052556 0.096187 0.004496 0.096178 0.024162 0.029023 0.097822 0.054272 0.091002 0.019267 0.007481 0.019137 0.040737 0.097384 0.026156 0.089081 0.065004 0.060366 0.092697 0.032437 0.074557 0.004097 0.088528 0.044314 0.015487 0.030588 0.035211 0.017714 0.088184 0.049027 0.010698 0.054707 0.018197 0.044960 0.047196 0.042679 0.042851 0.053420 0.026122 0.031322 0.089709 0.012360 0.031165 0.027373 0.008656 0.019279 0.085845 0.051777 0.006849 0.078298 0.033600 0.066312 0.089169 
0.058605 0.070841 0.020300 0.029476 0.040582 0.017950 0.020488 0.061372 0.087474 0.016690 0.082691 0.051619 0.014877 0.046003 0.062273 0.018034 0.077038 0.053632 0.014128 0.052009 0.073104 0.075615 0.094157 0.032392 0.069379 0.061998 0.054898 0.061980 0.042746 0.067859 0.021403 0.033265 0.057236 0.033026 0.025932 0.046758 0.061007 0.007499 0.086558 0.088507 0.024606 0.046039 0.090292 0.096099 0.002864 0.034872 0.077829 0.007840 0.049239 0.060010 0.091465 0.033322 0.059982 0.095130 0.084349 0.047096 0.070968 0.014487 0.042580 0.026712 0.094498 0.094858 0.026319 0.040776 0.018965 0.041909 0.083473 0.025298 0.044701 0.071077 0.039020 0.032029 0.099843 0.098287 0.004644 0.098003 0.095574 0.075615 0.027687 0.023995 0.058608 0.002254 0.021077 0.092169 0.020198 0.071844 0.076289 0.040516 0.085561 0.080524 0.023938 0.096465 0.068065 0.041815 0.027141 0.001215 0.002988 0.043667 0.082150 0.025162 
0.034232 0.006738 0.013448 0.004988 0.097791 0.052314 0.015841 0.006786 0.073370 0.059871 0.063665 0.031815 0.035948 0.013714 0.021678 0.092151 0.090676 0.015741 0.064774 0.052988 0.016889 0.078666 0.073056 0.073739 0.085676 0.061801 0.084410 0.054701 0.009714 0.061813 0.075162 0.010502 0.062880 0.036392 0.061877 0.074020 0.041299 0.062354 0.081951 0.072013 0.004339 0.006127 0.056040 0.049205 0.051278 0.008079 0.079956 0.097976 0.003051 0.063650 0.060082 0.078446 0.006904 0.003810 0.031975 0.061137 0.062270 0.038730 0.076141 0.096939 0.079772 0.098214 0.081673 0.047574 0.055644 0.013783 0.053813 0.061351 0.092426 0.062980 0.028005 0.051326 0.046290 0.059729 0.088561 0.047671 0.016838 0.075379 0.049553 0.078440 0.073696 0.083238 0.087957 0.064418 0.039773 0.027201 0.005722 0.065360 0.002517 0.082358 0.093818 0.076225 0.096012 0.034068 0.086824 0.007713 0.027243 0.018506 0.072234 0.039806 
0.057448 0.066101 0.041002 0.002465 0.050743 0.096846 0.062445 0.051314 0.083084 0.085990 0.047090 0.005429 0.015678 0.069016 0.090601 0.011025 0.040885 0.001429 0.065282 0.096190 0.099804 0.033280 0.046389 0.092456 0.080497 0.025926 0.041712 0.062366 0.082123 0.058994 0.017581 0.035806 0.079860 0.061980 0.075923 0.085271 0.057946 0.021497 0.092380 0.037821 0.044695 0.086634 0.056163 0.051937 0.027802 0.043347 0.025690 0.069983 0.074844 0.054426 0.049607 0.067515 0.043226 0.056943 0.056284 0.001118 0.095516 0.010683 0.061418 0.089060 0.018430 0.072530 0.003771 0.029361 0.046380 0.019219 0.053698 0.066669 0.098858 0.062554 0.011514 0.037477 0.033561 0.003375 0.026322 0.097033 0.002577 0.056426 0.064385 0.049598 0.048474 0.094465 0.060626 0.094308 0.007605 0.049631 0.063384 0.007299 0.045571 0.002574 0.028978 0.067415 0.021050 0.024228 0.061182 0.053076 0.081948 0.082772 0.059245 0.013684 
0.096160 0.080721 0.064481 0.034162 0.023802 0.037622 0.071101 0.022890 0.021249 0.087301 0.096290 0.008771 0.007819 0.008161 0.067228 0.096637 0.059490 0.034476 0.023050 0.071672 0.073391 0.093181 0.090404 0.079153 0.067569 0.006061 0.037667 0.093148 0.054704 0.078920 0.044435 0.095435 0.062248 0.063551 0.016366 0.064348 0.029748 0.072128 0.071986 0.011774 0.056762 0.043861 0.026491 0.059004 0.039147 0.056484 0.004278 0.096670 0.058127 0.062454 0.005109 0.009502 0.064913 0.055420 0.060677 0.011085 0.027304 0.038842 0.093543 0.089371 0.071031 0.010303 0.026116 0.088129 0.099245 0.026443 0.043737 0.019101 0.006949 0.066983 0.074443 0.051048 0.072793 0.059834 0.072548 0.067379 0.070935 0.082736 0.069608 0.020663 0.051502 0.014381 0.094861 0.084658 0.045302 0.036564 0.017741 0.050124 0.057290 0.072219 0.008596 0.034132 0.079518 0.055898 0.086105 0.068071 0.002979 0.012632 0.041619 0.040084 
0.050181 0.059632 0.089909 0.032159 0.023729 0.098804 0.071479 0.052583 0.071883 0.007565 0.031014 0.094969 0.078307 0.095921 0.096060 0.019590 0.079935 0.063224 0.005517 0.089262 0.008269 0.083694 0.073086 0.071412 0.068968 0.076029 0.074186 0.015660 0.055018 0.093208 0.019509 0.024545 0.096429 0.065853 0.095782 0.047661 0.052686 0.053181 0.073775 0.085896 0.050909 0.026971 0.018267 0.054030 0.068956 0.045574 0.025947 0.084359 0.076409 0.041356 0.033890 0.024594 0.018720 0.078606 0.097740 0.001783 0.068415 0.008357 0.004106 0.013390 0.032627 0.070095 0.002378 0.021337 0.023896 0.079778 0.035428 0.094187 0.095489 0.041232 0.046392 0.093184 0.057151 0.018288 0.028104 0.031386 0.043586 0.025696 0.016221 0.007596 0.081543 0.053254 0.078715 0.052311 0.019826 0.090138 0.007744 0.074418 0.048103 0.065898 0.053595 0.047846 0.099804 0.070062 0.030663 0.032896 0.048015 0.073875 0.016191 0.072473 
0.078688 0.011067 0.070769 0.052913 0.080966 0.035201 0.023231 0.064672 0.013046 0.028476 0.016055 0.065548 0.083374 0.060563 0.081809 0.074690 0.032497 0.080325 0.040770 0.096072 0.018500 0.043997 0.069340 0.009701 0.015255 0.049728 0.061270 0.015261 0.028431 0.097958 0.012378 0.084349 0.018548 0.037637 0.045791 0.095142 0.053928 0.010729 0.031319 0.095610 0.077911 0.073956 0.089090 0.092045 0.011152 0.003269 0.049970 0.096106 0.068358 0.039036 0.053946 0.025098 0.030289 0.013357 0.061998 0.089743 0.023415 0.092549 0.066569 0.076062 0.063007 0.081183 0.063267 0.036733 0.021053 0.025733 0.083833 0.006520 0.046831 0.054245 0.046015 0.069022 0.032467 0.012010 0.017424 0.072512 0.032355 0.096704 0.054955 0.025026 0.030748 0.082990 0.018871 0.070454 0.075373 0.023019 0.008197 0.085821 0.062433 0.012829 0.034404 0.078515 0.091827 0.030053 0.075095 0.037646 0.083911 0.006994 0.015720 0.022297 
0.071687 0.055463 0.026929 0.031824 0.057726 0.017364 0.093649 0.044966 0.057677 0.039537 0.035495 0.070019 0.011738 0.059744 0.021618 0.097680 0.086872 0.001366 0.048535 0.095909 0.061176 0.048716 0.067086 0.037437 0.095190 0.028416 0.019083 0.099196 0.096541 0.040906 0.083769 0.034313 0.081730 0.080434 0.097646 0.034020 0.028410 0.094592 0.031796 0.001024 0.038023 0.003786 0.094287 0.046734 0.094105 0.042703 0.064720 0.024905 0.038129 0.053127 0.091577 0.023053 0.038229 0.070195 0.084395 0.020243 0.093616 0.039459 0.030410 0.038579 0.038084 0.016789 0.050740 0.086002 0.070406 0.074563 0.050710 0.029712 0.007970 0.078098 0.056390 0.083896 0.063526 0.040818 0.002997 0.070926 0.054354 0.034117 0.067188 0.020868 0.041703 0.063375 0.011853 0.070406 0.002897 0.074104 0.021578 0.047936 0.048843 0.004713 0.012227 0.072098 0.076400 0.049819 0.090882 0.075385 0.071385 0.060593 0.040640 0.075101 
0.050568 0.028141 0.011408 0.093374 0.066536 0.081331 0.093265 0.063433 0.055698 0.064076 0.062493 0.009889 0.052375 0.093522 0.045873 0.048208 0.054209 0.085120 0.027358 0.095111 0.061835 0.042060 0.031654 0.023140 0.073074 0.085005 0.096900 0.052088 0.059556 0.039610 0.088927 0.031464 0.003091 0.032821 0.053305 0.079854 0.019614 0.034377 0.068693 0.047196 0.054082 0.091516 0.099580 0.067889 0.065137 0.084328 0.099106 0.066799 0.083905 0.056762 0.067916 0.089960 0.075763 0.049719 0.022784 0.015194 0.078394 0.095205 0.075974 0.019321 0.050024 0.090045 0.084023 0.060197 0.099139 0.010079 0.057003 0.047326 0.034552 0.084349 0.093852 0.048248 0.095160 0.004215 0.044864 0.026376 0.016203 0.053897 0.042984 0.041601 0.073446 0.069397 0.025911 0.013264 0.074023 0.003248 0.083670 0.075835 0.034383 0.081120 0.050752 0.032899 0.098115 0.070675 0.078355 0.028766 0.068031 0.004704 0.011886 0.052375 
0.065354 0.096982 0.002278 0.095710 0.017303 0.014795 0.077228 0.066457 0.080014 0.097683 0.011928 0.089141 0.094015 0.033232 0.096465 0.096411 0.080231 0.054562 0.080340 0.037733 0.071775 0.071297 0.059348 0.003218 0.002366 0.016617 0.090317 0.005743 0.025808 0.089329 0.021817 0.006169 0.007236 0.015351 0.088498 0.023796 0.045616 0.066726 0.094018 0.025826 0.075219 0.091465 0.007309 0.032038 0.009505 0.084325 0.094169 0.029364 0.059218 0.036912 0.042785 0.033658 0.015019 0.023119 0.056348 0.091280 0.096553 0.040338 0.005263 0.062798 0.079231 0.067421 0.008121 0.070488 0.092655 0.057889 0.018977 0.065829 0.098906 0.032316 0.008052 0.091788 0.058689 0.087386 0.095477 0.092000 0.070542 0.089564 0.047084 0.049695 0.016037 0.058889 0.065974 0.001462 0.075298 0.020826 0.011804 0.015666 0.061644 0.034640 0.070539 0.076684 0.028775 0.067303 0.006596 0.063684 0.099257 0.025355 0.020167 0.062209 
0.086703 0.009717 0.044625 0.009212 0.028515 0.016916 0.011738 0.097834 0.023455 0.042691 0.097743 0.051562 0.094957 0.009436 0.012832 0.080105 0.058493 0.077488 0.010242 0.042567 0.014847 0.068675 0.004429 0.026249 0.061638 0.047139 0.068503 0.054719 0.042927 0.092867 0.086489 0.054435 0.008260 0.025932 0.048489 0.070596 0.023010 0.086890 0.051390 0.079434 0.001305 0.064294 0.008142 0.080718 0.084467 0.052837 0.009269 0.015626 0.058218 0.036026 0.052653 0.094761 0.014575 0.090939 0.085214 0.091444 0.058735 0.091930 0.062578 0.066143 0.078766 0.017871 0.079322 0.087105 0.051550 0.036800 0.077869 0.027002 0.021696 0.086464 0.079675 0.069793 0.028866 0.005798 0.050752 0.037507 0.011273 0.034712 0.048151 0.052175 0.059804 0.064206 0.056490 0.048610 0.060475 0.028261 0.062119 0.059306 0.089694 0.017527 0.071019 0.074104 0.006085 0.031177 0.024020 0.009901 0.098257 0.026002 0.008460 0.078101 
0.044329 0.080150 0.026817 0.005997 0.022627 0.043474 0.018506 0.072881 0.041308 0.076041 0.088317 0.040978 0.039295 0.060629 0.053686 0.031086 0.093392 0.082833 0.046359 0.016965 0.016871 0.063623 0.092501 0.008330 0.060430 0.044918 0.010913 0.071609 0.020787 0.005073 0.028425 0.080156 0.051864 0.011795 0.086011 0.026231 0.087806 0.084440 0.016811 0.093365 0.083712 0.078132 0.054571 0.034368 0.062460 0.050752 0.091640 0.023745 0.094408 0.039172 0.016104 0.054650 0.089344 0.002755 0.042160 0.049163 0.022545 0.048583 0.096290 0.029095 0.078271 0.013384 0.044395 0.041018 0.045492 0.001607 0.020409 0.073763 0.023325 0.063647 0.067542 0.058088 0.087848 0.019642 0.035694 0.087764 0.086782 0.087869 0.035214 0.060741 0.084812 0.056154 0.014499 0.067681 0.051888 0.031304 0.048604 0.033525 0.010408 0.010004 0.005405 0.038338 0.025545 0.019152 0.077473 0.021143 0.066614 0.049124 0.054145 0.094960 
0.014838 0.042906 0.010034 0.077778 0.043299 0.055577 0.086428 0.061680 0.060466 0.055115 0.061747 0.030815 0.027116 0.072986 0.050659 0.053468 0.036023 0.076497 0.057916 0.048933 0.083216 0.073352 0.023497 0.060396 0.004178 0.018436 0.065221 0.034567 0.097855 0.033226 0.080310 0.039280 0.040715 0.012859 0.095108 0.018747 0.078872 0.022279 0.029488 0.017726 0.021433 0.061475 0.067040 0.073313 0.023059 0.007227 0.099662 0.012526 0.064974 0.093398 0.031633 0.037504 0.043371 0.064146 0.005759 0.059424 0.047456 0.035141 0.059686 0.048930 0.063049 0.009142 0.056970 0.057284 0.070040 0.090999 0.094039 0.096909 0.066581 0.031440 0.049556 0.020608 0.097332 0.045773 0.061363 0.083165 0.016584 0.051780 0.003553 0.047450 0.053686 0.064919 0.045776 0.092945 0.030506 0.083247 0.070361 0.002671 0.080373 0.022013 0.029367 0.084464 0.025258 0.010451 0.007160 0.005614 0.062617 0.026651 0.090576 0.085760 
0.017669 0.074092 0.099284 0.039123 0.010511 0.073681 0.070460 0.007895 0.090863 0.080881 0.065357 0.065937 0.006822 0.001813 0.092827 0.064548 0.026473 0.011853 0.004429 0.058484 0.018651 0.058647 0.057245 0.015989 0.087764 0.049060 0.018886 0.041018 0.067971 0.092006 0.084939 0.009405 0.082594 0.020611 0.097290 0.045157 0.068058 0.040709 0.036540 0.045628 0.072279 0.046124 0.059061 0.077778 0.018768 0.041688 0.081733 0.052218 0.053336 0.006523 0.056079 0.002296 0.065729 0.054475 0.043761 0.067926 0.097060 0.016231 0.047118 0.026328 0.027346 0.092075 0.092812 0.043531 0.056028 0.016717 0.027159 0.013696 0.072766 0.068222 0.016282 0.051079 0.025443 0.075440 0.021615 0.095855 0.075630 0.052982 0.035921 0.010436 0.074379 0.004145 0.043377 0.008644 0.019759 0.045776 0.003825 0.022279 0.038860 0.078570 0.012789 0.025473 0.070705 0.057726 0.046347 0.020427 0.069868 0.087477 0.036458 0.021817 
0.016152 0.008408 0.081833 0.030555 0.055182 0.077101 0.054946 0.037135 0.055218 0.030981 0.093278 0.045290 0.093111 0.018956 0.047368 0.057148 0.065623 0.096680 0.066829 0.010662 0.038102 0.084023 0.099819 0.006478 0.021726 0.047671 0.091175 0.022968 0.098233 0.038295 0.040706 0.050695 0.078455 0.038323 0.023808 0.042960 0.009529 0.036727 0.028950 0.019702 0.024080 0.097822 0.011158 0.018448 0.054248 0.043534 0.016061 0.031525 0.081914 0.002139 0.080612 0.019273 0.061940 0.056877 0.062079 0.039459 0.090812 0.049456 0.091383 0.087628 0.056447 0.048924 0.020400 0.084591 0.034621 0.065853 0.044293 0.001783 0.073760 0.017282 0.076491 0.065714 0.039477 0.007466 0.057396 0.042187 0.041743 0.048804 0.061436 0.016593 0.036942 0.079981 0.007496 0.086903 0.018741 0.098773 0.015412 0.098628 0.083074 0.078482 0.025533 0.006469 0.098069 0.079464 0.021004 0.011865 0.046332 0.026724 0.063841 0.071125 
0.077346 0.060073 0.098393 0.002423 0.050381 0.036742 0.020282 0.083365 0.080748 0.083032 0.063439 0.001251 0.087742 0.081845 0.023273 0.007934 0.055100 0.091682 0.041643 0.062285 0.091353 0.078987 0.085661 0.020158 0.020865 0.068346 0.053949 0.020974 0.067974 0.082522 0.018472 0.071660 0.087993 0.085748 0.060457 0.056194 0.095489 0.094311 0.099583 0.062439 0.038646 0.073829 0.065992 0.076509 0.085066 0.084238 0.022198 0.025352 0.060825 0.093933 0.089552 0.009831 0.001202 0.023056 0.083256 0.025944 0.058828 0.031358 0.096640 0.006460 0.044655 0.026654 0.057680 0.074666 0.015611 0.092302 0.092456 0.060457 0.006212 0.017675 0.015530 0.051459 0.021034 0.026150 0.078972 0.039446 0.068379 0.092495 0.012992 0.038730 0.064943 0.043187 0.073887 0.023763 0.084902 0.009614 0.043290 0.072678 0.090163 0.061629 0.092441 0.063965 0.011209 0.076397 0.049426 0.006018 0.008348 0.056070 0.092123 0.049761 
0.099695 0.068185 0.097828 0.076074 0.074733 0.022294 0.078240 0.086265 0.067871 0.040806 0.019856 0.099236 0.037700 0.053456 0.073373 0.090661 0.011436 0.066436 0.006200 0.063795 0.033292 0.032621 0.049692 0.094226 0.092184 0.080851 0.075134 0.042178 0.056559 0.030739 0.022161 0.061732 0.089779 0.040036 0.097643 0.016518 0.088776 0.023908 0.005617 0.020234 0.005447 0.089202 0.082449 0.013626 0.088567 0.019089 0.033700 0.002199 0.034525 0.051136 0.027893 0.054336 0.044870 0.093160 0.041703 0.001060 0.006837 0.015965 0.033703 0.016206 0.091812 0.048329 0.009254 0.038102 0.077038 0.052260 0.078618 0.003623 0.091416 0.069971 0.065895 0.043734 0.090743 0.029549 0.057901 0.037265 0.070219 0.010789 0.064530 0.048163 0.002592 0.047172 0.080742 0.052928 0.024757 0.073394 0.008750 0.087407 0.059164 0.083537 0.037501 0.011750 0.085909 0.020210 0.047039 0.022687 0.053765 0.053743 0.020856 0.022817 
0.052127 0.078817 0.033833 0.065234 0.029092 0.077570 0.016814 0.082096 0.073569 0.077597 0.043486 0.026412 0.051792 0.066844 0.053586 0.021790 0.012031 0.078830 0.055076 0.065267 0.048864 0.018203 0.016360 0.066064 0.050852 0.034099 0.095130 0.062403 0.002964 0.021207 0.018944 0.013116 0.079606 0.046115 0.046163 0.095296 0.011560 0.080821 0.045256 0.013656 0.031730 0.048891 0.012164 0.034908 0.011989 0.051302 0.048737 0.074742 0.086002 0.094311 0.052897 0.045752 0.063363 0.077452 0.014584 0.070980 0.038878 0.057049 0.079104 0.009254 0.096368 0.058218 0.083920 0.065137 0.025757 0.044888 0.007580 0.048571 0.021932 0.013705 0.046770 0.047096 0.017049 0.029404 0.077135 0.075708 0.099773 0.068536 0.084978 0.081192 0.069182 0.083026 0.038392 0.044069 0.081796 0.051601 0.091951 0.069932 0.043441 0.034455 0.088513 0.015348 0.001414 0.098193 0.044299 0.025080 0.079715 0.027491 0.085754 0.040815 
0.034706 0.076476 0.039356 0.054133 0.043084 0.003209 0.013925 0.054958 0.027443 0.016376 0.097556 0.062146 0.022312 0.085513 0.013714 0.078515 0.074029 0.055828 0.026690 0.059949 0.098208 0.088072 0.079878 0.037875 0.069279 0.003381 0.041066 0.088755 0.074826 0.023636 0.018318 0.091870 0.015101 0.002218 0.056493 0.058100 0.064611 0.031718 0.059046 0.079899 0.092030 0.018503 0.037186 0.091199 0.046356 0.021639 0.045985 0.071476 0.099637 0.035138 0.008520 0.090655 0.079059 0.020977 0.074681 0.037126 0.047840 0.059889 0.032670 0.009547 0.082658 0.041368 0.003876 0.026669 0.018058 0.046873 0.048124 0.035908 0.076630 0.055692 0.018962 0.062865 0.086274 0.028437 0.068058 0.096544 0.084485 0.086634 0.069288 0.047435 0.010916 0.061393 0.044619 0.066258 0.001106 0.010605 0.060381 0.075482 0.071696 0.086655 0.092039 0.088452 0.016992 0.067080 0.009004 0.069252 0.089235 0.098217 0.078663 0.017070 
0.015351 0.093235 0.062116 0.018288 0.090637 0.027542 0.072829 0.058961 0.021095 0.058055 0.082688 0.033978 0.046891 0.036292 0.058629 0.042571 0.018675 0.014735 0.089404 0.020418 0.068173 0.029464 0.010550 0.085047 0.029842 0.065505 0.065243 0.050734 0.067004 0.071874 0.029987 0.083697 0.055218 0.041794 0.025914 0.062696 0.077301 0.025029 0.048616 0.011834 0.077799 0.087818 0.051202 0.061768 0.041289 0.087386 0.088673 0.028993 0.029310 0.068484 0.081141 0.039510 0.054308 0.059952 0.090075 0.009505 0.016424 0.078727 0.071098 0.003335 0.077458 0.010306 0.096453 0.073482 0.014871 0.074159 0.010738 0.018696 0.009158 0.057949 0.008016 0.041138 0.021430 0.009164 0.004831 0.065578 0.016566 0.073053 0.089329 0.087525 0.069772 0.086313 0.019950 0.006414 0.037860 0.080591 0.053931 0.023603 0.011182 0.028165 0.089057 0.061378 0.039413 0.082833 0.091879 0.074717 0.050193 0.044465 0.082936 0.009007 
0.037839 0.092199 0.078092 0.087434 0.055046 0.029700 0.038540 0.082262 0.084899 0.077533 0.030651 0.035751 0.019037 0.060028 0.054169 0.094894 0.017309 0.021699 0.036918 0.044698 0.088779 0.011590 0.048559 0.065255 0.060405 0.090598 0.043543 0.030292 0.060272 0.082189 0.076817 0.060430 0.008668 0.022515 0.005366 0.044879 0.025905 0.038359 0.015255 0.052771 0.052172 0.014895 0.096169 0.040857 0.093314 0.058780 0.001094 0.085797 0.080851 0.039437 0.090299 0.042749 0.067092 0.006112 0.043027 0.056475 0.040676 0.060605 0.093217 0.034685 0.083413 0.097157 0.089670 0.004861 0.054710 0.068491 0.046849 0.058236 0.019506 0.001420 0.060886 0.020155 0.011998 0.025068 0.088863 0.025618 0.054015 0.031065 0.039996 0.060070 0.010396 0.020811 0.082809 0.040305 0.002218 0.066188 0.032845 0.079624 0.069204 0.047692 0.002115 0.036972 0.099148 0.076530 0.085742 0.073300 0.002731 0.081543 0.078999 0.027842 
0.062554 0.061520 0.069294 0.030558 0.048710 0.077808 0.025201 0.064409 0.098782 0.002716 0.019110 0.002749 0.073581 0.078675 0.096646 0.013511 0.089480 0.026612 0.043368 0.083398 0.027672 0.035549 0.041936 0.038818 0.028219 0.084821 0.094259 0.004822 0.066231 0.039948 0.092755 0.005647 0.023974 0.042622 0.098323 0.034207 0.039350 0.071726 0.036108 0.086193 0.069469 0.076920 0.049643 0.099976 0.033757 0.056713 0.031482 0.090111 0.069409 0.096535 0.065916 0.019569 0.085489 0.035703 0.004840 0.094489 0.029600 0.065880 0.011408 0.036615 0.053417 0.048819 0.094522 0.096184 0.010913 0.044042 0.072778 0.083437 0.049686 0.032271 0.069983 0.072524 0.046148 0.038199 0.010765 0.045966 0.040999 0.024470 0.099462 0.054426 0.019759 0.067430 0.057786 0.041018 0.006777 0.087528 0.094465 0.013835 0.005469 0.040903 0.095356 0.012946 0.060221 0.043117 0.007173 0.060575 0.071735 0.044438 0.081437 0.035661 
0.037205 0.012738 0.090691 0.057559 0.050118 0.045420 0.044625 0.033044 0.038090 0.079325 0.033183 0.040389 0.058511 0.006133 0.041232 0.006710 0.041386 0.060236 0.034902 0.055308 0.096232 0.009436 0.075219 0.078186 0.074291 0.084643 0.066052 0.009547 0.097024 0.099813 0.080044 0.048402 0.049109 0.094269 0.077567 0.029044 0.043891 0.037800 0.061333 0.058623 0.057544 0.049495 0.075736 0.036516 0.046846 0.056825 0.004487 0.075715 0.033878 0.048891 0.060729 0.034951 0.086507 0.048362 0.042102 0.082797 0.073998 0.065043 0.026968 0.007420 0.017572 0.046507 0.089311 0.084268 0.024319 0.088839 0.025409 0.027313 0.030192 0.031890 0.035969 0.024210 0.023584 0.088060 0.089655 0.083923 0.084183 0.045015 0.099749 0.014176 0.017533 0.077397 0.025974 0.019397 0.098139 0.014910 0.053067 0.078328 0.028422 0.002807 0.057209 0.072101 0.002414 0.095217 0.095921 0.009955 0.090480 0.034277 0.043498 0.046308 
0.051979 0.022596 0.008584 0.032410 0.049163 0.078923 0.051958 0.078313 0.013146 0.071563 0.049184 0.086356 0.016351 0.098501 0.097154 0.028881 0.095184 0.041649 0.032147 0.020427 0.095380 0.043271 0.042510 0.076089 0.062780 0.038969 0.052526 0.091268 0.068950 0.095257 0.058575 0.033549 0.093420 0.082159 0.084195 0.089915 0.039939 0.032842 0.054130 0.066989 0.013590 0.017678 0.035927 0.064590 0.045054 0.092794 0.060236 0.037223 0.081923 0.041495 0.067348 0.065844 0.027382 0.062611 0.082102 0.043489 0.052130 0.045145 0.075748 0.003091 0.068808 0.068285 0.012841 0.088162 0.079893 0.063167 0.036788 0.008511 0.090299 0.087419 0.005121 0.050846 0.008578 0.039909 0.011085 0.021312 0.010079 0.068711 0.013668 0.070844 0.003849 0.004707 0.014638 0.077409 0.062684 0.063847 0.092664 0.050985 0.062140 0.061463 0.050169 0.017415 0.090854 0.074724 0.061980 0.064856 0.076014 0.093552 0.002320 0.098087 
0.087341 0.012091 0.027352 0.083371 0.060396 0.075143 0.089730 0.032065 0.006583 0.062532 0.071367 0.010750 0.044682 0.097897 0.091960 0.020050 0.034238 0.077845 0.006348 0.029869 0.026702 0.013989 0.024355 0.013312 0.027597 0.065774 0.080141 0.068944 0.087603 0.081588 0.082721 0.077615 0.007889 0.099154 0.060714 0.072645 0.073551 0.038622 0.055898 0.076467 0.021442 0.039383 0.065705 0.087558 0.032352 0.069998 0.087220 0.059792 0.062732 0.064312 0.067787 0.063016 0.018938 0.005127 0.012825 0.070959 0.059282 0.020476 0.055934 0.060324 0.061708 0.012892 0.048876 0.065167 0.017484 0.074730 0.060563 0.078343 0.091764 0.021923 0.055608 0.038235 0.032253 0.091226 0.042540 0.089453 0.033017 0.044308 0.051296 0.068756 0.061557 0.010801 0.042066 0.087897 0.053175 0.016635 0.095081 0.075615 0.059859 0.044722 0.092450 0.051496 0.084588 0.049432 0.033649 0.082905 0.074388 0.088797 0.096728 0.014735 
0.099976 0.094973 0.002831 0.002181 0.007324 0.040870 0.063188 0.055233 0.054046 0.023464 0.001036 0.021143 0.033839 0.031712 0.006750 0.094580 0.084966 0.008602 0.019578 0.014641 0.091996 0.074246 0.011236 0.008544 0.084724 0.034510 0.036875 0.057085 0.028570 0.022170 0.056502 0.046686 0.024346 0.009031 0.074527 0.056215 0.004689 0.035975 0.006435 0.076289 0.044027 0.087443 0.018258 0.092271 0.072409 0.071285 0.054870 0.026724 0.011079 0.018472 0.094758 0.076497 0.011088 0.072621 0.045323 0.049160 0.030815 0.086779 0.024349 0.016061 0.017729 0.080521 0.040652 0.094652 0.029262 0.087721 0.017599 0.093338 0.073104 0.054036 0.063542 0.098595 0.090776 0.096562 0.051740 0.064527 0.062826 0.002595 0.096921 0.078585 0.065508 0.062028 0.001009 0.056719 0.059251 0.031262 0.047196 0.046616 0.030784 0.006227 0.026841 0.090283 0.071282 0.002341 0.066409 0.032679 0.022316 0.038984 0.039942 0.009635 
0.054030 0.001390 0.045232 0.021726 0.025310 0.087492 0.016240 0.020403 0.079361 0.023578 0.058871 0.002006 0.027455 0.034389 0.077715 0.050955 0.073304 0.068442 0.082815 0.025781 0.034766 0.066200 0.041090 0.017279 0.011360 0.048994 0.067475 0.084419 0.050329 0.044126 0.018403 0.001299 0.076660 0.010230 0.074699 0.094858 0.015889 0.075240 0.089477 0.045492 0.088008 0.063007 0.080162 0.096435 0.013351 0.007034 0.036205 0.058934 0.078799 0.033262 0.035609 0.064125 0.033117 0.023376 0.029796 0.032691 0.046819 0.014659 0.092024 0.031105 0.002329 0.064789 0.092815 0.069614 0.062901 0.042583 0.092607 0.025739 0.072971 0.053160 0.019137 0.030470 0.045480 0.077488 0.018687 0.020898 0.080839 0.029775 0.048791 0.083488 0.092003 0.099674 0.002474 0.093701 0.056414 0.008777 0.020639 0.078243 0.080225 0.018385 0.005689 0.003568 0.005580 0.040960 0.071959 0.020947 0.024376 0.088320 0.055085 0.069732 
0.049242 0.091948 0.013886 0.067110 0.097208 0.051486 0.044833 0.081032 0.030784 0.031769 0.055750 0.031534 0.020898 0.073473 0.095782 0.099163 0.076449 0.032778 0.007263 0.098749 0.004870 0.009043 0.085585 0.086241 0.029555 0.088966 0.027600 0.060777 0.062433 0.066152 0.032736 0.039785 0.035603 0.042646 0.050347 0.052278 0.082337 0.096305 0.047438 0.041054 0.001266 0.019518 0.062324 0.011091 0.061194 0.085298 0.047356 0.018753 0.006230 0.084087 0.048278 0.042129 0.001764 0.062366 0.030286 0.020131 0.083939 0.006481 0.096471 0.001653 0.071131 0.021648 0.012629 0.098444 0.064182 0.031639 0.071122 0.083936 0.028736 0.054082 0.029808 0.014783 0.071593 0.076869 0.039724 0.034268 0.003305 0.095631 0.099514 0.041320 0.096000 0.030760 0.069261 0.057390 0.044634 0.083917 0.048837 0.093864 0.020645 0.064524 0.084265 0.055242 0.034256 0.028210 0.096302 0.064838 0.009312 0.064659 0.083769 0.065137 
0.053997 0.091818 0.010729 0.069630 0.064279 0.068007 0.024137 0.017267 0.024379 0.092797 0.015013 0.012291 0.042196 0.016197 0.060768 0.098634 0.097924 0.007106 0.068753 0.054635 0.028808 0.017454 0.059650 0.040289 0.025307 0.088090 0.004759 0.008701 0.082558 0.026769 0.061825 0.001027 0.068424 0.008339 0.024449 0.028594 0.040066 0.033467 0.017714 0.077388 0.094278 0.092966 0.067107 0.027693 0.076494 0.063149 0.078313 0.024050 0.017799 0.090193 0.033017 0.098254 0.040770 0.092981 0.057260 0.075642 0.009505 0.033368 0.068478 0.052360 0.040691 0.078391 0.043794 0.097858 0.072035 0.026328 0.021684 0.064276 0.099909 0.091129 0.087576 0.038014 0.074572 0.041154 0.049498 0.038147 0.074781 0.073696 0.044386 0.090936 0.047145 0.025273 0.098084 0.077110 0.029101 0.002142 0.077703 0.085232 0.041788 0.020986 0.039398 0.073730 0.076718 0.061282 0.034144 0.069956 0.055577 0.099305 0.067620 0.005864 
0.087987 0.040211 0.068808 0.022636 0.015566 0.009212 0.068370 0.046873 0.052160 0.027270 0.045441 0.064666 0.023563 0.027295 0.039866 0.094193 0.006586 0.028343 0.087549 0.095090 0.068811 0.037724 0.080941 0.003320 0.027845 0.092549 0.003320 0.030751 0.099514 0.010629 0.044915 0.032147 0.086697 0.054275 0.059466 0.058828 0.057272 0.096849 0.047365 0.010668 0.063959 0.079648 0.034902 0.010720 0.072376 0.042042 0.045761 0.008082 0.026234 0.037313 0.019339 0.035343 0.027947 0.098208 0.074983 0.022240 0.068512 0.069633 0.085730 0.096773 0.077023 0.066518 0.049689 0.077503 0.020645 0.087232 0.024578 0.078265 0.033428 0.035600 0.024600 0.037948 0.007719 0.067950 0.031162 0.096670 0.012617 0.043148 0.021624 0.026956 0.082265 0.071134 0.068590 0.037214 0.045299 0.046894 0.017871 0.067185 0.017370 0.066327 0.084748 0.090631 0.050000 0.007015 0.094537 0.029902 0.052674 0.071334 0.093145 0.015705 
0.065490 0.079866 0.053662 0.091700 0.019204 0.005635 0.018587 0.097178 0.050051 0.032080 0.086785 0.015584 0.011115 0.051227 0.099773 0.037008 0.039673 0.053100 0.020430 0.028452 0.030292 0.035769 0.066723 0.036038 0.071071 0.095027 0.009517 0.027911 0.088833 0.016173 0.063122 0.007015 0.067626 0.016865 0.005601 0.088513 0.076400 0.082516 0.046504 0.087002 0.084156 0.038162 0.079035 0.089329 0.085455 0.075361 0.042338 0.073137 0.019602 0.016980 0.010946 0.046921 0.006366 0.008435 0.063971 0.058801 0.084570 0.027286 0.036162 0.064690 0.075385 0.008689 0.094447 0.092148 0.043725 0.057686 0.063946 0.096574 0.098498 0.070738 0.031213 0.044991 0.005121 0.019554 0.049640 0.020143 0.024159 0.021645 0.088706 0.088096 0.083343 0.064533 0.032177 0.019080 0.082908 0.092148 0.074772 0.089818 0.025548 0.023376 0.035473 0.086996 0.097828 0.015170 0.016013 0.017146 0.087407 0.045241 0.031682 0.038658 
0.044921 0.017793 0.052985 0.052094 0.089869 0.061267 0.065333 0.028582 0.081328 0.043540 0.001257 0.027479 0.022856 0.052592 0.043344 0.091996 0.041438 0.076071 0.063384 0.063079 0.017784 0.033727 0.081914 0.094169 0.083866 0.079240 0.018702 0.026150 0.084990 0.048293 0.024267 0.088138 0.014306 0.048523 0.059055 0.093347 0.012028 0.078141 0.010315 0.090791 0.056278 0.074838 0.003351 0.037975 0.016835 0.063853 0.019146 0.069343 0.099707 0.024714 0.059025 0.014669 0.076769 0.036612 0.067421 0.039156 0.001420 0.024862 0.061345 0.069397 0.012526 0.064454 0.073636 0.074977 0.046510 0.068107 0.061626 0.057883 0.029953 0.012874 0.081262 0.037504 0.085543 0.027681 0.086307 0.071367 0.036688 0.010837 0.048743 0.005375 0.020678 0.079935 0.056886 0.082769 0.010714 0.038141 0.097402 0.026491 0.056647 0.050363 0.068750 0.001211 0.034788 0.020170 0.029183 0.079733 0.023609 0.059073 0.038878 0.035927 
0.095716 0.034002 0.094308 0.049054 0.048879 0.089564 0.009417 0.082528 0.044534 0.031920 0.038767 0.006952 0.003535 0.064922 0.018125 0.012650 0.014551 0.072279 0.094728 0.015300 0.099903 0.035392 0.030691 0.075020 0.010248 0.067741 0.052771 0.037558 0.065895 0.081286 0.033951 0.021802 0.053103 0.040909 0.079059 0.061369 0.064264 0.030304 0.091945 0.029422 0.092229 0.095323 0.010318 0.035525 0.089691 0.078225 0.067871 0.047686 0.075929 0.002822 0.096740 0.017309 0.021772 0.035954 0.001918 0.052332 0.085123 0.090302 0.024739 0.035198 0.036878 0.073962 0.055958 0.012922 0.033624 0.059816 0.080600 0.062965 0.091882 0.093087 0.025113 0.071116 0.024322 0.098100 0.098967 0.006133 0.063753 0.097725 0.099224 0.038329 0.074213 0.018418 0.057251 0.096837 0.050057 0.086395 0.003142 0.093764 0.099326 0.097834 0.038891 0.013995 0.038295 0.053653 0.079981 0.009792 0.060508 0.045788 0.060469 0.094957 
0.033147 0.004417 0.060127 0.072769 0.072107 0.064155 0.059750 0.084416 0.047571 0.079651 0.070240 0.036138 0.077494 0.038561 0.044546 0.073784 0.056777 0.001399 0.021047 0.066010 0.081503 0.029162 0.006493 0.066880 0.014091 0.015264 0.047063 0.016016 0.048701 0.080745 0.094685 0.053048 0.027693 0.063170 0.018146 0.001619 0.061578 0.045238 0.059173 0.092601 0.005200 0.057571 0.003958 0.095764 0.045577 0.010581 0.043365 0.018657 0.053169 0.069007 0.008281 0.036869 0.051009 0.048961 0.052293 0.042383 0.047438 0.031035 0.062233 0.038286 0.002864 0.076437 0.076730 0.083546 0.057363 0.051538 0.082316 0.026026 0.007457 0.021944 0.081213 0.004511 0.039921 0.043404 0.087386 0.076941 0.027980 0.008656 0.053934 0.054562 0.090697 0.060593 0.081470 0.077237 0.017929 0.052740 0.019497 0.039619 0.063723 0.052559 0.097471 0.086395 0.017385 0.071464 0.014554 0.088341 0.045226 0.027077 0.005728 0.020415 
0.014179 0.002701 0.026313 0.044565 0.097232 0.027409 0.077485 0.040507 0.064956 0.035809 0.091936 0.060179 0.063031 0.022871 0.026195 0.063094 0.082062 0.062859 0.063786 0.012306 0.028549 0.009762 0.090734 0.074219 0.078364 0.033268 0.030579 0.021917 0.053568 0.025678 0.002465 0.060321 0.077908 0.023793 0.008384 0.093779 0.063844 0.077195 0.093205 0.050396 0.088459 0.023902 0.089522 0.065802 0.003067 0.079914 0.089017 0.071518 0.036918 0.030518 0.059303 0.065756 0.046743 0.008922 0.044945 0.017738 0.063623 0.056139 0.064696 0.089365 0.085896 0.061578 0.054568 0.026367 0.086516 0.050341 0.057816 0.085751 0.064696 0.040697 0.021445 0.074630 0.021170 0.031645 0.093320 0.055302 0.082926 0.037126 0.086461 0.083682 0.062735 0.033760 0.093670 0.060865 0.065348 0.035658 0.028002 0.035023 0.039700 0.064206 0.072261 0.053351 0.086930 0.028352 0.011040 0.099278 0.017590 0.075316 0.022448 0.006683 
0.066935 0.041214 0.012091 0.084322 0.073491 0.046592 0.066421 0.065155 0.019932 0.074258 0.098024 0.083851 0.033464 0.079476 0.071965 0.010130 0.071630 0.053931 0.073763 0.049239 0.063859 0.009442 0.024101 0.026150 0.041610 0.094930 0.082872 0.066856 0.037455 0.020518 0.062608 0.093371 0.077938 0.081383 0.081990 0.053686 0.050538 0.084141 0.086389 0.085428 0.066641 0.052408 0.070167 0.059381 0.011783 0.004396 0.013744 0.077648 0.093066 0.006046 0.083062 0.085643 0.085069 0.069672 0.005514 0.073624 0.074101 0.012572 0.051000 0.017013 0.006139 0.033612 0.057079 0.041193 0.046296 0.043175 0.015950 0.059028 0.045151 0.088525 0.048251 0.059780 0.020823 0.009010 0.014324 0.099728 0.051082 0.069098 0.053033 0.084093 0.098359 0.010656 0.021693 0.073581 0.043033 0.054547 0.018264 0.017228 0.051783 0.005895 0.058348 0.040749 0.071391 0.092090 0.098121 0.093142 0.059813 0.083914 0.059759 0.080739 
0.041882 0.031830 0.060505 0.083464 0.017466 0.058855 0.006895 0.099438 0.096468 0.067001 0.042317 0.001740 0.096426 0.065756 0.019430 0.044504 0.066161 0.098580 0.079582 0.028014 0.080253 0.079854 0.015798 0.034156 0.074681 0.003293 0.095453 0.049779 0.048523 0.042268 0.029171 0.003317 0.016004 0.012989 0.049121 0.007327 0.033778 0.097066 0.090256 0.055151 0.083772 0.017367 0.047562 0.053475 0.037401 0.048680 0.073007 0.032948 0.075591 0.067119 0.024168 0.032627 0.008327 0.019744 0.097211 0.094423 0.046199 0.097414 0.073276 0.061279 0.081670 0.032247 0.002903 0.011348 0.032512 0.059768 0.054538 0.031812 0.087190 0.096112 0.074736 0.065602 0.038540 0.066303 0.051190 0.019744 0.010644 0.013113 0.046133 0.076548 0.082171 0.051354 0.098199 0.010306 0.022041 0.084211 0.046399 0.024826 0.006846 0.039471 0.071249 0.033401 0.070720 0.047202 0.025651 0.094513 0.048121 0.029784 0.033652 0.013952 
0.037338 0.006801 0.033645 0.034618 0.076041 0.090764 0.051103 0.030618 0.046734 0.090078 0.065478 0.018025 0.087474 0.071328 0.068309 0.091882 0.050653 0.015233 0.068161 0.027748 0.067258 0.017339 0.045504 0.023503 0.066357 0.058831 0.009067 0.047577 0.010254 0.006493 0.057846 0.061378 0.081093 0.055305 0.006260 0.067122 0.005254 0.094540 0.060665 0.070747 0.018457 0.091945 0.025687 0.099208 0.083788 0.075917 0.013605 0.064777 0.063635 0.028153 0.036259 0.011650 0.031769 0.048743 0.066644 0.042531 0.060484 0.017170 0.028787 0.064415 0.055067 0.002202 0.015959 0.037310 0.059532 0.050118 0.096834 0.073128 0.021893 0.010269 0.009711 0.078376 0.036830 0.007420 0.084377 0.070004 0.054124 0.041842 0.028672 0.066013 0.070675 0.019633 0.087419 0.086099 0.091453 0.080237 0.022732 0.055027 0.085223 0.048616 0.027400 0.044982 0.012421 0.057058 0.010300 0.055568 0.051964 0.075086 0.078567 0.064744 
0.015372 0.095441 0.041543 0.044341 0.055085 0.001571 0.068122 0.079422 0.071213 0.072681 0.025548 0.087205 0.022687 0.062699 0.027334 0.066750 0.032080 0.086226 0.015315 0.078135 0.014913 0.059886 0.012478 0.090338 0.098912 0.041042 0.059653 0.084558 0.078905 0.093401 0.086649 0.057176 0.063841 0.041371 0.017938 0.012076 0.066669 0.019790 0.066475 0.081561 0.099492 0.002837 0.030751 0.073554 0.009804 0.010705 0.023681 0.069349 0.026159 0.068956 0.062393 0.082573 0.061118 0.035053 0.056550 0.007623 0.026838 0.049997 0.099266 0.046284 0.003094 0.046589 0.024228 0.068720 0.038150 0.062236 0.014131 0.077615 0.006248 0.084827 0.035951 0.033621 0.094133 0.090573 0.086265 0.022865 0.063369 0.091359 0.012088 0.014744 0.038906 0.058523 0.098444 0.091676 0.079615 0.035537 0.099121 0.003088 0.093226 0.009596 0.079854 0.014342 0.024488 0.052532 0.057429 0.021763 0.096885 0.004046 0.021835 0.092574 
0.046719 0.098764 0.097042 0.093888 0.001012 0.027980 0.051538 0.084537 0.056952 0.015708 0.092166 0.024872 0.026261 0.013856 0.073409 0.082355 0.065394 0.002094 0.045655 0.088069 0.090818 0.071364 0.066602 0.015928 0.086271 0.009448 0.021337 0.039794 0.092338 0.037664 0.048229 0.060164 0.005175 0.041033 0.039202 0.027745 0.053743 0.030008 0.098492 0.064548 0.003335 0.067149 0.032479 0.026760 0.033881 0.020738 0.051704 0.084123 0.053680 0.051834 0.064605 0.078987 0.001073 0.018660 0.041172 0.031824 0.072826 0.090909 0.014007 0.051387 0.065530 0.064783 0.016956 0.036199 0.035957 0.067409 0.013850 0.098671 0.080639 0.042441 0.018515 0.019485 0.054532 0.012412 0.062578 0.049538 0.098142 0.093794 0.014206 0.080086 0.020898 0.082195 0.092371 0.092368 0.093178 0.058698 0.099683 0.095411 0.007774 0.052810 0.099471 0.087217 0.048193 0.014949 0.065140 0.030077 0.036594 0.015013 0.039389 0.078228 
0.098740 0.038909 0.014469 0.058523 0.006756 0.091583 0.080969 0.026421 0.048136 0.077488 0.056272 0.006943 0.082712 0.067974 0.031331 0.049834 0.033026 0.030531 0.056725 0.094658 0.053949 0.025412 0.010720 0.082044 0.062783 0.043558 0.048356 0.004798 0.043858 0.095311 0.001175 0.038087 0.016802 0.020886 0.007680 0.046432 0.092456 0.028077 0.051127 0.091725 0.099680 0.042126 0.090721 0.051988 0.097985 0.061300 0.046837 0.074089 0.071240 0.098051 0.039365 0.069131 0.018397 0.018306 0.040715 0.072732 0.023473 0.036833 0.035664 0.074953 0.035724 0.003100 0.047541 0.053006 0.031310 0.017693 0.033945 0.098574 0.089286 0.018669 0.001508 0.085851 0.063300 0.085872 0.045831 0.059106 0.064808 0.092658 0.072201 0.092945 0.053154 0.056997 0.091129 0.011989 0.045395 0.019436 0.052396 0.099236 0.033153 0.007855 0.012584 0.011717 0.030398 0.005541 0.094785 0.002831 0.032455 0.086495 0.045525 0.085905 
0.013131 0.040468 0.025524 0.050299 0.037253 0.037712 0.063369 0.023775 0.021491 0.071862 0.006701 0.037292 0.012819 0.027956 0.073020 0.067995 0.022424 0.094081 0.072660 0.006592 0.086434 0.096544 0.079107 0.034872 0.086292 0.051121 0.025174 0.067515 0.099154 0.015285 0.010152 0.030975 0.019089 0.048927 0.083564 0.029666 0.011505 0.051499 0.003556 0.093075 0.046568 0.085087 0.012599 0.039126 0.074023 0.060360 0.059499 0.038483 0.075204 0.087869 0.094374 0.038951 0.069645 0.074660 0.053695 0.020790 0.005046 0.066678 0.082951 0.034087 0.004036 0.015925 0.010031 0.008931 0.005478 0.076848 0.002973 0.071639 0.065747 0.011910 0.039087 0.070666 0.060783 0.097837 0.020116 0.035534 0.054242 0.033470 0.041507 0.074406 0.072648 0.022769 0.076379 0.047547 0.057831 0.038812 0.067273 0.096438 0.024521 0.056393 0.082313 0.088688 0.005459 0.031102 0.043833 0.048513 0.009828 0.036371 0.072089 0.028996 
0.072385 0.029476 0.061125 0.010813 0.025095 0.053964 0.024436 0.065696 0.058695 0.052411 0.025449 0.082289 0.022908 0.097100 0.042483 0.084700 0.017759 0.014451 0.068240 0.045365 0.026787 0.002795 0.001441 0.024536 0.055493 0.031355 0.026696 0.033047 0.010904 0.015980 0.050190 0.054617 0.092543 0.044574 0.075301 0.020376 0.039697 0.073669 0.085721 0.072881 0.084316 0.052133 0.033198 0.021267 0.073349 0.091513 0.081464 0.007837 0.005916 0.054873 0.020460 0.099734 0.033138 0.064750 0.081479 0.033960 0.096927 0.015061 0.087229 0.096465 0.027669 0.082513 0.058544 0.007463 0.079065 0.025415 0.003713 0.060798 0.046988 0.057490 0.032099 0.003456 0.019750 0.094447 0.003094 0.002060 0.015551 0.062013 0.050060 0.073476 0.069509 0.043211 0.002272 0.049281 0.006085 0.082473 0.034534 0.015369 0.063267 0.008451 0.072509 0.029277 0.020321 0.083132 0.085380 0.046604 0.074515 0.067064 0.080938 0.047124 
0.029591 0.082313 0.053665 0.004885 0.041365 0.070992 0.086954 0.088987 0.077319 0.042945 0.067992 0.046217 0.048453 0.088455 0.008475 0.033352 0.047365 0.072515 0.033691 0.068273 0.076742 0.065590 0.043078 0.070605 0.088268 0.041362 0.084893 0.037190 0.013176 0.094423 0.062004 0.045988 0.010345 0.005363 0.009487 0.029724 0.019249 0.099263 0.056055 0.002955 0.031667 0.047000 0.022941 0.089773 0.070397 0.030428 0.049344 0.045882 0.001922 0.029781 0.019995 0.097269 0.052299 0.070388 0.074956 0.017149 0.074143 0.058061 0.076249 0.045474 0.018049 0.060236 0.014421 0.077624 0.052311 0.058218 0.021596 0.033615 0.012206 0.027585 0.093142 0.012466 0.087839 0.065209 0.065557 0.073935 0.055695 0.033797 0.051622 0.034392 0.051928 0.026515 0.098474 0.010055 0.093604 0.033597 0.061623 0.015215 0.058789 0.014436 0.044589 0.041797 0.004855 0.044099 0.021167 0.016850 0.060765 0.054789 0.078996 0.074307 
0.069766 0.029147 0.099438 0.042625 0.099293 0.066950 0.015454 0.069593 0.014427 0.093078 0.056514 0.098009 0.023766 0.014300 0.043102 0.014418 0.097036 0.092827 0.011031 0.065699 0.064279 0.067037 0.040011 0.098601 0.078032 0.054450 0.081688 0.088093 0.080207 0.084337 0.037658 0.014629 0.034162 0.007964 0.090628 0.071113 0.058701 0.098946 0.054233 0.051731 0.046392 0.032624 0.021696 0.091441 0.081050 0.022074 0.088845 0.024246 0.048698 0.017512 0.045601 0.024080 0.053897 0.053752 0.078594 0.093410 0.035730 0.028561 0.012889 0.073355 0.096350 0.016466 0.016524 0.017515 0.035362 0.093906 0.097864 0.029222 0.097964 0.087253 0.032440 0.097435 0.044108 0.001641 0.019324 0.020998 0.031597 0.057109 0.040622 0.055511 0.024415 0.099946 0.006221 0.095450 0.031144 0.087821 0.043374 0.005852 0.062832 0.030558 0.043157 0.005245 0.036126 0.095124 0.001499 0.050988 0.095045 0.048677 0.068772 0.098831 
0.092193 0.035283 0.063611 0.088863 0.088809 0.078177 0.038008 0.044586 0.020457 0.006021 0.065327 0.028280 0.090728 0.066255 0.046254 0.042474 0.039749 0.062816 0.080367 0.016651 0.037930 0.053411 0.020343 0.067968 0.064696 0.047598 0.043465 0.086162 0.027609 0.057828 0.065445 0.019403 0.055719 0.023793 0.029231 0.010291 0.054444 0.071110 0.081839 0.075699 0.034890 0.030778 0.097828 0.063723 0.007889 0.066412 0.037522 0.076431 0.064650 0.048671 0.004544 0.012611 0.028337 0.018923 0.005762 0.003305 0.090425 0.074524 0.060266 0.097251 0.034174 0.037758 0.066445 0.078017 0.043096 0.012871 0.073769 0.047075 0.003692 0.015179 0.071361 0.080425 0.003375 0.073684 0.038945 0.088096 0.021877 0.080237 0.065324 0.065176 0.032011 0.093652 0.091864 0.081645 0.092087 0.074757 0.076207 0.001653 0.061904 0.057883 0.034715 0.061554 0.009578 0.031706 0.065802 0.020324 0.050097 0.039963 0.010656 0.090667 
0.088945 0.071959 0.041598 0.077449 0.092616 0.055387 0.052487 0.030745 0.072394 0.016391 0.032422 0.028171 0.007206 0.026361 0.089235 0.017744 0.079929 0.099402 0.026926 0.008985 0.066947 0.055991 0.014602 0.058475 0.037371 0.011759 0.073010 0.040582 0.013705 0.021847 0.015297 0.035612 0.057306 0.034869 0.043048 0.039048 0.014527 0.072884 0.070219 0.022119 0.089851 0.009384 0.055049 0.037464 0.095843 0.049761 0.006544 0.014010 0.031331 0.098205 0.064656 0.023881 0.035576 0.006520 0.013674 0.071506 0.092833 0.076841 0.014040 0.088640 0.010130 0.051650 0.031056 0.076557 0.042610 0.022173 0.042664 0.089093 0.016249 0.003511 0.088878 0.096764 0.094377 0.023560 0.066907 0.019702 0.047731 0.048148 0.017651 0.068626 0.075485 0.005348 0.015581 0.097507 0.037041 0.023479 0.011656 0.087229 0.042954 0.056722 0.028334 0.067932 0.056804 0.002843 0.066276 0.015227 0.070403 0.080978 0.022880 0.008046 
0.088141 0.098952 0.071170 0.094302 0.096831 0.051118 0.017167 0.053124 0.048909 0.082168 0.064372 0.083875 0.035295 0.079863 0.018373 0.036615 0.081812 0.001218 0.053239 0.095323 0.042444 0.007022 0.072787 0.033497 0.013363 0.024243 0.095263 0.052459 0.057949 0.088235 0.080591 0.024968 0.062768 0.094226 0.044767 0.055460 0.098782 0.013085 0.068472 0.070557 0.028630 0.091800 0.054505 0.064131 0.021385 0.014620 0.029156 0.096577 0.022560 0.010436 0.050079 0.088564 0.038736 0.011197 0.020778 0.092966 0.076678 0.045006 0.058291 0.095169 0.012236 0.047737 0.031159 0.025512 0.010931 0.098710 0.003314 0.024062 0.092516 0.056354 0.002922 0.057429 0.055369 0.094377 0.059804 0.016859 0.036108 0.025340 0.019530 0.090329 0.049205 0.001172 0.077805 0.062819 0.068983 0.081549 0.058152 0.010556 0.087827 0.071633 0.059605 0.053372 0.029969 0.090126 0.002420 0.046921 0.043646 0.002106 0.005426 0.047021 
0.061046 0.058641 0.014104 0.051758 0.039818 0.085576 0.019001 0.051628 0.072518 0.058581 0.075573 0.081419 0.094858 0.099816 0.079011 0.017049 0.062043 0.060224 0.089214 0.098094 0.027113 0.088969 0.070424 0.038181 0.099568 0.076881 0.038685 0.080038 0.015134 0.068484 0.075684 0.075349 0.077101 0.024512 0.014055 0.045160 0.031887 0.039407 0.034797 0.083090 0.015400 0.088746 0.001810 0.086981 0.033860 0.015085 0.061263 0.052305 0.036510 0.015212 0.033745 0.026974 0.014058 0.060203 0.027923 0.064795 0.002169 0.095329 0.001716 0.069294 0.017853 0.045232 0.006632 0.063137 0.006118 0.085389 0.029295 0.081839 0.022705 0.007239 0.076854 0.028993 0.037256 0.019080 0.014261 0.077748 0.077775 0.028062 0.097100 0.074742 0.001686 0.042350 0.024998 0.016212 0.010402 0.025869 0.033259 0.052511 0.004644 0.062638 0.065762 0.011714 0.085473 0.054103 0.051792 0.066587 0.001272 0.004517 0.002804 0.060596 
0.043622 0.018774 0.080808 0.008182 0.004305 0.077681 0.047393 0.077041 0.082377 0.002157 0.027017 0.092595 0.056602 0.067312 0.013690 0.040401 0.018101 0.004846 0.054547 0.022720 0.067566 0.022823 0.024527 0.055922 0.093873 0.096181 0.034649 0.045988 0.008442 0.068004 0.091039 0.031827 0.067206 0.082062 0.047269 0.043598 0.070485 0.025482 0.051148 0.061780 0.042664 0.076134 0.053493 0.018197 0.092994 0.043619 0.065004 0.027733 0.079331 0.093353 0.025881 0.098912 0.043229 0.047743 0.083195 0.007133 0.058164 0.051894 0.041661 0.063720 0.063233 0.094788 0.069911 0.098520 0.007242 0.084488 0.041803 0.062267 0.083452 0.047260 0.089948 0.061478 0.092855 0.070095 0.047961 0.063989 0.092323 0.051638 0.061599 0.057991 0.078485 0.068950 0.045317 0.011653 0.071657 0.039099 0.066409 0.020152 0.033670 0.077023 0.026252 0.086262 0.092960 0.030654 0.027814 0.020252 0.015732 0.089797 0.095957 0.093317 
0.079585 0.058638 0.045667 0.059236 0.011378 0.079482 0.045837 0.049486 0.026769 0.001574 0.099595 0.065557 0.039181 0.083552 0.077878 0.088628 0.085579 0.025430 0.012282 0.005387 0.016938 0.008677 0.006816 0.083183 0.015669 0.047238 0.068611 0.005203 0.086906 0.041063 0.009233 0.069965 0.085975 0.003085 0.013656 0.090755 0.012889 0.079092 0.048492 0.094308 0.057239 0.029485 0.092586 0.037401 0.025249 0.069403 0.054559 0.066590 0.008451 0.063134 0.073406 0.024829 0.044728 0.058333 0.066714 0.027144 0.037114 0.047012 0.014623 0.017143 0.057197 0.057713 0.042123 0.027521 0.021433 0.049909 0.005737 0.046326 0.055263 0.022053 0.023276 0.024162 0.038344 0.002263 0.068633 0.013088 0.041743 0.036105 0.070327 0.081407 0.051444 0.038431 0.021829 0.094069 0.095021 0.019790 0.057278 0.091906 0.056777 0.059297 0.099653 0.072433 0.001272 0.039513 0.025065 0.004396 0.092498 0.099269 0.049199 0.066841 
0.037588 0.037851 0.002502 0.063859 0.013424 0.012650 0.071264 0.084782 0.034933 0.070593 0.087111 0.074029 0.020451 0.063409 0.041078 0.083289 0.087014 0.061197 0.092806 0.058321 0.063850 0.042247 0.077956 0.042030 0.034008 0.062575 0.051480 0.042087 0.001414 0.079153 0.087797 0.048773 0.097172 0.036301 0.083461 0.045287 0.016530 0.082235 0.060484 0.001233 0.090308 0.040153 0.032815 0.087501 0.009085 0.079978 0.033141 0.014267 0.079132 0.032047 0.055565 0.007327 0.038247 0.080875 0.016267 0.047483 0.013505 0.082355 0.081754 0.086189 0.035153 0.044411 0.080751 0.040202 0.015542 0.004574 0.032395 0.001447 0.072442 0.062433 0.011753 0.058789 0.036570 0.087413 0.098308 0.068965 0.002668 0.057907 0.014475 0.060375 0.071007 0.057182 0.090794 0.022974 0.049607 0.090030 0.095794 0.064940 0.036084 0.032645 0.042238 0.085386 0.075409 0.077727 0.002761 0.042794 0.010448 0.007179 0.076533 0.067424 
0.097652 0.030524 0.015013 0.012393 0.039652 0.036338 0.044426 0.067654 0.076255 0.093803 0.017013 0.051574 0.003499 0.041779 0.012699 0.093386 0.059278 0.012396 0.018200 0.024137 0.040274 0.023594 0.023255 0.090462 0.093580 0.091625 0.041990 0.011807 0.042858 0.086969 0.013061 0.084395 0.098365 0.091622 0.076669 0.065578 0.008698 0.085244 0.092981 0.036896 0.097607 0.015110 0.088156 0.068430 0.055680 0.067370 0.096456 0.011792 0.019330 0.016524 0.094634 0.006405 0.004831 0.044688 0.081102 0.056290 0.051795 0.026482 0.006067 0.054100 0.014949 0.067137 0.001142 0.094631 0.071518 0.081685 0.020590 0.078476 0.091078 0.014789 0.035745 0.032114 0.024210 0.073134 0.092758 0.046087 0.050846 0.094815 0.088208 0.069515 0.070560 0.001786 0.057692 0.046673 0.047731 0.063753 0.040033 0.039839 0.001897 0.048516 0.015095 0.032120 0.067131 0.046226 0.066904 0.044501 0.004759 0.062511 0.082123 0.062804 
0.078361 0.078981 0.026464 0.012822 0.002269 0.052006 0.010161 0.071294 0.050511 0.063333 0.096063 0.065962 0.047468 0.093407 0.051462 0.034455 0.030165 0.026965 0.086283 0.002172 0.085458 0.054786 0.006638 0.058913 0.083020 0.002121 0.004435 0.081467 0.074455 0.024754 0.017073 0.082881 0.099359 0.015155 0.085857 0.040631 0.069708 0.060711 0.033171 0.085392 0.057399 0.088477 0.095102 0.001644 0.072285 0.048456 0.037483 0.010868 0.051544 0.056840 0.075047 0.006444 0.038749 0.069194 0.032742 0.003109 0.085461 0.089054 0.068811 0.059082 0.051692 0.085902 0.091734 0.057620 0.026086 0.034008 0.002595 0.081244 0.057164 0.038072 0.073056 0.082310 0.015466 0.066149 0.026379 0.078168 0.059958 0.047846 0.091773 0.069617 0.053496 0.056242 0.025491 0.019907 0.083775 0.044489 0.061907 0.082948 0.038510 0.043589 0.085060 0.031993 0.094278 0.094287 0.092836 0.057517 0.067787 0.027573 0.026340 0.004453 
0.083002 0.049761 0.056556 0.009578 0.007880 0.068593 0.093912 0.005218 0.015146 0.003329 0.008810 0.060004 0.017871 0.005372 0.021751 0.012901 0.037253 0.060263 0.078110 0.074243 0.045450 0.075648 0.042184 0.057946 0.053734 0.025083 0.020608 0.007674 0.077917 0.064221 0.075708 0.079156 0.058297 0.090295 0.024884 0.065321 0.059031 0.047393 0.071687 0.089595 0.032244 0.052511 0.093555 0.081923 0.065735 0.060780 0.014931 0.057868 0.003626 0.025950 0.080796 0.003417 0.051770 0.076488 0.093160 0.098776 0.069306 0.079319 0.088739 0.083788 0.049151 0.091676 0.035283 0.082331 0.082851 0.083023 0.034718 0.005245 0.035519 0.031485 0.095658 0.047169 0.097344 0.063829 0.072418 0.089860 0.061378 0.060360 0.021107 0.032334 0.078050 0.076835 0.084875 0.048486 0.043193 0.014714 0.059919 0.020406 0.072953 0.089854 0.031373 0.019134 0.014388 0.036002 0.052632 0.091057 0.049172 0.078150 0.059203 0.033667 
0.042172 0.028144 0.069750 0.091927 0.088271 0.032570 0.083295 0.090900 0.008297 0.018345 0.022319 0.014925 0.049399 0.079032 0.021732 0.044048 0.045652 0.035271 0.027379 0.087866 0.086356 0.016397 0.093145 0.094598 0.046737 0.098607 0.043271 0.086507 0.038504 0.054722 0.086960 0.011481 0.026035 0.022986 0.061856 0.044933 0.071563 0.080869 0.081543 0.045713 0.049223 0.026319 0.065578 0.087362 0.093265 0.025512 0.036217 0.075304 0.026298 0.063454 0.046414 0.074273 0.022914 0.044504 0.039138 0.049643 0.061535 0.063239 0.086703 0.052943 0.023799 0.019623 0.023065 0.050190 0.073367 0.078978 0.006840 0.027352 0.005478 0.061696 0.037987 0.066575 0.070095 0.055203 0.064859 0.037452 0.078965 0.036084 0.090649 0.082050 0.091504 0.002888 0.034869 0.052834 0.083748 0.090570 0.045921 0.072346 0.014333 0.088002 0.030385 0.076730 0.067726 0.007590 0.085081 0.016880 0.013653 0.039419 0.003532 0.064442 
0.036999 0.053870 0.037927 0.021343 0.096075 0.054263 0.098115 0.052109 0.064533 0.060402 0.063814 0.056665 0.090857 0.032564 0.074560 0.099855 0.064693 0.098837 0.008520 0.007360 0.098900 0.012327 0.083754 0.049314 0.025678 0.081201 0.011022 0.029234 0.013590 0.022965 0.017732 0.085555 0.006816 0.065058 0.083126 0.028479 0.093537 0.050112 0.011260 0.024325 0.098713 0.075968 0.047970 0.044139 0.013167 0.012792 0.015273 0.096734 0.049299 0.041380 0.035434 0.048943 0.054224 0.050000 0.026210 0.063252 0.040770 0.033869 0.049387 0.059529 0.082102 0.027609 0.080210 0.023134 0.043350 0.031757 0.091812 0.061031 0.069089 0.047704 0.012179 0.048199 0.022977 0.088120 0.051843 0.043039 0.085470 0.079249 0.068759 0.026959 0.012847 0.017134 0.052632 0.047939 0.055514 0.096151 0.098124 0.016170 0.048822 0.082860 0.068128 0.033636 0.070318 0.029691 0.088700 0.010720 0.067726 0.017324 0.096692 0.045643 
0.069539 0.030340 0.076733 0.022917 0.065518 0.031038 0.099625 0.005532 0.080008 0.048936 0.016738 0.075125 0.020330 0.053873 0.001550 0.006789 0.021198 0.024243 0.010828 0.006813 0.075388 0.077283 0.049677 0.029023 0.067599 0.082887 0.005904 0.085948 0.090803 0.013946 0.046933 0.060557 0.082929 0.058659 0.047737 0.048758 0.049239 0.064762 0.032978 0.035386 0.007239 0.014209 0.002903 0.032905 0.028455 0.009203 0.037090 0.079533 0.008919 0.082099 0.035640 0.038008 0.037733 0.092087 0.090933 0.076745 0.005520 0.021222 0.057508 0.091540 0.015149 0.041667 0.006179 0.038597 0.038510 0.072648 0.030984 0.031095 0.084766 0.080159 0.006037 0.090951 0.016859 0.045767 0.037915 0.091075 0.083658 0.065593 0.032630 0.076793 0.017542 0.099870 0.013829 0.016672 0.041839 0.032065 0.007257 0.062454 0.053876 0.053073 0.039144 0.071315 0.031053 0.049359 0.053535 0.064197 0.004756 0.089640 0.098239 0.076403 
0.075443 0.094945 0.089404 0.084180 0.001764 0.093649 0.098399 0.047498 0.025083 0.037338 0.075014 0.059795 0.086153 0.084059 0.049640 0.050825 0.085416 0.027860 0.025491 0.023397 0.026675 0.068143 0.009430 0.072189 0.022527 0.013753 0.085582 0.076370 0.090365 0.006299 0.089226 0.096241 0.014333 0.055680 0.072140 0.078609 0.093084 0.086238 0.027944 0.099139 0.078600 0.063584 0.068545 0.043356 0.096045 0.019512 0.015291 0.053574 0.057880 0.039951 0.090933 0.049414 0.075156 0.033494 0.091948 0.045169 0.062297 0.038416 0.014357 0.066732 0.048239 0.093658 0.007644 0.005260 0.083220 0.035769 0.055792 0.091383 0.066146 0.029262 0.032126 0.050048 0.064795 0.014324 0.032008 0.094885 0.067747 0.067421 0.045960 0.040120 0.037377 0.056665 0.065357 0.084936 0.093761 0.092525 0.079240 0.043359 0.015808 0.056759 0.064385 0.079488 0.067512 0.007064 0.021161 0.018219 0.058605 0.037461 0.058360 0.093223 
0.033522 0.005795 0.084476 0.004378 0.091975 0.084395 0.098656 0.037383 0.061992 0.070315 0.044800 0.028760 0.092764 0.094172 0.024001 0.027990 0.017158 0.069980 0.026832 0.023950 0.036226 0.030032 0.079642 0.013439 0.080534 0.073228 0.065418 0.055955 0.004701 0.090848 0.014321 0.008460 0.048982 0.077255 0.025494 0.069370 0.061164 0.001465 0.021198 0.043450 0.080742 0.047072 0.078932 0.040888 0.085621 0.097483 0.057580 0.027201 0.018243 0.065947 0.055209 0.046235 0.069433 0.046344 0.018581 0.017983 0.059865 0.003197 0.042009 0.042407 0.075458 0.055861 0.071624 0.012010 0.008526 0.085398 0.057656 0.058354 0.062103 0.016064 0.062826 0.041277 0.067170 0.093915 0.082440 0.001985 0.066249 0.039456 0.074270 0.085782 0.013116 0.059856 0.052825 0.073594 0.052033 0.023633 0.053124 0.097106 0.018300 0.080367 0.016512 0.003607 0.019521 0.018285 0.096677 0.034383 0.046371 0.048329 0.052396 0.084766 
0.076255 0.010553 0.007194 0.011647 0.004671 0.087407 0.054387 0.038631 0.075660 0.019796 0.096716 0.061538 0.057103 0.009481 0.072107 0.072503 0.010342 0.006686 0.073660 0.010384 0.008837 0.071470 0.020469 0.067681 0.071273 0.091740 0.070358 0.058686 0.039948 0.061493 0.045127 0.067128 0.075799 0.093145 0.049426 0.086945 0.015865 0.080452 0.058795 0.082497 0.046589 0.067043 0.064037 0.062874 0.047746 0.048946 0.032446 0.012532 0.060408 0.068140 0.085047 0.065001 0.025705 0.018584 0.051390 0.068841 0.059807 0.021687 0.088023 0.021618 0.005913 0.099686 0.037229 0.026053 0.023636 0.003882 0.004112 0.056136 0.065581 0.005305 0.026660 0.068349 0.001489 0.039585 0.029814 0.052786 0.021811 0.092710 0.017203 0.064348 0.011986 0.011457 0.008611 0.026721 0.004342 0.041138 0.072757 0.042404 0.002934 0.076449 0.062493 0.011469 0.001136 0.017031 0.095042 0.084259 0.071385 0.005671 0.097320 0.057789 
3
1.000000
0.750000
1.000000

