100
6780.519698 4860.338527
7205.000000 6830.253620
12753.363802 27186.974447
16702.317157 24549.263164
20174.000000 16652.000000
22035.905335 23103.350118
23056.000000 20698.312784
24345.337496 2895.585569
24497.000000 1296.068447
24497.000000 8046.088829
25624.620063 24301.097745
29537.880920 11594.527212
31987.497738 19971.538446
35888.057565 22755.177005
39801.135335 18824.000000
40599.689681 24426.315757
48994.000000 19032.646295
52342.599819 15969.400685
56199.000000 17417.683665
57640.000000 11700.717163
12663.803532 34854.226344
14549.233335 35640.361223
17751.313603 33304.000000
21491.624171 34380.074531
23056.000000 33518.663988
24497.000000 35534.270571
25938.000000 30157.651125
27135.604465 28490.311547
28467.761353 28603.576827
29706.763479 30853.573138
30710.298891 30501.555600
31702.000000 33516.954947
34584.000000 28156.704952
34884.002568 31253.080197
36242.287260 33878.628864
37466.000000 33062.093020
40348.000000 34160.441840
41789.000000 31351.225621
42155.844990 31829.491891
52314.811884 33917.764121
5047.964148 37648.000000
15851.000000 39070.992982
17646.577192 39452.299635
19050.576763 41034.641596
22544.858824 39609.624166
26126.488647 37648.000000
27379.000000 39521.045969
30261.000000 39138.535478
31702.000000 37136.066862
33143.000000 37848.261991
33145.435428 39838.700082
35201.144846 38475.857226
36025.000000 39268.105081
37466.000000 36652.320146
38292.022988 38053.893227
39383.120167 38617.566966
42651.120076 38662.845985
46996.787524 38206.914410
48720.385840 39370.943306
50039.275042 37392.941859
11004.934277 46336.000000
17506.835237 47568.121149
22813.891335 43440.000000
23058.050852 45742.073357
24497.000000 43951.257154
24497.000000 46488.373954
25944.871893 47784.000000
27784.807276 46152.885673
29385.400726 44319.852706
30261.000000 47760.033859
30348.762150 47469.256204
31702.000000 44915.234452
31921.408129 45700.312429
33143.000000 44124.963041
33143.928209 46201.595270
34584.000000 44711.565725
36814.723670 43440.000000
40446.591763 41992.000000
43513.488605 43440.000000
49128.895515 42398.652405
3137.552024 54253.619715
5764.000000 53250.937386
7354.766716 53425.505756
12769.600911 53576.000000
18131.046960 51284.877170
19014.279723 53293.353894
21615.000000 51861.376413
23295.301980 51887.535554
26905.649312 52149.049696
29941.391961 50195.481832
30261.000000 50826.472760
31564.067524 48063.142174
31702.000000 49719.263790
31702.000000 52714.323392
33143.000000 49911.123001
33409.283858 47784.000000
34584.000000 51348.053843
36025.000000 48569.086183
37466.000000 49382.280845
38907.000000 49273.759083
0.122760 0.192530 0.439210 0.423780 0.040000 0.397010 0.598580 0.223630 0.227690 0.656730 0.556830 0.040000 0.263830 0.134390 0.077460 0.208110 0.160330 0.040000 0.040000 0.210330 0.111700 0.103860 0.300570 0.250770 0.468690 0.072610 0.178790 0.746570 0.107280 0.109080 0.160880 0.115010 0.111280 0.054820 0.082760 0.159810 0.071820 0.094080 0.040000 0.079290 0.040000 0.139150 0.109400 0.064750 0.149780 0.084510 0.092590 0.102390 0.143250 0.083740 0.181020 0.040000 0.128260 0.065700 0.091580 0.061220 0.164860 0.052480 0.049480 0.079550 0.048310 0.122390 0.196510 0.115840 0.133860 0.232570 0.327860 0.083600 0.067930 1.200030 0.040000 0.105810 0.052610 0.137110 0.101200 0.056470 0.090980 0.100600 0.085300 0.167030 0.065030 0.052480 0.089810 0.086100 0.176160 0.063220 0.111350 0.172860 0.056920 0.080340 0.068480 0.155780 0.071730 0.106210 0.044870 0.047470 0.129620 0.060560 0.095520 0.064820
0.084900 0.126790 0.288870 0.268810 0.040000 0.248890 0.380140 0.147220 0.149890 0.418350 0.354770 0.040000 0.173630 0.091790 0.058090 0.137020 0.107140 0.040000 0.040000 0.132650 0.078350 0.073720 0.187590 0.165050 0.294800 0.055220 0.113980 0.488420 0.075740 0.072720 0.103370 0.080310 0.074020 0.044690 0.061230 0.102750 0.054750 0.063850 0.040000 0.055090 0.040000 0.090520 0.077000 0.050570 0.096810 0.062260 0.067050 0.068770 0.092940 0.061810 0.115300 0.040000 0.088160 0.051130 0.062360 0.044400 0.113900 0.043300 0.041530 0.059320 0.040840 0.084680 0.124480 0.084820 0.087390 0.148010 0.213540 0.057640 0.048990 0.788120 0.040000 0.078950 0.043380 0.101560 0.088470 0.042020 0.062000 0.075870 0.058660 0.111110 0.050730 0.043310 0.065400 0.059120 0.112430 0.049660 0.078150 0.110470 0.045930 0.055720 0.052770 0.108520 0.050610 0.071020 0.040000 0.040040 0.088960 0.044010 0.064700 0.047460
0.066040 0.093160 0.189020 0.176910 0.040000 0.166500 0.244830 0.105240 0.106820 0.267430 0.228600 0.040000 0.120860 0.070560 0.048440 0.099210 0.080640 0.040000 0.040000 0.093950 0.061740 0.058700 0.129020 0.115790 0.194360 0.046560 0.081690 0.314570 0.060030 0.054610 0.074740 0.063030 0.055470 0.040000 0.050500 0.074330 0.046250 0.048780 0.040000 0.043030 0.040000 0.066300 0.060850 0.043500 0.070430 0.051180 0.054320 0.052010 0.067890 0.050880 0.082560 0.040000 0.068180 0.043870 0.049220 0.040000 0.088520 0.040000 0.040000 0.049250 0.040000 0.065900 0.088590 0.071580 0.064230 0.102740 0.151860 0.047120 0.042460 0.490790 0.040000 0.065570 0.040000 0.085950 0.082120 0.040000 0.050270 0.063540 0.048570 0.083250 0.043610 0.040000 0.053240 0.045680 0.080680 0.042910 0.061610 0.079400 0.040460 0.046190 0.044950 0.084990 0.042590 0.053490 0.040000 0.040000 0.071300 0.040000 0.049340 0.041460
0.264230 0.447930 1.097390 1.063130 0.040000 0.992620 1.523310 0.529800 0.540500 1.676420 1.413400 0.040000 0.635650 0.294850 0.144960 0.488940 0.363150 0.042760 0.040000 0.501110 0.235100 0.214480 0.738700 0.601270 1.181350 0.132190 0.418070 1.880300 0.223470 0.234650 0.370900 0.251040 0.241630 0.087210 0.158900 0.369270 0.130110 0.195950 0.040000 0.157410 0.040000 0.313700 0.239530 0.111490 0.341690 0.163530 0.184790 0.217770 0.324510 0.161510 0.423940 0.040000 0.278710 0.114010 0.191230 0.115050 0.348750 0.081820 0.074900 0.152090 0.072210 0.265820 0.464760 0.236080 0.300380 0.561360 0.777900 0.171040 0.131010 3.113270 0.040000 0.194120 0.083530 0.254290 0.142150 0.104090 0.190730 0.180390 0.176210 0.380790 0.112220 0.081840 0.177480 0.174600 0.411160 0.107470 0.234200 0.402470 0.093980 0.162790 0.121310 0.337260 0.139870 0.226990 0.064280 0.083340 0.267090 0.113520 0.198860 0.123330
0.040000 0.040000 0.040000 0.040000 0.040000 0.040000 0.040000 0.040000 0.040000 0.040000 0.040000 0.040000 0.040000 0.040000 0.040000 0.040000 0.040000 0.040000 0.040000 0.040000 0.040000 0.040000 0.040000 0.040000 0.040000 0.040000 0.040000 0.060000 0.040000 0.040000 0.040000 0.040000 0.040000 0.040000 0.040000 0.040000 0.040000 0.040000 0.040000 0.040000 0.040000 0.040000 0.040000 0.040000 0.040000 0.040000 0.040000 0.040000 0.040000 0.040000 0.040000 0.040000 0.040000 0.040000 0.040000 0.040000 0.060000 0.040000 0.040000 0.040000 0.040000 0.040000 0.040000 0.060000 0.040000 0.040000 0.060000 0.040000 0.040000 0.040000 0.040000 0.060000 0.040000 0.080000 0.080000 0.040000 0.040000 0.060000 0.040000 0.040000 0.040000 0.040000 0.040000 0.040000 0.040000 0.040000 0.040000 0.040000 0.040000 0.040000 0.040000 0.060000 0.040000 0.040000 0.040000 0.040000 0.060000 0.040000 0.040000 0.040000
0.171510 0.285480 0.688400 0.659560 0.040000 0.615790 0.945040 0.336270 0.342920 1.040020 0.876860 0.040000 0.401940 0.190510 0.097900 0.310930 0.232880 0.040000 0.040000 0.311200 0.153440 0.140650 0.458280 0.380620 0.732890 0.090960 0.259360 1.174100 0.146220 0.149380 0.230100 0.159530 0.153710 0.065500 0.106170 0.232890 0.089830 0.125990 0.040000 0.104840 0.040000 0.194620 0.152390 0.079720 0.214380 0.109040 0.122240 0.138910 0.202160 0.107780 0.265910 0.040000 0.180500 0.081080 0.122440 0.078990 0.225600 0.062160 0.057870 0.100930 0.056200 0.170910 0.289970 0.154060 0.190150 0.352070 0.490200 0.110990 0.088580 1.935250 0.040000 0.134170 0.062350 0.174640 0.114640 0.072190 0.122120 0.126690 0.113440 0.243830 0.080110 0.062170 0.117700 0.114570 0.255070 0.077530 0.152880 0.249670 0.068510 0.106340 0.085050 0.216150 0.094010 0.143350 0.051280 0.059300 0.173320 0.078040 0.128050 0.084130
1.151570 2.002690 5.011750 4.925690 0.040000 4.598970 7.057810 2.382010 2.431600 7.767130 6.548590 0.040000 2.872420 1.293440 0.598990 2.192730 1.609900 0.087520 0.040000 2.321800 1.016630 0.921070 3.422560 2.713160 5.473420 0.544720 1.937060 8.639100 0.962740 1.086720 1.718510 1.128140 1.113610 0.322750 0.663610 1.705620 0.530180 0.903770 0.066360 0.723390 0.040000 1.453500 1.076970 0.443950 1.583210 0.685030 0.788240 1.005210 1.503570 0.690210 1.964240 0.049770 1.225980 0.476260 0.873230 0.503010 1.544360 0.294240 0.257640 0.666050 0.243400 1.193560 2.153340 1.047210 1.388960 2.593150 3.531550 0.775870 0.584790 14.394660 0.041290 0.822960 0.336200 1.082850 0.463600 0.445020 0.865940 0.759270 0.796730 1.721460 0.447320 0.294310 0.749690 0.806380 1.905050 0.425330 1.012450 1.864720 0.391510 0.736270 0.489410 1.531100 0.631130 1.051770 0.201440 0.335180 1.215380 0.494940 0.921400 0.546830
0.215230 0.364220 0.917900 0.876350 0.040000 0.810540 1.269540 0.416640 0.487780 1.356190 1.177930 0.056720 0.533090 0.249060 0.124770 0.410820 0.347510 0.041050 0.048310 0.400050 0.199270 0.182080 0.615630 0.504440 0.984540 0.115090 0.348420 1.570390 0.189570 0.199510 0.309100 0.211440 0.205050 0.079860 0.135760 0.299190 0.120020 0.167930 0.040000 0.154140 0.040000 0.261440 0.201950 0.099390 0.287370 0.139620 0.157340 0.185270 0.271540 0.137930 0.356400 0.130000 0.226210 0.113560 0.162930 0.102340 0.306380 0.074890 0.068900 0.129020 0.066570 0.223610 0.389190 0.202370 0.254170 0.471430 0.651640 0.147000 0.115720 2.597110 0.040000 0.171430 0.075150 0.223970 0.132310 0.092840 0.161740 0.161000 0.150410 0.321780 0.099950 0.074900 0.151250 0.151990 0.342660 0.096350 0.198510 0.335420 0.084080 0.140520 0.106840 0.286780 0.123300 0.192160 0.059700 0.074860 0.229440 0.101010 0.170820 0.109500
0.122320 0.191760 0.437270 0.421870 0.040000 0.395220 0.595830 0.222710 0.226760 0.653710 0.554290 0.040000 0.262720 0.133900 0.077240 0.207270 0.159720 0.040000 0.040000 0.209430 0.111310 0.103510 0.299240 0.249730 0.466560 0.072410 0.178040 0.743230 0.106910 0.108660 0.160210 0.114600 0.110850 0.054700 0.082510 0.159160 0.071620 0.093730 0.040000 0.079010 0.040000 0.138580 0.109030 0.064590 0.149170 0.084260 0.092290 0.102010 0.142670 0.083490 0.180250 0.040000 0.127790 0.065540 0.091230 0.061030 0.164270 0.052370 0.049380 0.079310 0.048220 0.121950 0.195680 0.115440 0.133320 0.231570 0.326490 0.083300 0.067700 1.198330 0.040000 0.105500 0.052500 0.136700 0.101050 0.056300 0.090640 0.100310 0.084990 0.166390 0.064860 0.052380 0.089530 0.085780 0.175430 0.063070 0.110970 0.172130 0.056790 0.080070 0.068300 0.155230 0.071480 0.105800 0.044800 0.047340 0.129150 0.060370 0.095170 0.064610
0.240410 0.406220 0.992370 0.959500 0.040000 0.895850 1.374820 0.480110 0.489770 1.513000 1.275630 0.040000 0.575640 0.268060 0.132780 0.443240 0.329700 0.040000 0.040000 0.452260 0.214130 0.195510 0.666690 0.544610 1.066190 0.121250 0.377320 1.698950 0.203640 0.211670 0.334730 0.223660 0.216920 0.078970 0.145370 0.332230 0.119370 0.176040 0.040000 0.140900 0.040000 0.283130 0.212550 0.102570 0.308390 0.149540 0.168730 0.195790 0.292880 0.147710 0.382610 0.040000 0.253490 0.104850 0.170090 0.097960 0.316700 0.073410 0.066280 0.137730 0.063510 0.239530 0.419450 0.205750 0.270560 0.505120 0.704030 0.151110 0.113900 2.805080 0.040000 0.176390 0.073730 0.227010 0.134140 0.086670 0.168670 0.163980 0.155180 0.345630 0.103240 0.073430 0.162130 0.157060 0.371070 0.098950 0.213320 0.363230 0.083950 0.143410 0.111430 0.300310 0.122920 0.204870 0.055330 0.066720 0.236720 0.096390 0.179460 0.106510
0.281340 0.477930 1.172910 1.137640 0.040000 1.062170 1.630080 0.565540 0.576990 1.793910 1.512470 0.040000 0.678790 0.314110 0.153720 0.521820 0.387200 0.042740 0.040000 0.536240 0.250180 0.228110 0.790470 0.642010 1.264150 0.140060 0.447380 2.010690 0.237730 0.250980 0.396890 0.266700 0.257190 0.089910 0.168640 0.393920 0.137830 0.208730 0.040000 0.167050 0.040000 0.335700 0.254160 0.117910 0.365650 0.173590 0.196350 0.232160 0.347260 0.171430 0.453660 0.040000 0.296850 0.120600 0.201670 0.116880 0.371790 0.083330 0.074880 0.161230 0.072170 0.282850 0.497320 0.246640 0.320790 0.598910 0.831020 0.179180 0.136890 3.328970 0.040000 0.205450 0.085100 0.265460 0.147910 0.104450 0.200300 0.190720 0.184990 0.406090 0.118690 0.083350 0.188520 0.186230 0.439980 0.113610 0.249210 0.430680 0.097740 0.170420 0.128410 0.358600 0.145810 0.242920 0.064240 0.083260 0.280870 0.115310 0.212790 0.128400
0.040000 0.040000 0.043270 0.040000 0.040000 0.040000 0.040850 0.040000 0.040000 0.042280 0.043450 0.040000 0.040000 0.040000 0.040000 0.040000 0.040000 0.040000 0.040000 0.040000 0.040000 0.040000 0.040000 0.040000 0.040000 0.040000 0.040000 0.070010 0.040000 0.040000 0.040000 0.040000 0.040000 0.040000 0.040000 0.040000 0.040000 0.040000 0.040000 0.040000 0.040000 0.040000 0.040000 0.040000 0.040000 0.040000 0.040000 0.040000 0.040000 0.040000 0.040000 0.040000 0.040000 0.040000 0.040000 0.040000 0.060000 0.040000 0.040000 0.040000 0.040000 0.040000 0.040000 0.060000 0.040000 0.040000 0.060000 0.040000 0.040000 0.067920 0.040000 0.060000 0.040000 0.080000 0.080000 0.040000 0.040000 0.060000 0.040000 0.040000 0.040000 0.040000 0.040000 0.040000 0.040000 0.040000 0.040000 0.040000 0.040000 0.040000 0.040000 0.060000 0.040000 0.040000 0.040000 0.040000 0.060000 0.040000 0.040000 0.040000
0.167980 0.279290 0.672800 0.644160 0.040000 0.601440 0.922990 0.328900 0.335380 1.015750 0.856380 0.040000 2.541520 1.145730 0.531820 1.940690 1.425470 0.079690 0.040000 2.052450 0.322320 0.293320 0.447570 0.372200 0.715780 0.177680 0.253310 1.147170 0.853380 0.960650 1.519160 0.997260 0.984430 0.287640 0.588950 1.507760 0.386530 0.649300 0.053310 0.519700 0.040000 0.440900 0.326680 0.148600 0.480240 0.221730 0.251610 0.831990 1.329140 0.608830 1.736390 0.044370 1.082200 0.421010 0.727310 0.361380 1.114330 0.217020 0.190720 0.478510 0.087760 0.364200 0.653190 0.317650 0.421320 0.786610 1.085200 0.334250 0.420130 5.327600 0.040000 0.596880 0.251530 0.783580 0.341630 0.319710 0.622120 0.551120 0.572400 1.236760 0.149610 0.103200 0.241340 0.244600 0.577870 0.142950 0.321040 0.565640 0.153370 0.295230 0.208220 0.745300 0.253060 0.421750 0.092750 0.240800 0.873180 0.355570 0.661970 0.392850
0.052320 0.069110 0.128460 0.117150 0.040000 0.110710 0.159210 0.076590 0.077570 0.173210 0.149160 0.040000 0.417370 0.199790 0.107200 0.322680 0.241990 0.040000 0.040000 0.329960 0.075600 0.071220 0.087510 0.083120 0.127960 0.053780 0.058210 0.210010 0.155700 0.164890 0.249130 0.170420 0.168480 0.070370 0.115810 0.247420 0.085280 0.117930 0.040000 0.098380 0.040000 0.086490 0.074310 0.049390 0.092430 0.060420 0.064930 0.145490 0.220480 0.117420 0.281900 0.040000 0.189820 0.088080 0.129690 0.074500 0.205050 0.059710 0.055750 0.095500 0.040220 0.081560 0.118520 0.082260 0.083540 0.138640 0.200660 0.070410 0.083360 0.848930 0.040000 0.127010 0.059890 0.165170 0.111250 0.068220 0.113830 0.120100 0.106330 0.211150 0.049550 0.042550 0.063380 0.056890 0.107150 0.048540 0.075400 0.105310 0.049860 0.064530 0.058390 0.145230 0.058160 0.083600 0.040970 0.056320 0.161690 0.073620 0.119840 0.079250
0.040000 0.042770 0.062160 0.053900 0.040000 0.049620 0.065470 0.045210 0.045530 0.070030 0.062590 0.040000 0.154220 0.085450 0.055210 0.124620 0.099240 0.040000 0.040000 0.121100 0.044890 0.043460 0.043910 0.047350 0.055250 0.040000 0.040000 0.098480 0.071050 0.067320 0.094830 0.075160 0.068490 0.043180 0.058020 0.094270 0.048050 0.051980 0.040000 0.045590 0.040000 0.041750 0.044470 0.040000 0.046820 0.040000 0.041410 0.060980 0.085480 0.058550 0.105530 0.040000 0.082200 0.048970 0.056280 0.040010 0.093910 0.040000 0.040000 0.051390 0.040000 0.046840 0.054660 0.060120 0.045520 0.064120 0.092470 0.040000 0.043850 0.287710 0.040000 0.068410 0.040000 0.088150 0.083470 0.040000 0.052520 0.066160 0.050630 0.089160 0.040000 0.040000 0.040900 0.040000 0.048460 0.040000 0.044830 0.047860 0.040000 0.040040 0.040000 0.074360 0.040000 0.040770 0.040000 0.040000 0.074770 0.040000 0.052600 0.042730
0.126760 0.199540 0.456850 0.441200 0.040000 0.413260 0.623530 0.231980 0.236220 0.684180 0.579980 0.040000 1.678770 0.766090 0.364670 1.285900 0.949010 0.069030 0.040000 1.362070 0.227680 0.208720 0.312660 0.260300 0.488040 0.133100 0.185640 0.777030 0.574930 0.648160 1.013350 0.672090 0.663700 0.205000 0.402030 1.005890 0.269670 0.444570 0.051780 0.359830 0.040000 0.308300 0.233610 0.114090 0.334030 0.161910 0.181450 0.564020 0.889100 0.418110 1.155390 0.045390 0.726330 0.295290 0.495570 0.256300 0.755560 0.158830 0.141640 0.332900 0.074310 0.256740 0.447110 0.237700 0.295500 0.534350 0.736510 0.238560 0.294720 3.503610 0.040000 0.417210 0.184470 0.549290 0.257230 0.229060 0.426800 0.387290 0.394280 0.828690 0.114760 0.084410 0.174730 0.179940 0.397860 0.110390 0.226850 0.389860 0.118620 0.213040 0.153080 0.517340 0.185470 0.295770 0.077570 0.177460 0.600960 0.252500 0.452850 0.276890
0.068610 0.097660 0.200340 0.188080 0.040000 0.176930 0.260840 0.110600 0.112290 0.285050 0.243460 0.040000 0.687980 0.323750 0.163560 0.531190 0.396750 0.045570 0.040000 0.555570 0.108880 0.101320 0.136780 0.121900 0.206770 0.071140 0.086090 0.334120 0.247460 0.270670 0.416410 0.280230 0.276870 0.099840 0.178460 0.413430 0.125640 0.189430 0.040000 0.155610 0.040000 0.135040 0.106670 0.063550 0.145310 0.082640 0.090440 0.237100 0.366830 0.181240 0.473100 0.040000 0.306500 0.130480 0.209780 0.114300 0.325560 0.081410 0.074550 0.144860 0.047680 0.119210 0.190450 0.113120 0.129940 0.225260 0.317960 0.107220 0.129620 1.410210 0.040000 0.190530 0.085630 0.249240 0.141360 0.103420 0.182330 0.178580 0.169360 0.343390 0.063820 0.051710 0.087760 0.083820 0.170780 0.062080 0.108550 0.167590 0.064360 0.097030 0.079110 0.224480 0.086030 0.130050 0.048980 0.082830 0.257850 0.112780 0.192730 0.122510
0.043070 0.052910 0.087690 0.076920 0.040000 0.073150 0.101570 0.057300 0.057870 0.109770 0.095680 0.040000 0.252850 0.129490 0.075230 0.199750 0.154210 0.040000 0.040000 0.201390 0.056710 0.054150 0.059550 0.061120 0.083250 0.043930 0.044900 0.139620 0.103650 0.104890 0.154260 0.111020 0.107000 0.053650 0.080280 0.153250 0.062390 0.077380 0.040000 0.065920 0.040000 0.058960 0.055960 0.041360 0.062430 0.047820 0.050470 0.093520 0.137460 0.081220 0.173450 0.040000 0.123650 0.064030 0.084280 0.051930 0.136710 0.047410 0.045090 0.068380 0.040000 0.060210 0.077720 0.068160 0.057850 0.091210 0.134140 0.049530 0.057130 0.492340 0.040000 0.090980 0.047510 0.117470 0.094170 0.048240 0.074970 0.086930 0.070590 0.136140 0.041450 0.040000 0.049560 0.042200 0.071070 0.040860 0.056600 0.069980 0.041630 0.048010 0.046630 0.101660 0.044000 0.057260 0.040000 0.043130 0.107160 0.051420 0.078500 0.054710
0.040000 0.040000 0.040000 0.040000 0.040000 0.040000 0.040000 0.040000 0.040000 0.040000 0.040000 0.040000 0.060820 0.041330 0.040000 0.051090 0.044150 0.040000 0.040000 0.045480 0.040000 0.040000 0.040000 0.040000 0.040000 0.040000 0.040000 0.060000 0.040000 0.040000 0.040000 0.040000 0.040000 0.040000 0.040000 0.042240 0.040000 0.040000 0.040000 0.040000 0.040000 0.040000 0.040000 0.040000 0.040000 0.040000 0.040000 0.040000 0.040000 0.040000 0.043680 0.040000 0.040670 0.040000 0.040000 0.040000 0.060000 0.040000 0.040000 0.040000 0.040000 0.040000 0.040000 0.060000 0.040000 0.040000 0.060000 0.040000 0.040000 0.104700 0.040000 0.060000 0.040000 0.080000 0.080000 0.040000 0.040000 0.060000 0.040000 0.042090 0.040000 0.040000 0.040000 0.040000 0.040000 0.040000 0.040000 0.040000 0.040000 0.040000 0.040000 0.060000 0.040000 0.040000 0.040000 0.040000 0.060000 0.040000 0.040000 0.040000
0.138130 0.227000 0.541170 0.514260 0.040000 0.480150 0.736860 0.266600 0.271780 0.810940 0.683710 0.040000 2.033090 0.918730 0.428620 1.553400 1.142070 0.067650 0.040000 1.638600 0.261350 0.238210 0.357320 0.301180 0.571450 0.145880 0.202240 0.919870 0.685340 0.766940 1.212830 0.796170 0.785940 0.233670 0.474220 1.203740 0.312620 0.518370 0.048840 0.414910 0.040000 0.351990 0.263160 0.122660 0.383410 0.181040 0.204910 0.664220 1.061150 0.489270 1.386260 0.043310 0.867600 0.337750 0.580650 0.288500 0.893660 0.177290 0.156300 0.382020 0.074100 0.294340 0.521480 0.254880 0.336360 0.627980 0.870400 0.266850 0.335410 4.253340 0.040000 0.480560 0.200810 0.629610 0.284260 0.255240 0.496680 0.444030 0.456980 0.989060 0.123480 0.086420 0.196710 0.195260 0.461340 0.118160 0.260340 0.451580 0.125950 0.235690 0.170270 0.595010 0.202030 0.336700 0.078080 0.192230 0.697110 0.283880 0.528490 0.313650
0.071390 0.102530 0.212620 0.200190 0.040000 0.188240 0.278200 0.116410 0.118220 0.304150 0.259570 0.040000 0.286250 0.144400 0.082010 0.225190 0.172830 0.040000 0.040000 0.228570 0.382970 0.349120 0.145210 0.128520 0.220240 0.214100 0.090860 0.355320 0.114690 0.117630 0.174380 0.123160 0.120030 0.057200 0.087820 0.173220 0.135110 0.206190 0.040000 0.169030 0.040000 0.534780 0.401420 0.180150 0.580710 0.265530 0.300420 0.150040 0.155070 0.088900 0.196460 0.040000 0.137680 0.069130 0.129770 0.123630 0.353810 0.086500 0.078960 0.157210 0.109120 0.442710 0.782630 0.400880 0.511920 0.938390 1.283660 0.259480 0.140470 4.505200 0.040000 0.205430 0.086830 0.268960 0.148420 0.111670 0.198400 0.192300 0.184140 0.374660 0.181340 0.127150 0.288430 0.305580 0.694690 0.173550 0.381490 0.680420 0.137520 0.233360 0.166030 0.439030 0.202890 0.324790 0.082580 0.089040 0.280390 0.121960 0.209820 0.132660
0.048830 0.063000 0.113090 0.101990 0.040000 0.096550 0.137480 0.069320 0.070140 0.149290 0.129000 0.040000 0.146600 0.082050 0.053660 0.118810 0.094990 0.040000 0.040000 0.114910 0.190600 0.175200 0.076970 0.074830 0.111110 0.113770 0.052240 0.183470 0.068530 0.064420 0.090240 0.072390 0.065510 0.042370 0.056300 0.089710 0.077820 0.104710 0.040000 0.087810 0.040000 0.254230 0.193540 0.098320 0.275130 0.137170 0.153050 0.079170 0.081450 0.056800 0.100290 0.040000 0.078990 0.047800 0.069940 0.067140 0.182780 0.055700 0.052270 0.086660 0.066000 0.212330 0.367000 0.198750 0.243830 0.437880 0.605880 0.128960 0.074810 2.060840 0.040000 0.115260 0.055860 0.149620 0.105680 0.061710 0.101160 0.109290 0.094680 0.186700 0.098860 0.074200 0.147590 0.149940 0.326990 0.095320 0.189930 0.320490 0.073470 0.117080 0.091890 0.216100 0.103210 0.158680 0.053920 0.051410 0.143930 0.066390 0.106370 0.071260
0.178410 0.297560 0.718830 0.689570 0.040000 0.643840 0.988060 0.350670 0.357610 1.087370 0.916780 0.040000 0.419320 0.198270 0.101050 0.324180 0.242570 0.040000 0.040000 0.325030 0.159520 0.146140 0.479130 0.397030 0.766250 0.092770 0.271170 1.226650 0.151970 0.152120 0.240570 0.165170 0.155880 0.062900 0.110090 0.238760 0.091410 0.126510 0.040000 0.101260 0.040000 0.203480 0.157360 0.079340 0.221620 0.113090 0.126890 0.140720 0.210470 0.111780 0.274970 0.040000 0.187810 0.080980 0.123800 0.074660 0.233230 0.059800 0.055820 0.104610 0.054280 0.177770 0.301450 0.155010 0.194440 0.363320 0.511590 0.111140 0.085790 2.021020 0.040000 0.132400 0.059980 0.171170 0.113290 0.068350 0.124030 0.123490 0.114840 0.254020 0.079820 0.059810 0.122150 0.112870 0.266690 0.076740 0.158930 0.261040 0.065960 0.105930 0.085710 0.220600 0.090950 0.147230 0.049710 0.056420 0.172840 0.073780 0.128980 0.080690
0.168350 0.272410 0.640310 0.622230 0.040000 0.582280 0.882910 0.318790 0.324850 0.969640 0.820650 0.040000 0.378740 0.185690 0.100790 0.295640 0.224380 0.040000 0.040000 0.303860 0.151850 0.140170 0.438450 0.359270 0.689190 0.093550 0.256830 1.093800 0.145260 0.152860 0.230110 0.157930 0.156150 0.067010 0.108690 0.228530 0.092370 0.130490 0.040000 0.108430 0.040000 0.197710 0.151670 0.081830 0.213560 0.111310 0.123350 0.142890 0.203830 0.110160 0.260150 0.040000 0.176550 0.083250 0.126760 0.081490 0.226230 0.063530 0.059050 0.103900 0.057310 0.167790 0.283270 0.158030 0.189820 0.337040 0.469330 0.114860 0.091490 1.779950 0.040000 0.138170 0.063720 0.179940 0.116540 0.074400 0.125860 0.130380 0.117400 0.234380 0.082240 0.063530 0.119210 0.118590 0.252910 0.079550 0.151340 0.247980 0.070140 0.110010 0.087390 0.217190 0.097160 0.148580 0.052180 0.060970 0.178580 0.080500 0.132650 0.086850
0.190890 0.319440 0.773900 0.743920 0.040000 0.694570 1.065940 0.376730 0.384220 1.173070 0.989020 0.040000 0.450800 0.212320 0.107440 0.348140 0.260120 0.040000 0.040000 0.350650 0.170520 0.156090 0.516890 0.426750 0.826650 0.098500 0.292540 1.321750 0.162380 0.164110 0.259520 0.177380 0.168180 0.065740 0.117200 0.257580 0.097040 0.136480 0.040000 0.109230 0.040000 0.219510 0.169070 0.084020 0.239090 0.120440 0.135310 0.151810 0.227070 0.119020 0.296650 0.040000 0.201030 0.085780 0.132990 0.079380 0.250020 0.062380 0.058050 0.111280 0.056370 0.190200 0.325200 0.165960 0.209760 0.391640 0.550340 0.119320 0.091940 2.179620 0.040000 0.141260 0.062570 0.181990 0.117480 0.072530 0.133200 0.131640 0.123270 0.272470 0.084530 0.062380 0.130200 0.121770 0.287700 0.081210 0.169880 0.281620 0.069590 0.113670 0.090890 0.237300 0.097530 0.158840 0.051420 0.059570 0.185870 0.078430 0.139140 0.086420
0.063900 0.096930 0.213690 0.191110 0.040000 0.178440 0.273850 0.111640 0.113570 0.301380 0.254090 0.040000 0.222690 0.110490 0.061510 0.174390 0.132970 0.040000 0.040000 0.165290 0.250400 0.228310 0.132780 0.124490 0.212360 0.141530 0.075150 0.354440 0.086980 0.081080 0.122110 0.093680 0.083730 0.046470 0.065730 0.125700 0.093670 0.132790 0.040000 0.110280 0.040000 0.336020 0.257170 0.120950 0.368400 0.173740 0.196520 0.099800 0.107670 0.066590 0.142460 0.040000 0.105170 0.053700 0.086540 0.082770 0.237080 0.064220 0.059650 0.105480 0.077930 0.284830 0.499460 0.255940 0.325290 0.604340 0.831820 0.165070 0.092980 2.964400 0.040000 0.140210 0.064430 0.182640 0.117510 0.075530 0.128660 0.132260 0.119430 0.256440 0.121680 0.088850 0.188690 0.193000 0.440410 0.116960 0.249430 0.431090 0.091180 0.149250 0.112400 0.284400 0.130790 0.204630 0.061850 0.061830 0.182470 0.081770 0.134990 0.088240
0.335500 0.572830 1.411830 1.373410 0.040000 1.282310 1.967900 0.678590 0.692410 2.165680 1.825920 0.040000 0.815320 0.375070 0.181430 0.625810 0.463300 0.041180 0.040000 0.647360 0.297880 0.271240 0.954290 0.770920 1.526130 0.164940 0.540090 2.423230 0.282860 0.302990 0.479150 0.314540 0.310490 0.104410 0.199450 0.475560 0.162250 0.251980 0.040000 0.201690 0.040000 0.405270 0.300280 0.138200 0.441430 0.205420 0.232890 0.280280 0.419210 0.202810 0.547670 0.040000 0.354210 0.141450 0.243470 0.140240 0.444700 0.096450 0.086250 0.188720 0.082290 0.335260 0.600400 0.291970 0.387260 0.723030 0.999100 0.216320 0.163040 4.013630 0.040000 0.243880 0.096910 0.316340 0.166130 0.124070 0.241430 0.226110 0.222140 0.486100 0.139140 0.096480 0.223450 0.224820 0.531160 0.133010 0.296720 0.519920 0.112010 0.205280 0.150880 0.426890 0.175960 0.293250 0.070580 0.093440 0.338870 0.137980 0.256890 0.152470
0.950090 1.642170 4.088880 4.005170 0.060000 3.739500 5.738820 1.950600 1.990920 6.315600 5.324780 0.060000 2.349350 1.065470 0.503390 1.796690 1.322770 0.094040 0.060000 1.890460 0.840370 0.762680 2.782950 2.219850 4.450530 0.458930 1.576770 7.038350 0.796550 0.889740 1.398160 0.926130 0.911350 0.282310 0.555110 1.392650 0.448320 0.743320 0.079800 0.598950 0.060000 1.183350 0.884320 0.379300 1.291500 0.572250 0.653820 0.824520 1.225530 0.576010 1.601690 0.067110 1.009630 0.404770 0.718890 0.422580 1.272110 0.259480 0.230190 0.553360 0.218790 0.979640 1.754500 0.868120 1.134920 2.114570 2.885290 0.640960 0.488030 11.712880 0.060000 0.692650 0.289570 0.910640 0.421760 0.376160 0.713030 0.641670 0.657660 1.411260 0.382000 0.259550 0.624000 0.665370 1.549020 0.364400 0.836970 1.517520 0.333390 0.609260 0.415700 1.258150 0.525110 0.861770 0.185210 0.288260 1.002720 0.416110 0.757430 0.457650
0.128200 0.209580 0.497310 0.470980 0.040000 0.439740 0.674860 0.245850 0.250600 0.742690 0.626160 0.040000 0.830650 0.381910 0.184540 0.637490 0.471850 0.044940 0.040000 0.659840 0.158350 0.145080 0.327260 0.277510 0.523350 0.092150 0.185210 0.844160 0.287920 0.308830 0.488390 0.324880 0.316470 0.106030 0.202910 0.484730 0.143840 0.219380 0.040000 0.175590 0.040000 0.201760 0.154460 0.078840 0.219770 0.112310 0.126000 0.271500 0.427290 0.206330 0.558220 0.040000 0.360660 0.143790 0.236980 0.122090 0.389750 0.086560 0.077680 0.167800 0.051000 0.176450 0.298920 0.148230 0.192810 0.359970 0.507470 0.132450 0.141950 2.240520 0.040000 0.214900 0.090310 0.277980 0.152400 0.108010 0.210200 0.199440 0.193400 0.425790 0.079320 0.058070 0.121290 0.111920 0.264450 0.076260 0.157770 0.258860 0.073600 0.120190 0.096630 0.285380 0.103030 0.171720 0.049610 0.083290 0.295010 0.120140 0.223650 0.132740
0.078600 0.122680 0.278520 0.255090 0.040000 0.238170 0.365510 0.142320 0.144900 0.402260 0.339140 0.040000 1.018590 0.465810 0.222690 0.780640 0.576600 0.043670 0.040000 0.812830 0.139720 0.128240 0.177240 0.159470 0.283460 0.082440 0.100310 0.466380 0.350030 0.380430 0.601610 0.394930 0.389850 0.125990 0.245320 0.597110 0.165150 0.257130 0.040000 0.205800 0.040000 0.174600 0.136360 0.070920 0.190190 0.099880 0.111720 0.329480 0.526370 0.249530 0.687640 0.040000 0.439630 0.172490 0.288020 0.143100 0.453370 0.098020 0.087610 0.192110 0.046830 0.155380 0.258670 0.130960 0.166850 0.311500 0.441840 0.132350 0.166380 2.109870 0.040000 0.248450 0.100700 0.322380 0.168300 0.126590 0.246370 0.230330 0.226670 0.495620 0.071330 0.052950 0.107650 0.096860 0.228830 0.068680 0.139210 0.224000 0.072140 0.116910 0.094540 0.297200 0.100210 0.167010 0.048800 0.095350 0.345780 0.140820 0.262140 0.155560
0.130430 0.213500 0.507190 0.480740 0.040000 0.448840 0.688830 0.250520 0.255360 0.758060 0.639140 0.040000 1.901840 0.860140 0.401980 1.453430 1.068910 0.065340 0.040000 1.531770 0.245620 0.223980 0.334030 0.282850 0.534200 0.137680 0.189050 0.861210 0.641960 0.716940 1.133760 0.744270 0.734680 0.219740 0.444610 1.125260 0.293540 0.484580 0.049720 0.387870 0.040000 0.329040 0.248740 0.115970 0.358400 0.170550 0.192860 0.620920 0.991950 0.459860 1.295870 0.043930 0.813000 0.318660 0.542790 0.269690 0.836700 0.167030 0.147410 0.360290 0.070560 0.277090 0.487490 0.241290 0.314430 0.587030 0.814960 0.249450 0.313540 3.976040 0.040000 0.450530 0.189490 0.589870 0.270760 0.238600 0.464280 0.416380 0.427180 0.927490 0.116730 0.082100 0.185180 0.182550 0.431270 0.111750 0.244670 0.422140 0.119610 0.220320 0.160470 0.558890 0.188860 0.314750 0.074290 0.179720 0.651660 0.265360 0.494030 0.293200
0.128850 0.210740 0.500230 0.473860 0.040000 0.442420 0.678980 0.247230 0.252010 0.747210 0.630000 0.040000 1.874940 0.848130 0.396510 1.432940 1.053910 0.066950 0.040000 1.509870 0.242390 0.221060 0.329250 0.279090 0.526550 0.135990 0.186470 0.849190 0.633060 0.706700 1.117550 0.734240 0.724190 0.216880 0.438540 1.109160 0.289640 0.477650 0.050620 0.382310 0.040000 0.324330 0.246480 0.114590 0.353280 0.168400 0.190380 0.612040 0.977770 0.454470 1.277350 0.044570 0.802240 0.315520 0.535020 0.265830 0.825030 0.164930 0.145600 0.356850 0.071950 0.273980 0.480510 0.240610 0.309930 0.578660 0.803600 0.245880 0.309060 3.919210 0.040000 0.444380 0.188830 0.581710 0.268600 0.235190 0.457660 0.410710 0.421080 0.915650 0.115350 0.081510 0.182830 0.179930 0.425090 0.110450 0.241460 0.416100 0.118710 0.217180 0.158470 0.552710 0.186160 0.310240 0.075040 0.177140 0.642330 0.261570 0.486960 0.289010
0.073600 0.113910 0.256450 0.233320 0.040000 0.217840 0.334320 0.131880 0.134230 0.367910 0.310190 0.040000 0.933350 0.427760 0.205390 0.715720 0.529090 0.043500 0.040000 0.743440 0.129500 0.119000 0.162110 0.147560 0.259260 0.077110 0.091740 0.428270 0.321870 0.347960 0.550250 0.361230 0.356560 0.116940 0.226080 0.546140 0.152760 0.235180 0.040000 0.188240 0.040000 0.159680 0.126420 0.066570 0.173940 0.093060 0.103890 0.301360 0.481440 0.229940 0.628950 0.040000 0.403810 0.159470 0.263430 0.130890 0.416380 0.091360 0.081830 0.177300 0.045320 0.143830 0.236590 0.121480 0.152600 0.284910 0.405830 0.121060 0.152170 1.929780 0.040000 0.228950 0.093840 0.296560 0.159050 0.115790 0.225340 0.212380 0.207310 0.455020 0.066940 0.050140 0.100170 0.088590 0.209300 0.064520 0.129040 0.204880 0.067690 0.106930 0.088170 0.273470 0.091660 0.152760 0.046450 0.087210 0.316260 0.128790 0.239770 0.142300
0.048720 0.062800 0.112590 0.101500 0.040000 0.096090 0.136770 0.069080 0.069900 0.148510 0.128350 0.040000 0.349040 0.172430 0.094760 0.273020 0.207830 0.040000 0.040000 0.279690 0.068250 0.064580 0.076620 0.074560 0.110560 0.049950 0.052050 0.182610 0.135440 0.141540 0.212210 0.146180 0.144550 0.063860 0.101980 0.210770 0.076370 0.102150 0.040000 0.085750 0.040000 0.075780 0.067170 0.046270 0.080750 0.055520 0.059300 0.125270 0.188170 0.103330 0.239700 0.040000 0.164070 0.078720 0.112020 0.065720 0.178460 0.054920 0.051600 0.084940 0.040000 0.073250 0.102640 0.076000 0.073300 0.119510 0.174770 0.062280 0.073160 0.694080 0.040000 0.112980 0.055070 0.146610 0.104600 0.060450 0.098710 0.107190 0.092410 0.181950 0.046400 0.040520 0.058000 0.050940 0.093110 0.045550 0.068090 0.091560 0.046660 0.057350 0.053810 0.128270 0.052010 0.073360 0.040000 0.050460 0.140470 0.064980 0.103750 0.069700
0.048050 0.061620 0.109620 0.098560 0.040000 0.093350 0.132570 0.067670 0.068460 0.143890 0.124450 0.040000 0.337570 0.167310 0.092430 0.264280 0.201430 0.040000 0.040000 0.270340 0.066870 0.063340 0.074580 0.072960 0.107300 0.049230 0.050890 0.177480 0.131650 0.137170 0.205300 0.141810 0.140070 0.062640 0.099400 0.203900 0.074710 0.099190 0.040000 0.083390 0.040000 0.073780 0.065840 0.045680 0.078570 0.054600 0.058250 0.121480 0.182120 0.100690 0.231800 0.040000 0.159250 0.076970 0.108700 0.064070 0.173470 0.054030 0.050820 0.082960 0.040000 0.071700 0.099660 0.075070 0.071390 0.115940 0.169930 0.060770 0.071240 0.671420 0.040000 0.110360 0.054170 0.143120 0.103360 0.058990 0.095880 0.104780 0.089810 0.176490 0.045810 0.040150 0.056990 0.049830 0.090480 0.044990 0.066720 0.088990 0.046060 0.056000 0.052960 0.125100 0.050860 0.071440 0.040000 0.049370 0.136500 0.063370 0.100740 0.067920
0.103100 0.163640 0.381650 0.357310 0.040000 0.333190 0.511330 0.191120 0.194720 0.562730 0.474440 0.040000 1.416940 0.643660 0.303550 1.084070 0.798630 0.059480 0.040000 1.137070 0.187480 0.171420 0.248040 0.215120 0.396540 0.107890 0.145250 0.645870 0.481700 0.532210 0.841610 0.557650 0.545370 0.168270 0.335200 0.835290 0.223060 0.359710 0.046450 0.287910 0.040000 0.244250 0.189000 0.093520 0.267730 0.131760 0.148310 0.460920 0.736340 0.345530 0.961960 0.041620 0.607210 0.241080 0.402920 0.200710 0.626250 0.129140 0.114570 0.272440 0.063470 0.209390 0.362710 0.189240 0.237040 0.440140 0.610110 0.185380 0.234410 2.955740 0.040000 0.339580 0.146140 0.443030 0.215400 0.178620 0.344750 0.314240 0.317890 0.693020 0.094030 0.071100 0.142620 0.140820 0.320150 0.090730 0.186780 0.313360 0.095040 0.168060 0.124280 0.420020 0.145010 0.233630 0.065940 0.138950 0.483740 0.197810 0.366730 0.219580
0.048600 0.062590 0.112070 0.100980 0.040000 0.095610 0.136030 0.068830 0.069650 0.147690 0.127660 0.040000 0.193500 0.102990 0.063180 0.154540 0.121130 0.040000 0.040000 0.153080 0.089230 0.083550 0.076260 0.074280 0.109990 0.060890 0.051840 0.181700 0.084040 0.082280 0.118500 0.089440 0.083830 0.047350 0.066890 0.117760 0.154090 0.239830 0.041280 0.195950 0.040000 0.106390 0.087570 0.055190 0.114090 0.069520 0.075380 0.141200 0.106180 0.067580 0.132590 0.040000 0.098710 0.054960 0.120180 0.142350 0.410500 0.096700 0.087800 0.182000 0.043270 0.096980 0.147980 0.094890 0.102550 0.174120 0.248710 0.109900 0.162240 2.253880 0.040000 0.235310 0.097100 0.308520 0.162590 0.128240 0.230620 0.219820 0.213790 0.438720 0.055390 0.046300 0.073370 0.067920 0.133220 0.054090 0.088980 0.130830 0.085340 0.144090 0.109110 0.318960 0.126370 0.197260 0.060580 0.101520 0.325620 0.140380 0.244120 0.153000
0.051280 0.070520 0.147220 0.127410 0.040000 0.117200 0.179870 0.080190 0.081460 0.197950 0.166940 0.040000 0.273450 0.133150 0.071440 0.213060 0.161260 0.040000 0.040000 0.206280 0.111820 0.103010 0.088780 0.088630 0.139480 0.067880 0.056420 0.242360 0.103760 0.097970 0.152680 0.112140 0.101380 0.049850 0.077180 0.153860 0.212360 0.340760 0.042900 0.272740 0.040000 0.133900 0.109240 0.059060 0.145860 0.081270 0.090340 0.187870 0.133590 0.078250 0.174560 0.040000 0.126500 0.058690 0.155290 0.189640 0.594320 0.123390 0.109600 0.255030 0.045180 0.123830 0.198390 0.109150 0.129510 0.241420 0.343530 0.139350 0.220490 3.402380 0.040000 0.322760 0.124000 0.420730 0.204410 0.167780 0.326500 0.298720 0.300400 0.654160 0.059370 0.048640 0.087220 0.075800 0.175510 0.057550 0.111430 0.171790 0.105790 0.192350 0.142640 0.449780 0.164870 0.274770 0.067390 0.126370 0.458250 0.186610 0.347400 0.206170
0.043600 0.053840 0.090020 0.079220 0.040000 0.075300 0.104860 0.058400 0.059000 0.113400 0.098740 0.040000 0.149580 0.083380 0.054270 0.121090 0.096650 0.040000 0.040000 0.117340 0.073320 0.069170 0.061150 0.062380 0.085810 0.052590 0.045500 0.143640 0.069520 0.065550 0.092040 0.073470 0.066680 0.042690 0.056980 0.091500 0.120760 0.180770 0.040000 0.148680 0.040000 0.083180 0.072100 0.048420 0.088820 0.058900 0.063190 0.108640 0.083030 0.057480 0.102340 0.040000 0.080250 0.048260 0.093260 0.109480 0.310970 0.078780 0.072270 0.138480 0.040000 0.078990 0.113600 0.080140 0.080370 0.132720 0.192640 0.085750 0.124030 1.625280 0.040000 0.182840 0.079070 0.239080 0.137720 0.099160 0.174040 0.171510 0.161730 0.327380 0.048570 0.041920 0.061720 0.055050 0.102800 0.047620 0.073140 0.101050 0.070470 0.110750 0.087860 0.241330 0.097790 0.149640 0.052360 0.079620 0.246200 0.108040 0.183910 0.117280
0.040450 0.048310 0.086000 0.070280 0.040000 0.064220 0.093310 0.051810 0.052270 0.102690 0.090650 0.040000 0.151500 0.078700 0.048640 0.120170 0.093300 0.040000 0.040000 0.108930 0.067630 0.063060 0.051610 0.055600 0.072360 0.047350 0.041900 0.139610 0.063460 0.054980 0.079230 0.067800 0.056820 0.040000 0.050720 0.084040 0.119800 0.176790 0.040000 0.141500 0.040000 0.069860 0.066300 0.044150 0.079090 0.052200 0.056490 0.098250 0.071650 0.051110 0.094610 0.040000 0.075260 0.044020 0.082170 0.098390 0.317970 0.073640 0.066480 0.138240 0.040000 0.073870 0.105680 0.072620 0.071340 0.129490 0.187860 0.074560 0.114380 1.767420 0.040000 0.177080 0.073960 0.227900 0.134460 0.087050 0.169390 0.164620 0.155860 0.347030 0.044260 0.040000 0.054870 0.046920 0.091060 0.043530 0.067430 0.089290 0.064510 0.100490 0.083620 0.237540 0.085900 0.142560 0.047180 0.067990 0.237760 0.096820 0.180240 0.106970
0.040000 0.040000 0.040000 0.040000 0.040000 0.040000 0.040000 0.040000 0.040000 0.040000 0.040000 0.040000 0.040000 0.040000 0.040000 0.040000 0.040000 0.040000 0.040000 0.040000 0.040000 0.040000 0.040000 0.040000 0.040000 0.040000 0.040000 0.060000 0.040000 0.040000 0.040000 0.040000 0.040000 0.040000 0.040000 0.040000 0.040000 0.040000 0.040000 0.040000 0.040000 0.040000 0.040000 0.040000 0.040000 0.040000 0.040000 0.040000 0.040000 0.040000 0.040000 0.040000 0.040000 0.040000 0.040000 0.040000 0.060000 0.040000 0.040000 0.040000 0.040000 0.040000 0.040000 0.060000 0.040000 0.040000 0.060000 0.040000 0.040000 0.057550 0.040000 0.060000 0.040000 0.080000 0.080000 0.040000 0.040000 0.060000 0.040000 0.040000 0.040000 0.040000 0.040000 0.040000 0.040000 0.040000 0.040000 0.040000 0.040000 0.040000 0.040000 0.060000 0.040000 0.040000 0.040000 0.040000 0.060000 0.040000 0.040000 0.040000
0.046430 0.066320 0.136630 0.115070 0.040000 0.107440 0.164890 0.075180 0.076340 0.181460 0.153000 0.040000 0.183650 0.093050 0.053210 0.144660 0.111210 0.040000 0.040000 0.133200 0.245420 0.223810 0.079950 0.082920 0.127880 0.137570 0.050110 0.221360 0.074080 0.063560 0.098580 0.079490 0.066140 0.040140 0.056920 0.099980 0.087120 0.118900 0.040000 0.095170 0.040000 0.328750 0.243580 0.115890 0.358090 0.170420 0.192700 0.083050 0.086250 0.057610 0.112680 0.040000 0.088770 0.044990 0.070090 0.066170 0.220400 0.056080 0.051260 0.099520 0.070530 0.274910 0.487050 0.236860 0.314170 0.586530 0.814270 0.152930 0.076930 2.867210 0.040000 0.125640 0.056290 0.159820 0.110080 0.058540 0.113920 0.117260 0.104810 0.239950 0.116650 0.082040 0.185040 0.182390 0.430890 0.111670 0.244480 0.421770 0.080760 0.136250 0.106870 0.262080 0.116800 0.194650 0.053570 0.047210 0.159890 0.065110 0.121220 0.071930
0.065120 0.099070 0.219080 0.196440 0.040000 0.183410 0.281480 0.114200 0.116180 0.309780 0.261170 0.040000 0.299360 0.144710 0.076700 0.232790 0.175710 0.040000 0.040000 0.227390 0.404810 0.367910 0.136490 0.127410 0.218300 0.220710 0.077240 0.363760 0.112330 0.106420 0.168290 0.121560 0.109060 0.049650 0.083030 0.167030 0.134580 0.202980 0.040000 0.162460 0.040000 0.561200 0.415830 0.183680 0.611280 0.276770 0.314820 0.141770 0.147240 0.084210 0.192370 0.040000 0.137390 0.062650 0.119660 0.112960 0.362100 0.081590 0.073370 0.155750 0.106250 0.460830 0.831420 0.404320 0.536290 1.001220 1.375830 0.261080 0.131340 4.889780 0.040000 0.200330 0.081950 0.258700 0.145490 0.099930 0.194480 0.186030 0.178930 0.395460 0.184990 0.125910 0.301730 0.311340 0.735540 0.176490 0.403190 0.719970 0.128520 0.232590 0.168300 0.445910 0.199380 0.332270 0.077320 0.075270 0.272960 0.111150 0.206940 0.122810
0.040000 0.040000 0.049140 0.043900 0.040000 0.041040 0.046440 0.040000 0.040000 0.049100 0.049540 0.040000 0.060900 0.041710 0.040000 0.051150 0.044630 0.040000 0.040000 0.046000 0.076340 0.070940 0.040000 0.040090 0.040640 0.049380 0.040000 0.083950 0.040000 0.040000 0.040000 0.040000 0.040000 0.040000 0.040000 0.042660 0.040760 0.041910 0.040000 0.040000 0.040000 0.082160 0.074760 0.045380 0.090240 0.057590 0.063170 0.040000 0.040000 0.040000 0.044140 0.040000 0.041030 0.040000 0.040000 0.040000 0.074150 0.040000 0.040000 0.042750 0.040000 0.083710 0.121730 0.078300 0.081430 0.150330 0.218530 0.050390 0.040000 0.731610 0.040000 0.060000 0.040000 0.080570 0.080000 0.040000 0.043430 0.060000 0.042300 0.074980 0.045500 0.040000 0.061250 0.049240 0.107690 0.044700 0.076100 0.105410 0.040000 0.045090 0.043930 0.086190 0.041730 0.051210 0.040000 0.040000 0.063690 0.040000 0.040480 0.040000
0.156880 0.259840 0.623840 0.595840 0.040000 0.556320 0.853760 0.305730 0.311720 0.939560 0.792160 0.040000 0.867320 0.398280 0.191990 0.665410 0.492280 0.048020 0.040000 0.689690 1.187110 1.075200 0.414010 0.345780 0.662100 0.628750 0.236350 1.062630 0.300040 0.322790 0.510480 0.342350 0.331000 0.110790 0.211180 0.506690 0.367540 0.615660 0.058370 0.492780 0.040000 1.702140 1.261190 0.516470 1.854040 0.798790 0.924970 0.429980 0.446630 0.214750 0.583480 0.040000 0.376060 0.150240 0.362970 0.342650 1.057630 0.206820 0.181880 0.459450 0.281620 1.399810 2.521690 1.226340 1.626560 3.036730 4.132230 0.791860 0.398360 14.831250 0.040000 0.566990 0.214020 0.744020 0.334630 0.303150 0.589890 0.523600 0.542750 1.179240 0.520420 0.341240 0.874510 0.944320 2.230910 0.494660 1.182210 2.183700 0.391070 0.705500 0.469790 1.352500 0.604750 1.007810 0.193850 0.229440 0.827940 0.337150 0.627670 0.372510
0.047300 0.060320 0.112290 0.097170 0.040000 0.090320 0.130970 0.066120 0.066870 0.143600 0.126310 0.040000 0.188770 0.095340 0.054250 0.148550 0.114060 0.040000 0.040000 0.137360 0.177540 0.163390 0.072330 0.071180 0.103690 0.106950 0.049710 0.185860 0.075770 0.066330 0.101660 0.081350 0.068870 0.041360 0.058070 0.103780 0.073930 0.097830 0.040000 0.082280 0.040000 0.235180 0.179420 0.092760 0.254380 0.128450 0.143040 0.078680 0.088940 0.058790 0.116980 0.040000 0.090920 0.046350 0.068920 0.063300 0.179100 0.053610 0.050460 0.082660 0.063070 0.196840 0.341010 0.185020 0.225620 0.410810 0.568130 0.120090 0.070350 2.012750 0.040000 0.109140 0.053750 0.141520 0.102780 0.058310 0.095740 0.103660 0.088850 0.193320 0.093260 0.070610 0.138020 0.139370 0.302010 0.090000 0.176920 0.296050 0.069770 0.109180 0.086860 0.200970 0.096440 0.147400 0.051970 0.048850 0.136060 0.062620 0.099340 0.067080
0.046390 0.058730 0.112100 0.096050 0.040000 0.088310 0.130190 0.064230 0.064940 0.143290 0.124910 0.040000 0.149220 0.077680 0.050600 0.118440 0.092020 0.040000 0.040000 0.109510 0.198010 0.180940 0.069590 0.069680 0.100970 0.112840 0.048680 0.184690 0.063540 0.058660 0.081150 0.066980 0.059620 0.040770 0.052900 0.084060 0.073000 0.096330 0.040000 0.079030 0.040000 0.259600 0.198200 0.095710 0.282770 0.138770 0.156380 0.071510 0.073500 0.053330 0.094820 0.040000 0.074300 0.045500 0.063480 0.061040 0.178250 0.052380 0.049390 0.082790 0.061340 0.221300 0.384600 0.192870 0.248080 0.463160 0.647200 0.125460 0.067720 2.269010 0.040000 0.105800 0.052510 0.137890 0.101060 0.056310 0.094840 0.100320 0.088010 0.193680 0.096320 0.068990 0.150330 0.144010 0.340260 0.092390 0.197260 0.333050 0.067980 0.110450 0.088590 0.213320 0.094830 0.153700 0.050820 0.047340 0.133640 0.060390 0.096260 0.064620
0.057920 0.086450 0.187310 0.165090 0.040000 0.154140 0.236550 0.099170 0.100820 0.260330 0.219490 0.040000 0.536700 0.250670 0.124870 0.413580 0.308000 0.040000 0.040000 0.420570 0.115400 0.106250 0.114700 0.110260 0.183440 0.069750 0.065930 0.308890 0.190770 0.196840 0.311290 0.209930 0.201710 0.074830 0.136580 0.308960 0.179780 0.283060 0.040000 0.226560 0.040000 0.139130 0.112710 0.060570 0.151540 0.083650 0.093080 0.227250 0.272350 0.138760 0.355810 0.040000 0.237130 0.098900 0.193770 0.157540 0.497070 0.105890 0.094430 0.211950 0.041370 0.127880 0.206120 0.108410 0.132940 0.248220 0.356140 0.126080 0.183150 2.652770 0.040000 0.271480 0.106390 0.352880 0.179220 0.139370 0.271200 0.251540 0.249520 0.543800 0.060890 0.046250 0.089840 0.077180 0.182350 0.058790 0.115000 0.178480 0.086480 0.149070 0.115050 0.358680 0.127780 0.212960 0.056730 0.104970 0.380640 0.155000 0.288580 0.171250
0.135800 0.222910 0.530850 0.504080 0.040000 0.470650 0.722290 0.261720 0.266790 0.794880 0.670170 0.040000 1.993240 0.900940 0.420530 1.523050 1.119850 0.066700 0.040000 1.606170 0.256580 0.233890 0.350250 0.295610 0.560140 0.143390 0.198230 0.902070 0.672170 0.751760 1.188820 0.780420 0.770370 0.229440 0.465240 1.179900 0.306830 0.508110 0.047270 0.406700 0.040000 0.345020 0.256970 0.120630 0.375820 0.177850 0.201250 0.651080 1.040120 0.478730 1.358820 0.042200 0.849890 0.329970 0.569150 0.282790 0.876380 0.174180 0.153600 0.374460 0.073020 0.288000 0.511160 0.248690 0.329700 0.615560 0.853570 0.261560 0.328770 4.169150 0.040000 0.471440 0.196830 0.617550 0.278610 0.250180 0.486850 0.435630 0.447930 0.968390 0.121430 0.085110 0.193210 0.191400 0.452200 0.116210 0.255580 0.442650 0.123030 0.231020 0.167290 0.583220 0.198040 0.330040 0.076930 0.188430 0.683320 0.278250 0.518030 0.307430
0.088440 0.137070 0.314750 0.291840 0.040000 0.271540 0.416730 0.159470 0.162390 0.458620 0.386660 0.040000 1.158490 0.528280 0.251090 0.887210 0.654580 0.053570 0.040000 0.926700 0.156490 0.143400 0.202730 0.179020 0.323170 0.092270 0.120040 0.530830 0.396270 0.433740 0.685910 0.455710 0.444470 0.140840 0.276880 0.680760 0.185490 0.293160 0.043150 0.234650 0.040000 0.199050 0.155630 0.080780 0.218970 0.111080 0.124570 0.375640 0.600110 0.283230 0.783990 0.040000 0.498430 0.198050 0.328380 0.164220 0.514100 0.108950 0.097420 0.223540 0.056760 0.174350 0.296290 0.157070 0.194210 0.359830 0.500940 0.152000 0.191830 2.410020 0.040000 0.280470 0.120550 0.364760 0.184590 0.146330 0.281560 0.259790 0.259750 0.566390 0.081190 0.062860 0.119930 0.116590 0.260910 0.078550 0.155920 0.255380 0.082000 0.138120 0.104980 0.343820 0.119940 0.190420 0.058730 0.115090 0.394790 0.161880 0.298880 0.179780
0.072170 0.111420 0.250170 0.227130 0.040000 0.212050 0.325440 0.128910 0.131190 0.358150 0.301960 0.040000 0.909110 0.416930 0.200470 0.697250 0.515570 0.045330 0.040000 0.723700 0.126590 0.116370 0.157800 0.144180 0.252380 0.075590 0.091190 0.417440 0.313850 0.338710 0.535650 0.353910 0.347110 0.114360 0.220610 0.531630 0.149240 0.228950 0.040000 0.183240 0.040000 0.155450 0.123600 0.065340 0.169320 0.091120 0.101660 0.293360 0.468650 0.224360 0.612240 0.040000 0.393620 0.155770 0.256440 0.127400 0.405860 0.089460 0.080190 0.174470 0.047400 0.140540 0.230310 0.121640 0.148550 0.278340 0.395590 0.117840 0.148140 1.879310 0.040000 0.223390 0.093580 0.289240 0.156430 0.112730 0.219350 0.207270 0.201820 0.443470 0.065700 0.051360 0.098040 0.086240 0.203740 0.063350 0.126140 0.199430 0.066420 0.105340 0.086360 0.268220 0.090160 0.148690 0.048680 0.086070 0.307870 0.125380 0.233390 0.138510
0.040000 0.042790 0.062340 0.053940 0.040000 0.049670 0.065540 0.045240 0.045560 0.070110 0.062910 0.040000 0.183570 0.093020 0.055250 0.144590 0.111160 0.040000 0.040000 0.135130 0.044910 0.043480 0.043930 0.047370 0.055310 0.040000 0.040000 0.103840 0.074060 0.067390 0.098680 0.079460 0.069390 0.043200 0.058070 0.103270 0.048080 0.052030 0.040000 0.045630 0.040000 0.041770 0.044490 0.040000 0.046850 0.040000 0.041420 0.061040 0.088650 0.058590 0.116760 0.040000 0.088730 0.048990 0.056320 0.040030 0.095360 0.040000 0.040000 0.051420 0.040000 0.046860 0.054700 0.060140 0.045550 0.064920 0.094160 0.040000 0.043870 0.359350 0.040000 0.068460 0.040000 0.088200 0.083490 0.040000 0.052550 0.066200 0.050660 0.097900 0.040000 0.040000 0.040920 0.040000 0.048500 0.040000 0.044850 0.047910 0.040000 0.040050 0.040000 0.074410 0.040000 0.040800 0.040000 0.040000 0.074830 0.040000 0.052660 0.042750
0.052740 0.069850 0.142690 0.125620 0.040000 0.115640 0.173470 0.078050 0.079270 0.190900 0.164280 0.040000 0.493940 0.231580 0.116190 0.381000 0.284160 0.040000 0.040000 0.385760 0.076810 0.072000 0.088780 0.086190 0.134510 0.054230 0.058930 0.236950 0.176630 0.180550 0.285530 0.194680 0.185190 0.071130 0.126930 0.283390 0.088880 0.123690 0.040000 0.099870 0.040000 0.087750 0.075210 0.049760 0.095500 0.061000 0.065590 0.157940 0.249810 0.128940 0.326350 0.040000 0.219150 0.092370 0.140060 0.075530 0.225680 0.060280 0.056240 0.101620 0.040410 0.084250 0.127530 0.083060 0.085530 0.154620 0.220200 0.071370 0.084560 1.008060 0.040000 0.130000 0.060460 0.169680 0.112030 0.069130 0.121270 0.121620 0.112310 0.245730 0.049920 0.042780 0.064010 0.057590 0.109360 0.048890 0.076570 0.109220 0.050230 0.065370 0.058930 0.151120 0.058880 0.084810 0.041180 0.057000 0.170170 0.074640 0.124410 0.080380
0.048000 0.069070 0.143550 0.121910 0.040000 0.113820 0.174680 0.078460 0.079680 0.192240 0.162070 0.040000 0.497260 0.233070 0.116870 0.383530 0.286010 0.040000 0.040000 0.388470 0.077210 0.071730 0.084710 0.086660 0.135460 0.049830 0.051900 0.233330 0.177730 0.181810 0.287510 0.193510 0.186310 0.070640 0.127680 0.285370 0.089360 0.122880 0.040000 0.098360 0.040000 0.083440 0.075600 0.044330 0.090880 0.058170 0.063830 0.157460 0.251560 0.129690 0.328640 0.040000 0.220550 0.092870 0.137640 0.068390 0.227110 0.057290 0.052300 0.102190 0.040000 0.084700 0.123620 0.078900 0.080860 0.151100 0.221600 0.063240 0.079510 1.010330 0.040000 0.129170 0.057510 0.164510 0.111750 0.060500 0.117750 0.120510 0.108330 0.247320 0.044530 0.040000 0.061890 0.047390 0.109360 0.043260 0.076970 0.107040 0.044910 0.058580 0.055610 0.152040 0.049990 0.079810 0.040000 0.048130 0.165260 0.067280 0.125280 0.074350
0.051640 0.068410 0.141890 0.123840 0.040000 0.113560 0.172340 0.077680 0.078880 0.189660 0.162020 0.040000 0.441400 0.208120 0.105530 0.340970 0.254870 0.040000 0.040000 0.342990 0.083280 0.077220 0.086890 0.085760 0.133640 0.053050 0.057040 0.234690 0.159260 0.163730 0.253860 0.174970 0.168520 0.069130 0.115080 0.255880 0.113570 0.165740 0.040000 0.132660 0.040000 0.092280 0.081500 0.048800 0.101780 0.062230 0.068480 0.160690 0.222110 0.116850 0.292280 0.040000 0.197080 0.086310 0.138610 0.092250 0.299360 0.070290 0.063580 0.130850 0.040000 0.091560 0.137110 0.083940 0.091490 0.168730 0.242980 0.077820 0.107240 1.486090 0.040000 0.167260 0.070590 0.214920 0.129810 0.081610 0.158810 0.155570 0.146120 0.326600 0.048950 0.042160 0.066330 0.055760 0.120960 0.047980 0.083020 0.118400 0.057070 0.083140 0.073000 0.208650 0.071250 0.118750 0.040630 0.061460 0.222900 0.090760 0.168970 0.100280
0.056560 0.076530 0.162050 0.144110 0.040000 0.132640 0.200830 0.087210 0.088620 0.221020 0.188920 0.040000 0.302990 0.146340 0.077440 0.235560 0.177730 0.040000 0.040000 0.230340 0.122520 0.112680 0.101090 0.096630 0.155740 0.074100 0.065460 0.269830 0.113520 0.111400 0.170480 0.122880 0.114840 0.054770 0.083850 0.173480 0.234780 0.380480 0.046100 0.304530 0.040000 0.149500 0.119640 0.065970 0.164620 0.088410 0.098550 0.209770 0.149580 0.085040 0.197450 0.040000 0.138920 0.065640 0.173390 0.211750 0.661260 0.135450 0.120040 0.285850 0.048950 0.135940 0.222450 0.121060 0.146570 0.271180 0.381230 0.155920 0.246180 3.799040 0.040000 0.358040 0.136130 0.467460 0.223860 0.187350 0.364560 0.331220 0.335420 0.731060 0.066260 0.053270 0.095060 0.088420 0.195970 0.064390 0.122090 0.191820 0.115790 0.214770 0.156930 0.504060 0.184090 0.306800 0.073650 0.141650 0.511670 0.208350 0.387900 0.230210
0.098780 0.143020 0.308260 0.279970 0.060000 0.260100 0.393420 0.162720 0.165300 0.432960 0.369410 0.060000 0.584370 0.277490 0.144870 0.452260 0.338990 0.060000 0.060000 0.453540 0.230820 0.211570 0.197820 0.180120 0.305130 0.137630 0.121480 0.516330 0.213210 0.216850 0.334490 0.233540 0.222130 0.094840 0.156590 0.337120 0.450740 0.745330 0.075940 0.596570 0.060000 0.293760 0.230000 0.119620 0.322770 0.164910 0.183860 0.412190 0.294930 0.158760 0.386090 0.060000 0.262950 0.118910 0.341690 0.414820 1.286170 0.256160 0.225970 0.555820 0.081950 0.257110 0.437050 0.230370 0.285090 0.528320 0.737630 0.307460 0.482260 7.444220 0.060000 0.692200 0.257500 0.906510 0.416230 0.366980 0.714130 0.639660 0.657050 1.426890 0.120260 0.091520 0.177060 0.171450 0.383880 0.116130 0.229980 0.376430 0.217650 0.421880 0.298240 0.985110 0.361500 0.601000 0.136630 0.279220 1.002320 0.408170 0.759860 0.450960
0.040000 0.040000 0.051950 0.046320 0.040000 0.042960 0.051030 0.040380 0.040600 0.054160 0.052250 0.040000 0.073740 0.049520 0.040000 0.063320 0.054380 0.040000 0.040000 0.056670 0.045840 0.044320 0.040000 0.041840 0.044070 0.040000 0.040000 0.083100 0.044450 0.041010 0.046340 0.045900 0.042100 0.040000 0.040000 0.051090 0.063200 0.078800 0.040000 0.067060 0.040000 0.043110 0.045400 0.040000 0.047900 0.040570 0.042140 0.052420 0.044610 0.040050 0.053560 0.040000 0.048380 0.040000 0.047540 0.052730 0.139110 0.047840 0.045460 0.069330 0.040000 0.047920 0.056240 0.060770 0.046520 0.066300 0.095820 0.045500 0.058050 0.626070 0.040000 0.092250 0.047950 0.119150 0.094770 0.048950 0.076340 0.088100 0.071840 0.138780 0.040000 0.040000 0.041600 0.040000 0.050280 0.040000 0.045780 0.049640 0.044800 0.053190 0.051160 0.111940 0.048450 0.067420 0.040000 0.043460 0.109070 0.052190 0.079950 0.055580
0.040000 0.044870 0.067450 0.057840 0.040000 0.054500 0.072950 0.047720 0.048090 0.078280 0.069130 0.040000 0.104620 0.063310 0.045140 0.086830 0.071590 0.040000 0.040000 0.080730 0.057030 0.054440 0.046200 0.050200 0.061060 0.044100 0.040000 0.106470 0.054660 0.048790 0.064950 0.057120 0.050640 0.040000 0.046830 0.065980 0.086630 0.120320 0.040000 0.100290 0.040000 0.059420 0.056270 0.041500 0.062940 0.048030 0.050710 0.075300 0.059330 0.047150 0.071380 0.040000 0.061350 0.041390 0.065720 0.075830 0.209080 0.060440 0.056380 0.097090 0.040000 0.060570 0.078400 0.068380 0.058180 0.091930 0.135250 0.061030 0.084900 1.023140 0.040000 0.129130 0.060620 0.167980 0.112250 0.069390 0.116120 0.122060 0.108440 0.215560 0.041590 0.040000 0.049790 0.042340 0.071670 0.040990 0.056920 0.070570 0.055250 0.076620 0.066100 0.162740 0.068540 0.100890 0.043950 0.057200 0.164910 0.074940 0.122270 0.080700
0.062380 0.094260 0.207000 0.184510 0.040000 0.172280 0.264390 0.108480 0.110340 0.290970 0.245310 0.040000 0.392540 0.186320 0.095620 0.303770 0.227640 0.040000 0.040000 0.303230 0.154960 0.142020 0.128200 0.120880 0.205040 0.090390 0.072540 0.342870 0.143120 0.141910 0.224420 0.155440 0.145440 0.059530 0.104050 0.222750 0.302750 0.500870 0.045690 0.400900 0.040000 0.196830 0.151170 0.077410 0.214390 0.110060 0.123400 0.276160 0.196370 0.105630 0.256530 0.040000 0.176550 0.076880 0.228260 0.278770 0.864180 0.171990 0.151700 0.369120 0.050240 0.172610 0.291610 0.145090 0.188090 0.351160 0.495540 0.204830 0.324100 5.001010 0.040000 0.465000 0.172880 0.609020 0.272660 0.246610 0.479910 0.429710 0.441550 0.954060 0.077860 0.057140 0.118810 0.109190 0.257970 0.074880 0.154400 0.252520 0.146100 0.282740 0.200260 0.658380 0.242350 0.403900 0.089660 0.185750 0.673580 0.274290 0.510650 0.303050
0.045400 0.056990 0.097950 0.087040 0.040000 0.082600 0.116060 0.062150 0.062820 0.125720 0.109130 0.040000 0.127230 0.072560 0.049350 0.102630 0.083140 0.040000 0.040000 0.097610 0.167700 0.153540 0.066580 0.066660 0.094500 0.098500 0.047540 0.160090 0.061510 0.056310 0.077440 0.064660 0.057220 0.040120 0.051510 0.077000 0.069110 0.089270 0.040000 0.075440 0.040000 0.215400 0.167820 0.085860 0.237130 0.118550 0.133160 0.068370 0.070250 0.051910 0.085650 0.040000 0.070060 0.044560 0.060830 0.058550 0.156760 0.051020 0.048210 0.076330 0.059440 0.187020 0.320880 0.169120 0.210100 0.389240 0.540440 0.109100 0.064820 1.885710 0.040000 0.101550 0.051140 0.131460 0.099180 0.054110 0.086370 0.096660 0.081070 0.164110 0.086310 0.066150 0.128150 0.126260 0.282340 0.083410 0.167080 0.276360 0.065400 0.099390 0.080610 0.185600 0.088040 0.133400 0.049560 0.045860 0.123160 0.057930 0.090630 0.061910
0.068280 0.104600 0.233020 0.210190 0.040000 0.196250 0.301180 0.120790 0.122910 0.331460 0.279460 0.040000 0.318910 0.153440 0.080670 0.247690 0.186610 0.040000 0.040000 0.243290 0.431740 0.392260 0.146050 0.134930 0.233560 0.234760 0.086540 0.387820 0.118790 0.115340 0.180080 0.128660 0.119170 0.054710 0.087440 0.181090 0.142600 0.217180 0.040000 0.173840 0.040000 0.600480 0.445030 0.195140 0.654060 0.294740 0.335450 0.151680 0.157550 0.088710 0.205930 0.040000 0.145610 0.065640 0.128040 0.120870 0.386050 0.085900 0.077100 0.166780 0.112290 0.497030 0.889620 0.432620 0.573820 1.071310 1.470740 0.279360 0.140520 5.234920 0.040000 0.212960 0.086290 0.275410 0.151480 0.106940 0.208090 0.197650 0.191460 0.421740 0.196540 0.133320 0.321460 0.333140 0.787030 0.187450 0.430010 0.770370 0.141320 0.248880 0.178680 0.478260 0.213340 0.355540 0.081330 0.083730 0.292070 0.118930 0.221420 0.131480
0.148610 0.245350 0.587370 0.559860 0.040000 0.522710 0.802200 0.288470 0.294100 0.882820 0.744320 0.040000 0.816140 0.375430 0.181590 0.626440 0.463760 0.046930 0.040000 0.648030 1.116620 1.011480 0.389000 0.326110 0.622110 0.591980 0.222670 0.999660 0.283120 0.303310 0.479640 0.322280 0.311610 0.105900 0.199630 0.476690 0.346560 0.578480 0.056660 0.463020 0.040000 1.599340 1.185010 0.486480 1.742060 0.751760 0.869710 0.404030 0.419660 0.202990 0.548230 0.040000 0.354560 0.141760 0.341050 0.321970 0.994960 0.195530 0.172100 0.432310 0.265810 1.315880 2.369390 1.152270 1.528310 2.853310 3.883880 0.744040 0.374300 13.936120 0.040000 0.533950 0.201700 0.700290 0.316840 0.284830 0.554250 0.493190 0.509960 1.108620 0.490200 0.321840 0.822900 0.887280 2.096180 0.466000 1.112010 2.051820 0.368060 0.662890 0.442630 1.270820 0.568220 0.946950 0.183350 0.216180 0.777940 0.316800 0.589750 0.350010
0.075500 0.104480 0.217530 0.187520 0.060000 0.172760 0.265130 0.118730 0.120580 0.291780 0.246800 0.060000 0.293150 0.147470 0.084610 0.230440 0.176670 0.060000 0.060000 0.215340 0.392460 0.357710 0.130750 0.131170 0.205610 0.219050 0.083730 0.357040 0.116960 0.104810 0.158510 0.125660 0.109130 0.065240 0.089590 0.163510 0.137930 0.191190 0.060000 0.153020 0.060000 0.528620 0.395190 0.184180 0.575800 0.271860 0.307690 0.133530 0.140340 0.090520 0.184700 0.060000 0.140570 0.073560 0.114160 0.108870 0.352250 0.088460 0.081990 0.157860 0.111240 0.443100 0.783170 0.383460 0.505140 0.943120 1.307140 0.247610 0.126970 4.613130 0.060000 0.199860 0.088750 0.255540 0.170530 0.098640 0.185190 0.186390 0.171100 0.383660 0.185410 0.129760 0.295380 0.293250 0.692850 0.177410 0.390940 0.678190 0.130240 0.219080 0.169680 0.424200 0.187800 0.312980 0.085100 0.081370 0.259020 0.107450 0.194910 0.119150
0.121950 0.198620 0.469740 0.443780 0.040000 0.414350 0.635890 0.232810 0.237270 0.699790 0.590000 0.040000 0.651090 0.301740 0.148090 0.500700 0.371750 0.040000 0.040000 0.513670 0.889260 0.805920 0.308350 0.262640 0.493130 0.473400 0.174500 0.796550 0.228580 0.240420 0.380200 0.251140 0.246360 0.086980 0.162390 0.377350 0.278850 0.458560 0.043670 0.367020 0.040000 1.267760 0.939340 0.389770 1.380890 0.600040 0.686000 0.320250 0.332650 0.165050 0.434570 0.040000 0.285190 0.116370 0.270330 0.255200 0.792830 0.159130 0.140570 0.337930 0.214850 1.041030 1.878170 0.913370 1.211470 2.261770 3.082800 0.589790 0.296690 11.045860 0.040000 0.427400 0.159960 0.559250 0.254690 0.225780 0.439350 0.395080 0.404230 0.873420 0.392710 0.259260 0.656440 0.703340 1.661590 0.373530 0.885620 1.626430 0.289410 0.525460 0.355010 1.007340 0.450410 0.750620 0.149480 0.170060 0.616640 0.251100 0.467490 0.277440
0.201270 0.337630 0.819700 0.789100 0.040000 0.736770 1.130680 0.398400 0.406350 1.244330 1.049110 0.040000 1.142150 0.520980 0.247770 0.874760 0.645470 0.054270 0.040000 0.913390 1.565670 1.417470 0.548300 0.451450 0.876860 0.826200 0.311370 1.400820 0.390870 0.427510 0.676050 0.450720 0.438090 0.139100 0.273190 0.670980 0.480270 0.815370 0.068220 0.652620 0.040000 2.254240 1.670270 0.677510 2.455400 1.051390 1.222220 0.569460 0.591500 0.279820 0.772730 0.040000 0.491560 0.195980 0.480710 0.453800 1.396600 0.267420 0.234390 0.606110 0.366480 1.852210 3.339630 1.624120 2.154150 4.021700 5.466060 1.048730 0.527580 19.640910 0.042540 0.744410 0.280570 0.978870 0.431010 0.401480 0.781240 0.686960 0.718800 1.559200 0.682740 0.445440 1.151680 1.250610 2.954530 0.648630 1.559180 2.892000 0.516200 0.934340 0.615690 1.791200 0.800910 1.334710 0.250240 0.302420 1.096500 0.446520 0.831270 0.493340
0.247580 0.411260 0.989890 0.947190 0.060000 0.884360 1.357180 0.484200 0.493730 1.493590 1.259260 0.060000 1.376940 0.631330 0.303400 1.055970 0.780750 0.072070 0.060000 1.096360 1.885290 1.707410 0.658130 0.547880 1.052500 0.997700 0.372480 1.687410 0.475160 0.513150 0.811480 0.539460 0.525850 0.172950 0.333910 0.805390 0.582470 0.978700 0.084750 0.783340 0.060000 2.705820 2.004860 0.819220 2.947270 1.268000 1.466910 0.683520 0.709980 0.340400 0.927520 0.060000 0.596020 0.238980 0.577000 0.544700 1.680730 0.326970 0.287330 0.722850 0.445870 2.221910 4.008620 1.949460 2.585650 4.827320 6.567010 1.258810 0.633250 23.575380 0.061400 0.899530 0.338460 1.180960 0.525480 0.481900 0.937720 0.830550 0.862770 1.867570 0.825500 0.540660 1.388380 1.501130 3.546380 0.784550 1.877500 3.471320 0.617730 1.121490 0.745020 2.150000 0.961350 1.602080 0.306370 0.362940 1.316130 0.535960 0.997780 0.592170
0.086830 0.137110 0.314860 0.290940 0.040000 0.271640 0.416900 0.159520 0.162440 0.458800 0.386820 0.040000 0.462510 0.217550 0.109820 0.357070 0.266640 0.040000 0.040000 0.360190 0.530780 0.481810 0.202160 0.179080 0.323300 0.286420 0.118080 0.529120 0.166250 0.168570 0.266580 0.181900 0.172750 0.066960 0.119840 0.264590 0.235430 0.381640 0.042870 0.305460 0.040000 0.744920 0.558130 0.237280 0.811400 0.360830 0.411340 0.247300 0.233250 0.121700 0.304700 0.040000 0.205950 0.087570 0.207490 0.212390 0.663200 0.135800 0.120340 0.282330 0.136600 0.619370 1.103600 0.543640 0.711840 1.329020 1.819710 0.376140 0.246940 7.348570 0.040000 0.359060 0.136490 0.468790 0.221610 0.187910 0.365650 0.332180 0.336440 0.729720 0.239010 0.160890 0.393980 0.413260 0.976360 0.227730 0.528640 0.955690 0.201260 0.361270 0.250330 0.722980 0.309680 0.516080 0.109030 0.141530 0.513220 0.208980 0.389070 0.230900
0.076170 0.118420 0.267820 0.244520 0.040000 0.228310 0.350390 0.137260 0.139720 0.385600 0.325110 0.040000 0.513700 0.240400 0.120210 0.396060 0.295180 0.040000 0.040000 0.401860 0.198860 0.181710 0.169910 0.153700 0.271720 0.113290 0.096160 0.447900 0.183170 0.188080 0.297430 0.199480 0.192730 0.072400 0.131390 0.295200 0.394710 0.663790 0.054050 0.531300 0.040000 0.260850 0.194810 0.096080 0.284130 0.139340 0.157030 0.365990 0.260230 0.133480 0.339970 0.040000 0.227470 0.095390 0.302500 0.369440 1.138740 0.221420 0.194540 0.489190 0.060090 0.222250 0.386450 0.188280 0.249270 0.465390 0.650220 0.271480 0.429510 6.627500 0.040000 0.609750 0.222610 0.800610 0.348340 0.326840 0.635990 0.562960 0.585160 1.264350 0.096680 0.069230 0.150950 0.144700 0.341890 0.092730 0.198110 0.334660 0.187110 0.374700 0.258890 0.872530 0.321190 0.535260 0.112330 0.246170 0.892660 0.363510 0.676730 0.401620
1.614110 2.813150 7.052170 6.939120 0.040000 6.478850 9.942740 3.347510 3.417370 10.942010 9.225370 0.040000 10.539820 4.716540 2.155360 8.033140 5.883620 0.275390 0.040000 8.562920 5.227770 4.728450 4.821580 3.814000 7.710730 2.754270 2.728860 12.162250 3.496890 4.007910 6.337950 4.165700 4.107100 1.136610 2.393680 6.290420 4.448160 7.844400 0.422500 6.278730 0.040000 7.595170 5.631500 2.235330 8.272940 3.495050 4.102160 5.414520 5.545260 2.548320 7.244240 0.126760 4.515460 1.764310 4.566430 4.365960 13.357720 2.400290 2.082630 5.781070 1.187390 6.243140 11.252070 5.475200 7.257880 13.550180 18.369190 4.877280 5.075790 52.008660 0.158550 6.989440 2.623720 9.245110 3.831840 3.862610 7.516000 6.436630 6.915340 14.941450 2.252970 1.453430 3.832940 4.213690 9.954600 2.138030 5.205910 9.743930 3.710730 7.565740 4.843560 15.072710 6.485330 10.807670 1.884420 2.909290 10.549140 4.295910 7.997350 4.746360
0.194670 0.318540 0.771300 0.745300 0.040000 0.693950 1.062250 0.375500 0.382960 1.169010 0.988200 0.040000 1.284020 0.584310 0.276570 0.982820 0.724540 0.058750 0.040000 1.028880 0.872900 0.791130 0.518830 0.425330 0.823800 0.465510 0.301890 1.321810 0.437760 0.485180 0.761540 0.508340 0.497860 0.158910 0.305210 0.760100 0.766220 1.321900 0.094410 1.058060 0.040000 1.243900 0.929720 0.385190 1.356670 0.589130 0.680020 0.794140 0.666720 0.314620 0.873010 0.041330 0.551170 0.222780 0.661850 0.735730 2.258770 0.421120 0.367580 0.979660 0.217170 1.030250 1.843780 0.909550 1.192380 2.223630 3.025170 0.808900 0.855340 20.820350 0.051130 1.194460 0.439180 1.574560 0.676960 0.650900 1.266550 1.101300 1.165340 2.524210 0.388010 0.259820 0.644470 0.695590 1.630320 0.369590 0.869330 1.595820 1.693140 3.655250 2.350400 6.156130 3.133270 5.221530 0.921500 0.490800 1.777680 0.723920 1.347680 0.799820
0.087110 0.122560 0.247870 0.225120 0.060000 0.211510 0.313900 0.138360 0.140420 0.343430 0.292690 0.060000 0.455530 0.224880 0.124060 0.355450 0.270820 0.060000 0.060000 0.357070 0.190030 0.175640 0.162510 0.152150 0.247910 0.118250 0.100640 0.408920 0.176870 0.177760 0.269480 0.190550 0.181660 0.083940 0.133440 0.267610 0.354300 0.576780 0.068560 0.465650 0.060000 0.238800 0.185810 0.103820 0.258310 0.140110 0.154940 0.326990 0.238270 0.135190 0.305170 0.060000 0.214020 0.103230 0.273730 0.329890 0.995740 0.208940 0.186400 0.430580 0.073630 0.209650 0.344140 0.189250 0.229080 0.410360 0.578840 0.247700 0.380250 5.720180 0.060000 0.544680 0.209940 0.714760 0.338640 0.294160 0.554280 0.505430 0.510850 1.098930 0.104330 0.081280 0.149840 0.141370 0.306770 0.101010 0.189390 0.300700 0.180170 0.334290 0.240380 0.763630 0.289410 0.468990 0.117450 0.226490 0.779770 0.324900 0.587640 0.356880
0.087810 0.138820 0.319160 0.295190 0.040000 0.275620 0.422990 0.161550 0.164530 0.465500 0.392470 0.040000 0.717540 0.331410 0.161580 0.551320 0.408800 0.041550 0.040000 0.567760 0.221880 0.202520 0.205110 0.181400 0.328020 0.125300 0.119030 0.536550 0.250540 0.265730 0.420240 0.279170 0.272310 0.094030 0.177390 0.417090 0.420750 0.709910 0.063650 0.568210 0.040000 0.294420 0.225420 0.105870 0.320690 0.154710 0.174670 0.430830 0.367670 0.180330 0.480330 0.040000 0.313120 0.126520 0.359390 0.395110 1.217380 0.235410 0.206660 0.529500 0.069620 0.250090 0.436190 0.222800 0.282520 0.527460 0.731330 0.296060 0.459360 6.993980 0.041040 0.650740 0.237010 0.854870 0.380910 0.349550 0.680200 0.600690 0.625830 1.359240 0.106550 0.078640 0.167800 0.164480 0.385890 0.102100 0.221030 0.377720 0.197280 0.397220 0.271710 0.930200 0.340560 0.563990 0.121240 0.265630 0.954680 0.388770 0.723760 0.429530
0.097790 0.133750 0.260880 0.228080 0.080000 0.214270 0.318140 0.149770 0.151870 0.348110 0.296620 0.080000 0.470120 0.237550 0.135260 0.370000 0.284170 0.080000 0.080000 0.361940 0.202190 0.187600 0.164560 0.163760 0.251210 0.129380 0.105810 0.424100 0.188840 0.180040 0.273090 0.202730 0.183990 0.094570 0.144780 0.271200 0.368860 0.584840 0.082040 0.472090 0.080000 0.241960 0.197920 0.114730 0.261770 0.151550 0.166600 0.331420 0.241430 0.146560 0.309290 0.080000 0.226540 0.114150 0.277390 0.334360 1.011990 0.221390 0.198510 0.436730 0.085650 0.222110 0.348840 0.201750 0.232090 0.416010 0.596260 0.250990 0.385480 5.729530 0.080000 0.561830 0.222410 0.734260 0.368080 0.298110 0.561190 0.522020 0.517940 1.103190 0.115250 0.091880 0.161430 0.143130 0.310920 0.111900 0.201560 0.304760 0.192200 0.338840 0.253280 0.772470 0.293290 0.475460 0.128560 0.229460 0.789610 0.329310 0.595850 0.361760
0.508040 0.852560 2.081090 2.019080 0.080000 1.883710 2.885900 1.006100 1.026180 3.175930 2.681560 0.080000 4.106270 1.855360 0.867080 3.137340 2.306480 0.152600 0.080000 3.311490 1.513160 1.371900 1.405380 1.141200 2.238040 0.810650 0.804080 3.569800 1.383930 1.553890 2.449810 1.621430 1.592860 0.477260 0.958280 2.436720 3.126180 5.467090 0.327690 4.375920 0.080000 2.148580 1.603560 0.670360 2.343440 1.023130 1.183730 3.014860 2.145530 1.005740 2.804000 0.102570 1.767270 0.704470 2.492850 3.042820 9.322130 1.698930 1.477540 4.035310 0.376900 1.780290 3.185500 1.564750 2.057880 3.838450 5.230570 2.238000 3.537520 54.586490 0.148970 4.897290 1.772580 6.469380 2.713750 2.692000 5.238230 4.512020 4.819600 10.420340 0.675300 0.451400 1.118580 1.199970 2.815920 0.643110 1.506970 2.756330 1.486510 3.086540 2.007580 7.191330 2.645490 4.408570 0.802870 2.029790 7.352150 2.994000 5.573710 3.307940
0.046710 0.059280 0.116220 0.099460 0.040000 0.091190 0.136030 0.065520 0.066480 0.149700 0.129500 0.040000 0.211680 0.105570 0.059810 0.166000 0.126840 0.040000 0.040000 0.156870 0.089440 0.082780 0.070540 0.071900 0.105480 0.057750 0.049030 0.191210 0.083350 0.077230 0.115460 0.089680 0.079730 0.045580 0.063240 0.119420 0.165480 0.257710 0.040130 0.206270 0.040000 0.101260 0.087490 0.052630 0.112850 0.066330 0.073200 0.142080 0.102380 0.064050 0.135270 0.040000 0.100540 0.052420 0.117950 0.143420 0.454340 0.098190 0.087760 0.195810 0.041920 0.098520 0.151840 0.090340 0.101070 0.185630 0.264670 0.106630 0.166750 2.574260 0.040000 0.248960 0.098660 0.323050 0.168550 0.126880 0.246920 0.230800 0.227190 0.497570 0.052810 0.044640 0.070840 0.063040 0.132720 0.051630 0.089150 0.129920 0.084880 0.145460 0.112750 0.343270 0.124700 0.207810 0.057460 0.097010 0.346570 0.141120 0.262730 0.155920
0.059280 0.088840 0.193320 0.171020 0.040000 0.159670 0.245050 0.102010 0.103730 0.269680 0.227360 0.040000 0.365300 0.174150 0.090080 0.283020 0.212460 0.040000 0.040000 0.281050 0.145090 0.133090 0.118830 0.113510 0.190030 0.085240 0.071230 0.319260 0.134120 0.131550 0.208020 0.145520 0.134790 0.056830 0.097910 0.206460 0.282070 0.464250 0.047440 0.371580 0.040000 0.182430 0.141580 0.073210 0.198720 0.103470 0.115840 0.255950 0.182000 0.099370 0.237770 0.040000 0.165100 0.072720 0.211560 0.258380 0.802430 0.160860 0.142070 0.343650 0.050530 0.161460 0.270280 0.139000 0.174330 0.325470 0.460770 0.189860 0.300400 4.635290 0.040000 0.432470 0.161710 0.565950 0.260270 0.228580 0.444810 0.399740 0.409260 0.887440 0.073630 0.055200 0.111580 0.101190 0.239110 0.070860 0.144570 0.234040 0.136880 0.262050 0.187070 0.610240 0.224630 0.374360 0.084580 0.172170 0.624310 0.254230 0.473290 0.280890
0.074190 0.094130 0.176310 0.157300 0.060000 0.145800 0.212730 0.104490 0.105840 0.232090 0.199990 0.060000 0.311560 0.161230 0.095110 0.246850 0.191360 0.060000 0.060000 0.241030 0.138380 0.128940 0.115970 0.113530 0.169450 0.091310 0.081410 0.288890 0.129750 0.125850 0.183590 0.138730 0.129320 0.072570 0.101270 0.185550 0.246100 0.385110 0.064670 0.312230 0.060000 0.163480 0.135610 0.082770 0.176490 0.105640 0.115370 0.221290 0.163120 0.102420 0.208160 0.060000 0.154110 0.082470 0.186380 0.223200 0.665350 0.150780 0.135990 0.293670 0.067270 0.151240 0.232550 0.145910 0.159610 0.279340 0.396640 0.169310 0.256250 3.665460 0.060000 0.374380 0.151450 0.489370 0.256170 0.199780 0.369840 0.348650 0.341870 0.721090 0.083030 0.071200 0.112020 0.102330 0.208050 0.081330 0.137960 0.204070 0.131920 0.226080 0.171390 0.512710 0.196660 0.314410 0.090780 0.155400 0.520990 0.219940 0.392230 0.240910
0.074000 0.107100 0.228660 0.212350 0.040000 0.198830 0.296350 0.121850 0.123770 0.325500 0.279390 0.040000 0.435690 0.205580 0.108490 0.336640 0.251700 0.040000 0.040000 0.342430 0.170600 0.156660 0.153080 0.134720 0.232840 0.103070 0.095320 0.387090 0.157810 0.167330 0.253140 0.173480 0.170970 0.071040 0.117250 0.255210 0.335500 0.558890 0.056670 0.447340 0.040000 0.224320 0.171590 0.089590 0.244410 0.123480 0.137330 0.311420 0.223840 0.118880 0.291910 0.040000 0.194680 0.089050 0.258560 0.311580 0.961950 0.189580 0.166950 0.419230 0.061400 0.190290 0.330090 0.177200 0.216190 0.398580 0.550620 0.232910 0.363300 5.584480 0.040000 0.516550 0.190590 0.677260 0.308600 0.276700 0.535600 0.477170 0.493480 1.072410 0.090070 0.068560 0.132570 0.133350 0.288500 0.086980 0.169960 0.284590 0.160900 0.318680 0.221140 0.741100 0.273390 0.450690 0.102320 0.212820 0.751600 0.306880 0.569790 0.340100
0.083590 0.131430 0.300570 0.276840 0.040000 0.258480 0.396690 0.152760 0.155540 0.436560 0.368070 0.040000 0.578950 0.269530 0.133450 0.445760 0.331550 0.040630 0.040000 0.454970 0.222500 0.203080 0.192360 0.171370 0.307630 0.125620 0.111700 0.504440 0.204730 0.212950 0.336740 0.227550 0.218210 0.079320 0.146110 0.334220 0.444230 0.751510 0.060980 0.601510 0.040000 0.295320 0.224490 0.106130 0.321690 0.155120 0.175140 0.414360 0.294630 0.148470 0.384890 0.040000 0.254880 0.105350 0.342470 0.418260 1.286620 0.248040 0.217600 0.553830 0.066470 0.249850 0.437530 0.218010 0.282210 0.526880 0.733490 0.307350 0.486270 7.503350 0.040160 0.687680 0.249380 0.903760 0.395100 0.370050 0.720040 0.634730 0.662500 1.433300 0.106820 0.075730 0.168250 0.163830 0.387070 0.102350 0.221650 0.378870 0.209500 0.424230 0.290460 0.987830 0.363630 0.606000 0.124540 0.278710 1.010620 0.411550 0.766170 0.454690
0.040000 0.046310 0.071070 0.060520 0.040000 0.057830 0.078060 0.049430 0.049840 0.083900 0.073870 0.040000 0.087630 0.055720 0.041690 0.073890 0.062120 0.040000 0.040000 0.066900 0.109380 0.101770 0.048150 0.052150 0.065020 0.071400 0.040600 0.111920 0.049040 0.044510 0.054710 0.050950 0.045940 0.040000 0.043000 0.057790 0.053630 0.061870 0.040000 0.053510 0.040000 0.135760 0.107150 0.063760 0.146090 0.082960 0.090810 0.049230 0.050360 0.043240 0.061040 0.040000 0.054210 0.040000 0.044680 0.043290 0.110560 0.042700 0.041010 0.058000 0.047790 0.119760 0.191500 0.113570 0.130620 0.226540 0.319680 0.073860 0.048130 1.032480 0.040000 0.077200 0.042780 0.099230 0.087630 0.041480 0.060110 0.074240 0.057010 0.107450 0.064030 0.051840 0.088120 0.084220 0.171730 0.062280 0.109040 0.168520 0.051400 0.067980 0.060590 0.124250 0.061120 0.088530 0.041820 0.040000 0.086300 0.043060 0.062680 0.046670
0.040000 0.045080 0.067970 0.058220 0.040000 0.054970 0.073680 0.047960 0.048340 0.079070 0.069810 0.040000 0.083280 0.053780 0.040810 0.070580 0.059700 0.040000 0.040000 0.063370 0.103390 0.096350 0.046430 0.050480 0.061630 0.068280 0.040000 0.107250 0.047610 0.043420 0.052090 0.049370 0.044740 0.040000 0.042020 0.055690 0.051850 0.058710 0.040000 0.050980 0.040000 0.127030 0.101330 0.061220 0.136580 0.078970 0.086230 0.047030 0.048080 0.042240 0.058700 0.040000 0.052390 0.040000 0.042820 0.042120 0.105250 0.041740 0.040180 0.055890 0.046450 0.112990 0.178560 0.108020 0.122280 0.210960 0.298590 0.069790 0.046760 0.965930 0.040000 0.074390 0.041810 0.095510 0.086300 0.040610 0.057260 0.071660 0.054970 0.101610 0.061460 0.050200 0.083730 0.079370 0.160280 0.059850 0.103080 0.157310 0.049780 0.064360 0.058280 0.117890 0.058020 0.083360 0.040930 0.040000 0.082090 0.042070 0.059460 0.045410
0.056270 0.076030 0.145890 0.134350 0.040000 0.126760 0.183850 0.084830 0.085990 0.200320 0.172030 0.040000 0.192620 0.102600 0.063010 0.153870 0.120640 0.040000 0.040000 0.152360 0.257230 0.234480 0.099450 0.092520 0.147070 0.146830 0.064970 0.240420 0.083740 0.081950 0.117970 0.089120 0.083480 0.047260 0.066690 0.117240 0.096700 0.138160 0.040000 0.114570 0.040000 0.347120 0.264910 0.125280 0.380780 0.179470 0.201740 0.102520 0.105710 0.067380 0.131980 0.040000 0.098330 0.054830 0.089660 0.085760 0.239140 0.065850 0.061070 0.109020 0.080210 0.293220 0.515890 0.265360 0.335960 0.623140 0.855860 0.171980 0.096450 3.023490 0.040000 0.144980 0.066060 0.188960 0.119770 0.078170 0.133210 0.136650 0.124160 0.251470 0.126040 0.091650 0.194000 0.201240 0.453440 0.121100 0.256230 0.444800 0.094580 0.155400 0.116320 0.290420 0.136060 0.213420 0.063360 0.063820 0.188900 0.084700 0.140460 0.091480
0.040340 0.050010 0.095570 0.077280 0.040000 0.069710 0.106850 0.055760 0.056500 0.117590 0.100200 0.040000 0.126040 0.067340 0.042990 0.100780 0.079100 0.040000 0.040000 0.087730 0.166070 0.152060 0.054230 0.060760 0.082850 0.096180 0.041780 0.153940 0.055050 0.046700 0.063870 0.058540 0.049330 0.040000 0.044440 0.071130 0.063490 0.077030 0.040000 0.061660 0.040000 0.213020 0.161970 0.082130 0.232040 0.117460 0.131910 0.054030 0.057770 0.044710 0.077130 0.040000 0.064560 0.040000 0.047410 0.045890 0.149860 0.044110 0.042230 0.071530 0.052730 0.185180 0.315600 0.156300 0.203560 0.380070 0.534680 0.101050 0.053360 1.864790 0.040000 0.088440 0.044200 0.111620 0.092450 0.042890 0.076060 0.083010 0.070700 0.162530 0.082630 0.060200 0.126950 0.118180 0.279220 0.079400 0.165460 0.273300 0.059370 0.088280 0.076290 0.175030 0.075680 0.126120 0.043130 0.040650 0.105750 0.045470 0.078540 0.050680
0.116120 0.188420 0.444040 0.418430 0.040000 0.390660 0.599550 0.220650 0.224860 0.659790 0.556280 0.040000 0.615020 0.285640 0.140770 0.473230 0.351650 0.040000 0.040000 0.484320 0.839600 0.761010 0.290730 0.248770 0.464940 0.447490 0.164540 0.752170 0.216650 0.226680 0.358480 0.238390 0.232290 0.083150 0.154250 0.355770 0.264060 0.432340 0.044090 0.346060 0.040000 1.195310 0.885660 0.368640 1.301990 0.566900 0.648260 0.301950 0.313630 0.156760 0.409740 0.040000 0.270040 0.110860 0.254890 0.240620 0.748670 0.151190 0.133680 0.318630 0.203710 0.981560 1.770840 0.861200 1.142230 2.132530 2.907800 0.556090 0.279750 10.414680 0.040000 0.404120 0.151960 0.528430 0.244000 0.212880 0.414240 0.373650 0.381130 0.824820 0.371420 0.245590 0.620080 0.663130 1.566650 0.353330 0.836160 1.533480 0.272880 0.495430 0.335860 0.949780 0.424670 0.707720 0.142090 0.160320 0.581410 0.236770 0.440770 0.261580
0.040000 0.041490 0.058930 0.051500 0.040000 0.047090 0.060910 0.043690 0.043980 0.065020 0.059330 0.040000 0.070600 0.048120 0.040000 0.060920 0.052630 0.040000 0.040000 0.054750 0.085930 0.080560 0.042520 0.045610 0.051720 0.059170 0.040000 0.093620 0.043420 0.040220 0.044450 0.044760 0.041230 0.040000 0.040000 0.049580 0.046650 0.049500 0.040000 0.043610 0.040000 0.101560 0.084350 0.053790 0.108840 0.067320 0.072850 0.041160 0.043560 0.040000 0.051870 0.040000 0.047060 0.040000 0.040000 0.040000 0.089710 0.040000 0.040000 0.049730 0.042530 0.093240 0.140840 0.091840 0.097940 0.165520 0.237050 0.060170 0.042770 0.736320 0.040000 0.066210 0.040000 0.086350 0.082420 0.040000 0.050770 0.064120 0.049030 0.084570 0.053980 0.045390 0.070950 0.065240 0.126900 0.052740 0.085690 0.124640 0.045070 0.053800 0.051550 0.099350 0.048970 0.068290 0.040000 0.040000 0.072080 0.040000 0.050070 0.041740
0.047770 0.061140 0.108400 0.097360 0.040000 0.092230 0.130850 0.067100 0.067870 0.141990 0.122850 0.040000 0.140020 0.079110 0.052330 0.113800 0.091320 0.040000 0.040000 0.109540 0.181540 0.167010 0.073750 0.072300 0.105960 0.109040 0.050410 0.175370 0.066360 0.061910 0.086270 0.069990 0.062950 0.041670 0.054820 0.085780 0.075120 0.099930 0.040000 0.083980 0.040000 0.241000 0.183750 0.094460 0.260730 0.131120 0.146100 0.075830 0.077980 0.055280 0.095750 0.040000 0.076230 0.046800 0.067130 0.064490 0.174730 0.054250 0.051020 0.083460 0.063970 0.201490 0.347420 0.189230 0.231190 0.414300 0.573950 0.122810 0.071720 1.945670 0.040000 0.111020 0.054400 0.143990 0.103670 0.059350 0.096590 0.105390 0.090470 0.177860 0.094970 0.071710 0.140950 0.142610 0.309670 0.091630 0.180900 0.303540 0.070850 0.111600 0.088400 0.205610 0.098520 0.150850 0.052570 0.049640 0.137490 0.063770 0.101490 0.068360
0.074240 0.115040 0.259310 0.236130 0.040000 0.220460 0.338340 0.133230 0.135610 0.372350 0.313940 0.040000 0.355800 0.169910 0.088160 0.275780 0.207170 0.040000 0.040000 0.273320 0.482540 0.438190 0.164060 0.149100 0.262390 0.261250 0.092860 0.433200 0.130980 0.127920 0.202310 0.142070 0.131080 0.055630 0.095770 0.200780 0.157730 0.243990 0.040000 0.195290 0.040000 0.674580 0.499820 0.216750 0.734770 0.328640 0.374370 0.170400 0.176990 0.097180 0.231220 0.040000 0.161110 0.071270 0.143850 0.135790 0.431230 0.094040 0.084150 0.183180 0.123670 0.553930 0.999380 0.486010 0.644630 1.203480 1.649730 0.313820 0.157860 5.877600 0.040000 0.236780 0.094470 0.306930 0.162770 0.120130 0.233770 0.219570 0.215090 0.471310 0.218320 0.147310 0.358650 0.374250 0.884130 0.208120 0.480600 0.865430 0.153980 0.279590 0.198260 0.536000 0.239660 0.399410 0.088890 0.090480 0.328110 0.133610 0.248730 0.147620
0.041600 0.050330 0.086110 0.071590 0.040000 0.067170 0.094590 0.054220 0.054730 0.103460 0.092280 0.040000 0.116780 0.063200 0.044580 0.093710 0.073940 0.040000 0.040000 0.083680 0.136100 0.124970 0.055090 0.057620 0.076130 0.081610 0.043220 0.140890 0.053740 0.048090 0.063280 0.056120 0.049880 0.040000 0.046210 0.066670 0.064020 0.078290 0.040000 0.063140 0.040000 0.169330 0.133590 0.072090 0.186570 0.097470 0.108950 0.056450 0.057860 0.046510 0.072890 0.040000 0.060670 0.040970 0.050770 0.049050 0.151420 0.045840 0.043720 0.072150 0.052180 0.151300 0.252210 0.135630 0.165780 0.306760 0.429090 0.087140 0.054930 1.679900 0.040000 0.089520 0.045930 0.115660 0.092830 0.045690 0.078170 0.084050 0.072640 0.164240 0.072430 0.057230 0.105000 0.100060 0.221920 0.070240 0.135610 0.217220 0.079810 0.134100 0.105500 0.239580 0.114950 0.191580 0.053040 0.041950 0.108700 0.048580 0.079490 0.051840
0.079590 0.117640 0.265830 0.245990 0.040000 0.227530 0.347570 0.136310 0.138760 0.382510 0.324430 0.040000 0.431000 0.203480 0.104240 0.333060 0.249080 0.040000 0.040000 0.335300 0.302550 0.275460 0.171700 0.152630 0.269550 0.167370 0.104890 0.448550 0.155830 0.160730 0.247600 0.171100 0.165310 0.068820 0.112730 0.250520 0.259800 0.424800 0.049390 0.340010 0.040000 0.412080 0.311950 0.140190 0.448860 0.208540 0.236470 0.256300 0.217910 0.114460 0.286240 0.040000 0.192710 0.085860 0.214130 0.236430 0.735960 0.148900 0.131700 0.319870 0.086370 0.346310 0.610510 0.305370 0.393790 0.735530 1.015570 0.264410 0.274870 6.823900 0.040000 0.397410 0.149660 0.519560 0.245300 0.209160 0.407030 0.367490 0.374490 0.816580 0.141150 0.099210 0.226880 0.228620 0.540090 0.134910 0.301370 0.528670 0.571940 1.224240 0.800520 2.052330 1.049420 1.748840 0.321690 0.160910 0.571260 0.232640 0.433080 0.257360
0.046280 0.058530 0.101840 0.090890 0.040000 0.086190 0.121570 0.063990 0.064710 0.131790 0.114240 0.040000 0.150110 0.083620 0.054380 0.121490 0.096950 0.040000 0.040000 0.117760 0.112570 0.104660 0.069250 0.068760 0.098770 0.073070 0.048550 0.164050 0.069690 0.065750 0.092360 0.073660 0.066880 0.042740 0.057100 0.091820 0.100080 0.144150 0.040000 0.119370 0.040000 0.140420 0.110250 0.065120 0.151180 0.085100 0.093260 0.094900 0.083300 0.057600 0.102710 0.040000 0.080470 0.048340 0.082440 0.089090 0.249230 0.067670 0.062640 0.113030 0.048510 0.123380 0.198420 0.116760 0.135070 0.234850 0.330950 0.097270 0.100320 2.013370 0.040000 0.150300 0.067890 0.195990 0.122290 0.081120 0.138950 0.141540 0.129440 0.259630 0.065400 0.052720 0.090460 0.086810 0.177840 0.063580 0.112230 0.174500 0.189570 0.377770 0.258100 0.629790 0.326690 0.531090 0.118160 0.066040 0.196950 0.087980 0.146560 0.095110
0.210210 0.345760 0.825010 0.784480 0.060000 0.732430 1.124050 0.406170 0.414070 1.237010 1.042950 0.060000 1.436700 0.658010 0.315530 1.101510 0.814070 0.070240 0.060000 1.145010 0.840220 0.762530 0.545080 0.458920 0.871710 0.452600 0.308470 1.402710 0.494920 0.535910 0.847480 0.562200 0.549180 0.179300 0.347400 0.841140 0.935430 1.603950 0.115430 1.283830 0.060000 1.181640 0.875860 0.374640 1.287090 0.570640 0.651590 0.934040 0.741480 0.353340 0.968660 0.060000 0.621140 0.246140 0.776190 0.892700 2.737720 0.516710 0.451740 1.182940 0.211600 0.974380 1.750580 0.851310 1.129170 2.108130 2.884770 0.859900 1.037840 21.815130 0.064740 1.455050 0.526590 1.916270 0.819480 0.789790 1.536810 1.342010 1.414000 3.057760 0.377390 0.253000 0.623210 0.655540 1.548730 0.359510 0.836810 1.515950 1.446910 3.119340 2.018750 5.468070 2.673890 4.455980 0.798690 0.594860 2.156980 0.878380 1.635240 0.970470
0.052320 0.072320 0.151730 0.131890 0.040000 0.121360 0.186240 0.082320 0.083630 0.204970 0.172900 0.040000 0.240240 0.118320 0.064700 0.187760 0.142750 0.040000 0.040000 0.179250 0.171410 0.156890 0.091900 0.091070 0.144430 0.098970 0.058210 0.250170 0.092780 0.086720 0.132670 0.100060 0.089650 0.047470 0.069680 0.135260 0.148500 0.227640 0.040000 0.182190 0.040000 0.220820 0.169460 0.084400 0.240520 0.121030 0.136000 0.137340 0.116090 0.070620 0.153330 0.040000 0.112550 0.055140 0.114500 0.126680 0.403660 0.089070 0.079850 0.173840 0.055370 0.191220 0.327150 0.164920 0.211010 0.393960 0.553510 0.141690 0.147290 3.656620 0.040000 0.222250 0.089480 0.287690 0.155880 0.112090 0.218110 0.206200 0.200670 0.441060 0.084920 0.061670 0.130860 0.122500 0.289420 0.081570 0.170770 0.283290 0.312600 0.656050 0.438260 1.099780 0.562350 0.937160 0.181660 0.086260 0.306120 0.124650 0.232070 0.137730
0.078740 0.122930 0.279150 0.255730 0.040000 0.238760 0.366410 0.142620 0.145190 0.403240 0.339980 0.040000 0.453270 0.213430 0.107940 0.350030 0.261500 0.040000 0.040000 0.352670 0.317870 0.289310 0.177670 0.159820 0.284160 0.175370 0.101660 0.467470 0.163190 0.165060 0.261020 0.177700 0.169140 0.065980 0.117760 0.259050 0.272800 0.447820 0.046900 0.358450 0.040000 0.434420 0.323330 0.146700 0.473190 0.218760 0.248210 0.270210 0.228370 0.119580 0.298350 0.040000 0.202070 0.086160 0.225280 0.249240 0.774780 0.155890 0.137750 0.331960 0.086770 0.361470 0.643580 0.313230 0.415130 0.775040 1.069540 0.278730 0.289770 7.190550 0.040000 0.417870 0.156690 0.546650 0.252900 0.220500 0.429080 0.386320 0.394790 0.856480 0.147720 0.101980 0.238090 0.241000 0.569380 0.141140 0.316620 0.557330 0.599490 1.290600 0.842830 2.163590 1.106300 1.843630 0.338040 0.166080 0.602230 0.245240 0.456560 0.270960
0.049120 0.063510 0.122440 0.106690 0.040000 0.098400 0.144840 0.069920 0.070760 0.159390 0.138990 0.040000 0.218310 0.108520 0.064110 0.171050 0.130530 0.040000 0.040000 0.165240 0.101670 0.093840 0.077840 0.075510 0.112780 0.062600 0.052730 0.202930 0.085550 0.084020 0.121860 0.092090 0.085610 0.047840 0.067920 0.125080 0.165200 0.257210 0.041590 0.205880 0.040000 0.119100 0.099380 0.055900 0.130210 0.074490 0.082570 0.146420 0.108670 0.068630 0.142010 0.040000 0.103330 0.055660 0.122970 0.145770 0.453510 0.098570 0.089420 0.197420 0.043650 0.112360 0.176460 0.100560 0.116520 0.216050 0.307770 0.113620 0.169740 2.763350 0.040000 0.248520 0.098970 0.323240 0.168340 0.131260 0.248510 0.230400 0.229360 0.498220 0.056100 0.046760 0.079790 0.069260 0.156110 0.054760 0.101320 0.152800 0.117050 0.217600 0.158740 0.448000 0.186520 0.310860 0.073620 0.103800 0.347860 0.143750 0.262230 0.159160
0.079170 0.116160 0.246930 0.234060 0.040000 0.219860 0.326710 0.132640 0.134800 0.357540 0.304580 0.040000 0.462160 0.222940 0.117720 0.359190 0.270880 0.040230 0.040000 0.371770 0.186570 0.171550 0.168720 0.147030 0.257860 0.111660 0.104170 0.414560 0.172830 0.184640 0.280370 0.190910 0.188720 0.075870 0.127510 0.278410 0.358000 0.601040 0.059810 0.485070 0.040000 0.248340 0.189190 0.096600 0.268720 0.134470 0.149950 0.340370 0.247800 0.129330 0.317590 0.040000 0.211610 0.095990 0.284790 0.343390 1.022860 0.206310 0.182780 0.448200 0.065090 0.207500 0.358280 0.194510 0.238200 0.427370 0.591660 0.257630 0.395960 5.929590 0.040000 0.556230 0.207350 0.733320 0.331840 0.306100 0.576720 0.515290 0.532220 1.138980 0.097130 0.073090 0.144630 0.146680 0.319270 0.093670 0.185910 0.312940 0.176280 0.347990 0.239110 0.793770 0.301150 0.488540 0.110820 0.235490 0.811390 0.338200 0.612370 0.371560
0.106190 0.157640 0.351380 0.319960 0.060000 0.296370 0.454380 0.182060 0.185250 0.500060 0.422850 0.060000 0.670260 0.315830 0.159950 0.517680 0.386870 0.060000 0.060000 0.521140 0.261950 0.239710 0.222920 0.203380 0.352380 0.150970 0.133300 0.588480 0.241600 0.246350 0.385720 0.263840 0.253300 0.101740 0.174460 0.386060 0.515930 0.860830 0.080120 0.689000 0.060000 0.338270 0.259070 0.129640 0.368740 0.184780 0.207710 0.474620 0.337470 0.177150 0.442120 0.060000 0.299050 0.128830 0.392290 0.479110 1.480820 0.291200 0.256340 0.639040 0.087240 0.292290 0.501150 0.255860 0.325810 0.606930 0.847280 0.352060 0.556990 8.594840 0.060000 0.794800 0.292750 1.042330 0.466460 0.423850 0.824790 0.734140 0.758870 1.645320 0.130360 0.098000 0.199820 0.190520 0.443380 0.125710 0.260970 0.433990 0.246710 0.485920 0.339810 1.134360 0.416510 0.694140 0.149740 0.319240 1.157620 0.471400 0.877600 0.520830
0.089310 0.141450 0.325760 0.301700 0.040000 0.281690 0.432300 0.164680 0.167710 0.475760 0.401100 0.040000 0.629140 0.291940 0.143640 0.484000 0.359530 0.041980 0.040000 0.495820 0.240680 0.219520 0.209640 0.184960 0.335250 0.135100 0.121920 0.547950 0.221320 0.232060 0.366980 0.247610 0.237810 0.084650 0.157440 0.364230 0.482320 0.818990 0.064900 0.655520 0.040000 0.321840 0.244400 0.113870 0.350560 0.167260 0.189070 0.451560 0.321080 0.160010 0.419470 0.040000 0.275970 0.113010 0.373230 0.455820 1.401610 0.268510 0.235340 0.604110 0.071090 0.271790 0.476800 0.238020 0.307540 0.574200 0.797570 0.334950 0.529920 8.177070 0.041450 0.747640 0.270690 0.983130 0.428410 0.403260 0.784700 0.689930 0.721990 1.562330 0.114610 0.080740 0.181570 0.178550 0.421830 0.109750 0.239750 0.412910 0.227800 0.462300 0.314750 1.076540 0.396290 0.660420 0.133920 0.303730 1.101360 0.448510 0.834950 0.495530
0.082190 0.128980 0.294400 0.270760 0.040000 0.252800 0.387970 0.149840 0.152570 0.426970 0.359980 0.040000 0.566680 0.264060 0.130960 0.436420 0.324700 0.040000 0.040000 0.444980 0.218050 0.199060 0.188130 0.168040 0.300870 0.123300 0.107490 0.493800 0.200670 0.208250 0.329350 0.221800 0.213420 0.078020 0.143340 0.326870 0.434910 0.735010 0.058200 0.588300 0.040000 0.288840 0.218580 0.104240 0.314620 0.152160 0.171730 0.405250 0.288160 0.145660 0.376450 0.040000 0.249720 0.103480 0.334960 0.409070 1.258760 0.243020 0.213260 0.541660 0.064390 0.243960 0.427910 0.211900 0.276020 0.515320 0.717830 0.300600 0.475580 7.338570 0.040000 0.673010 0.244350 0.884360 0.384680 0.361900 0.704240 0.621230 0.647960 1.400000 0.104910 0.074500 0.165010 0.160230 0.378570 0.100540 0.217220 0.370550 0.205050 0.414900 0.284520 0.966140 0.355630 0.592690 0.122240 0.272580 0.988420 0.402520 0.749340 0.444720
0.062550 0.094560 0.207720 0.185230 0.040000 0.172950 0.265420 0.108830 0.110690 0.292100 0.246270 0.040000 0.394000 0.186970 0.095910 0.304870 0.228460 0.040000 0.040000 0.304410 0.155490 0.142490 0.128710 0.121280 0.205830 0.090670 0.073790 0.344130 0.143600 0.142470 0.225310 0.155960 0.146000 0.059690 0.104380 0.223620 0.303850 0.502830 0.046220 0.402460 0.040000 0.197590 0.151680 0.077630 0.215230 0.110400 0.123800 0.277230 0.197130 0.105960 0.257530 0.040000 0.177160 0.077100 0.229140 0.279850 0.867470 0.172580 0.152210 0.370560 0.050370 0.173210 0.292740 0.146120 0.188820 0.352540 0.497400 0.205640 0.325350 5.020510 0.040000 0.466740 0.173480 0.611320 0.275500 0.247590 0.481780 0.431300 0.443280 0.957770 0.078090 0.057290 0.119200 0.109620 0.258990 0.075100 0.154910 0.253510 0.146590 0.283830 0.200960 0.660960 0.243300 0.405470 0.089940 0.186480 0.676210 0.275360 0.512650 0.304240
40
3.000000
0.750000
2.000000
